## htsjdk.samtools.metrics.StringHeader
# picard.analysis.CollectRnaSeqMetrics REF_FLAT=/ref/genomes/hg19/refFlat.txt.gz RIBOSOMAL_INTERVALS=/ref/genomes/hg19/hg19.rRNA.interval_list STRAND_SPECIFICITY=SECOND_READ_TRANSCRIPTION_STRAND METRIC_ACCUMULATION_LEVEL=[ALL_READS, READ_GROUP] INPUT=/data/parkome/rna/results/bamfiles/SL283575.bam OUTPUT=/data/parkome/rna/results/QC_postAln/SL283575_picardRNAmetrics.txt QUIET=true    MINIMUM_LENGTH=500 RRNA_FRAGMENT_PERCENTAGE=0.8 ASSUME_SORTED=true STOP_AFTER=0 VERBOSITY=INFO VALIDATION_STRINGENCY=STRICT COMPRESSION_LEVEL=5 MAX_RECORDS_IN_RAM=500000 CREATE_INDEX=false CREATE_MD5_FILE=false GA4GH_CLIENT_SECRETS=client_secrets.json
## htsjdk.samtools.metrics.StringHeader
# Started on: Mon Jul 23 11:03:16 CEST 2018

## METRICS CLASS	picard.analysis.RnaSeqMetrics
PF_BASES	PF_ALIGNED_BASES	RIBOSOMAL_BASES	CODING_BASES	UTR_BASES	INTRONIC_BASES	INTERGENIC_BASES	IGNORED_READS	CORRECT_STRAND_READS	INCORRECT_STRAND_READS	PCT_RIBOSOMAL_BASES	PCT_CODING_BASES	PCT_UTR_BASES	PCT_INTRONIC_BASES	PCT_INTERGENIC_BASES	PCT_MRNA_BASES	PCT_USABLE_BASES	PCT_CORRECT_STRAND_READS	MEDIAN_CV_COVERAGE	MEDIAN_5PRIME_BIAS	MEDIAN_3PRIME_BIAS	MEDIAN_5PRIME_TO_3PRIME_BIAS	SAMPLE	LIBRARY	READ_GROUP
14773861801	13996527296	13992	2277742978	2636097158	6506320937	2576352819	0	35864002	746013	0.000001	0.162736	0.188339	0.464853	0.184071	0.351076	0.332604	0.979623	0.476028	0.095004	0.48908	0.253377			
1351360515	1277707555	1473	208277913	239421943	594206018	235800307	0	3230228	67062	0.000001	0.163009	0.187384	0.465056	0.18455	0.350393	0.331296	0.979661	0.512872	0.087371	0.478979	0.235955	SL283575	LIB-SL283575	CBTWNANXX.s1.12
1346013190	1276595533	671	207722760	240459623	592852107	235560413	0	3265394	68038	0.000001	0.162716	0.18836	0.464401	0.184522	0.351076	0.33297	0.979589	0.509357	0.090609	0.492752	0.257728	SL283575	LIB-SL283575	CBTWNANXX.s2.12
1323357813	1256172575	1485	204202906	236219489	583141451	232607323	0	3233666	67638	0.000001	0.16256	0.188047	0.464221	0.185171	0.350607	0.332807	0.979512	0.513645	0.098736	0.471885	0.255556	SL283575	LIB-SL283575	CBTWNANXX.s3.12
1335469963	1266637193	1825	205906208	239204695	587838468	233686046	0	3257335	67493	0.000001	0.162561	0.18885	0.464094	0.184493	0.351412	0.333299	0.9797	0.5145	0.085865	0.46084	0.253873	SL283575	LIB-SL283575	CBTWNANXX.s4.12
1291420092	1230605592	374	198571893	233407175	571173818	227452361	0	3258405	67905	0	0.161361	0.189669	0.46414	0.18483	0.35103	0.334499	0.979585	0.50944	0.101758	0.494677	0.255725	SL283575	LIB-SL283575	CBTWNANXX.s5.12
1326577995	1259020357	1950	204411311	237107598	585550866	231948723	0	3241347	66864	0.000002	0.162357	0.188327	0.465085	0.18423	0.350684	0.332825	0.979788	0.514198	0.101767	0.492072	0.254461	SL283575	LIB-SL283575	CBTWNANXX.s6.12
1341478961	1271727066	1186	206965603	239710652	590516939	234532735	0	3257940	67434	0.000001	0.162744	0.188492	0.464343	0.184421	0.351236	0.332973	0.979721	0.511769	0.088322	0.470528	0.272727	SL283575	LIB-SL283575	CBTWNANXX.s7.12
1347805896	1275108338	1497	208331439	239291984	593491375	233992099	0	3237425	66994	0.000001	0.163383	0.187664	0.465444	0.183508	0.351047	0.332113	0.979726	0.515278	0.090755	0.472957	0.25167	SL283575	LIB-SL283575	CBTWNANXX.s8.12
4110377376	3882953087	3531	633352945	731273999	1807549895	710772812	0	9882262	206585	0.000001	0.163111	0.188329	0.465509	0.18305	0.35144	0.331996	0.979523	0.489561	0.096843	0.494724	0.253399	SL283575	LIB-SL283575	CC2NUANXX.s4.12

## HISTOGRAM	java.lang.Integer
normalized_position	All_Reads.normalized_coverage	CBTWNANXX.s1.12.normalized_coverage	CBTWNANXX.s2.12.normalized_coverage	CBTWNANXX.s3.12.normalized_coverage	CBTWNANXX.s4.12.normalized_coverage	CBTWNANXX.s5.12.normalized_coverage	CBTWNANXX.s6.12.normalized_coverage	CBTWNANXX.s7.12.normalized_coverage	CBTWNANXX.s8.12.normalized_coverage	CC2NUANXX.s4.12.normalized_coverage
0	0.05713	0.054446	0.055355	0.057785	0.055761	0.057698	0.064112	0.056964	0.056601	0.05895
1	0.115587	0.111983	0.114336	0.115156	0.114198	0.116708	0.122688	0.109724	0.118264	0.117366
2	0.221585	0.217784	0.217573	0.224409	0.216949	0.225454	0.229222	0.214093	0.224225	0.22187
3	0.351212	0.345481	0.35001	0.350612	0.346621	0.355368	0.352459	0.342174	0.345996	0.350023
4	0.462055	0.451154	0.460741	0.460746	0.452327	0.466008	0.459974	0.452205	0.455043	0.4591
5	0.569	0.552128	0.561978	0.563495	0.554613	0.571185	0.56254	0.556247	0.554926	0.566561
6	0.647338	0.630382	0.631017	0.642868	0.63988	0.642885	0.6445	0.636833	0.638037	0.64158
7	0.725449	0.713532	0.709333	0.720611	0.716032	0.720266	0.722417	0.713337	0.718142	0.715129
8	0.800989	0.796316	0.782605	0.792998	0.784471	0.798665	0.798347	0.78756	0.79177	0.788832
9	0.872069	0.862825	0.863302	0.858551	0.861847	0.870495	0.862912	0.849723	0.8634	0.860617
10	0.926213	0.917386	0.917629	0.907266	0.91685	0.916505	0.910709	0.910098	0.918458	0.917653
11	0.96457	0.963921	0.961688	0.952126	0.952484	0.957409	0.965236	0.954606	0.956994	0.957642
12	0.985011	0.990311	0.995595	0.973788	0.973689	0.980169	0.99771	0.979377	0.97607	0.981422
13	1.015427	1.025277	1.025562	1.006619	1.001054	1.008086	1.026244	1.009422	1.007039	1.014095
14	1.03951	1.049071	1.051004	1.031693	1.025928	1.036006	1.05282	1.034139	1.034528	1.043594
15	1.054432	1.064391	1.067861	1.045198	1.043633	1.055202	1.06143	1.051752	1.054211	1.062999
16	1.077005	1.081535	1.089327	1.067728	1.071277	1.086428	1.08036	1.080004	1.074243	1.08791
17	1.089317	1.094794	1.098369	1.083925	1.078848	1.103226	1.097064	1.092093	1.0907	1.098018
18	1.109043	1.118665	1.110497	1.110506	1.097649	1.112605	1.119904	1.103782	1.104441	1.11671
19	1.131617	1.139866	1.137624	1.132482	1.121685	1.133822	1.143071	1.126342	1.127663	1.138463
20	1.135304	1.146562	1.141698	1.13368	1.129844	1.134934	1.142125	1.13172	1.124662	1.140561
21	1.142858	1.157426	1.150045	1.144343	1.137133	1.138343	1.1521	1.141277	1.136532	1.143146
22	1.146623	1.154746	1.15192	1.145383	1.132607	1.144049	1.162186	1.140097	1.141297	1.142892
23	1.144123	1.156255	1.152982	1.150205	1.127066	1.139596	1.16087	1.142634	1.147993	1.136424
24	1.141897	1.150403	1.152475	1.15608	1.12897	1.137897	1.153924	1.147694	1.145851	1.136827
25	1.143737	1.146613	1.158349	1.162845	1.138732	1.13885	1.15271	1.146814	1.151002	1.143829
26	1.151851	1.151092	1.166278	1.173192	1.142249	1.14717	1.158811	1.154114	1.157002	1.154409
27	1.151916	1.155352	1.163794	1.173391	1.143206	1.151925	1.154403	1.153872	1.157173	1.157177
28	1.148904	1.155261	1.161162	1.169327	1.138387	1.1521	1.139308	1.148151	1.153354	1.154427
29	1.165442	1.169836	1.166147	1.181759	1.151445	1.171679	1.154454	1.164298	1.167837	1.169512
30	1.168761	1.170931	1.163487	1.182319	1.160673	1.181196	1.156999	1.170526	1.166828	1.172115
31	1.165355	1.157471	1.163824	1.175111	1.166915	1.175545	1.15493	1.158048	1.165459	1.173268
32	1.176959	1.168347	1.178507	1.184788	1.177001	1.176099	1.174623	1.168615	1.178297	1.181251
33	1.175532	1.164213	1.171493	1.180517	1.175503	1.173693	1.180411	1.17018	1.178379	1.182009
34	1.166526	1.15937	1.16648	1.168015	1.167882	1.161967	1.174573	1.158471	1.175654	1.172232
35	1.171041	1.167198	1.178199	1.170857	1.174379	1.168182	1.180923	1.162043	1.183386	1.17506
36	1.170019	1.160261	1.181092	1.169169	1.17477	1.17074	1.1816	1.162254	1.185965	1.173279
37	1.16722	1.149279	1.171463	1.168408	1.168753	1.168245	1.176883	1.160443	1.174558	1.17037
38	1.16936	1.147781	1.171769	1.166663	1.1731	1.170561	1.180902	1.160871	1.167722	1.173038
39	1.172356	1.153226	1.181999	1.173574	1.17135	1.181769	1.17816	1.159274	1.169836	1.175097
40	1.163666	1.154102	1.172702	1.170121	1.167467	1.175927	1.169823	1.157327	1.158803	1.165815
41	1.145023	1.139468	1.151381	1.149334	1.14618	1.156885	1.163791	1.144085	1.144041	1.151347
42	1.133928	1.133832	1.135815	1.13011	1.131658	1.150504	1.155501	1.133398	1.133753	1.137223
43	1.126815	1.125501	1.130849	1.119936	1.122947	1.135828	1.145323	1.131391	1.130802	1.126211
44	1.123462	1.128996	1.126779	1.11816	1.115341	1.131773	1.135054	1.129848	1.129378	1.119649
45	1.125563	1.130415	1.129351	1.123251	1.114523	1.135568	1.133588	1.134279	1.135901	1.12444
46	1.127489	1.132105	1.127562	1.115882	1.115722	1.139623	1.136564	1.130824	1.134164	1.126391
47	1.124209	1.120238	1.121725	1.115334	1.117578	1.133002	1.128868	1.122578	1.141403	1.120827
48	1.124406	1.120315	1.114373	1.121879	1.121442	1.128978	1.127965	1.128313	1.142085	1.119423
49	1.126425	1.11844	1.127748	1.124748	1.130686	1.133873	1.128317	1.131882	1.141481	1.12051
50	1.122284	1.108915	1.122692	1.122563	1.12693	1.131336	1.121051	1.128241	1.138326	1.115934
51	1.118631	1.11353	1.115487	1.12122	1.124372	1.128235	1.117552	1.123863	1.129688	1.114022
52	1.11656	1.1061	1.113117	1.120743	1.117093	1.125436	1.115349	1.120949	1.123917	1.115671
53	1.13053	1.119348	1.129207	1.129402	1.126634	1.144889	1.125824	1.136159	1.141095	1.128993
54	1.135638	1.12691	1.138046	1.133191	1.13222	1.151372	1.13477	1.139374	1.154419	1.132124
55	1.134988	1.136053	1.13533	1.133833	1.12386	1.150314	1.128009	1.135034	1.158704	1.130021
56	1.127048	1.1358	1.118648	1.122559	1.115612	1.137495	1.125055	1.130299	1.149973	1.122439
57	1.121502	1.134287	1.110804	1.118616	1.108094	1.128964	1.116571	1.124796	1.147349	1.115225
58	1.115723	1.124983	1.104038	1.113722	1.102789	1.112809	1.110672	1.116907	1.140828	1.108158
59	1.112031	1.121894	1.103509	1.111751	1.097584	1.107592	1.103084	1.11618	1.134913	1.10674
60	1.11806	1.128863	1.113785	1.115676	1.102256	1.115245	1.103401	1.122551	1.141888	1.117294
61	1.132382	1.139088	1.127954	1.11965	1.114846	1.131845	1.115482	1.135676	1.158696	1.128845
62	1.138064	1.138865	1.127907	1.133737	1.126607	1.134261	1.122842	1.133542	1.156205	1.132789
63	1.121242	1.115783	1.10777	1.128493	1.120103	1.116595	1.109567	1.118427	1.130765	1.117884
64	1.102627	1.103209	1.084439	1.111478	1.106103	1.102762	1.09381	1.107446	1.101905	1.096497
65	1.091938	1.101681	1.076667	1.097174	1.094409	1.093583	1.086667	1.10062	1.088521	1.083976
66	1.098375	1.109176	1.088176	1.103122	1.100294	1.102722	1.095343	1.11264	1.091709	1.089234
67	1.092507	1.098426	1.085322	1.097744	1.089878	1.089671	1.090156	1.101947	1.084417	1.084687
68	1.090074	1.092827	1.088767	1.096471	1.085663	1.073864	1.096425	1.095861	1.088301	1.083289
69	1.096843	1.103086	1.102679	1.0936	1.091624	1.078409	1.09988	1.100603	1.092864	1.091904
70	1.088217	1.098426	1.097984	1.089553	1.083743	1.075195	1.087895	1.09486	1.085204	1.083704
71	1.078967	1.081262	1.085397	1.088807	1.080945	1.059907	1.080602	1.09158	1.073173	1.075277
72	1.081101	1.080792	1.080056	1.084157	1.088246	1.050386	1.080593	1.091232	1.073517	1.084327
73	1.073482	1.080462	1.066247	1.07611	1.085466	1.041537	1.071953	1.083984	1.060703	1.080393
74	1.076607	1.080326	1.070646	1.086655	1.098842	1.04572	1.061691	1.083402	1.06394	1.081693
75	1.072531	1.069275	1.065199	1.081589	1.093117	1.041216	1.047779	1.082281	1.066212	1.073111
76	1.063579	1.053064	1.057151	1.066784	1.082397	1.044786	1.041804	1.072037	1.05461	1.062152
77	1.049869	1.038868	1.046467	1.044561	1.062035	1.040006	1.03939	1.05674	1.040487	1.051179
78	1.048202	1.041302	1.042378	1.040374	1.058753	1.040909	1.041781	1.054343	1.041733	1.051128
79	1.052469	1.052276	1.036427	1.034001	1.06698	1.048792	1.056778	1.065161	1.046344	1.056549
80	1.052179	1.054508	1.034706	1.038353	1.071806	1.046479	1.043953	1.063427	1.044989	1.055614
81	1.048165	1.040575	1.027248	1.041521	1.07023	1.047622	1.036737	1.056857	1.041353	1.047246
82	1.036635	1.023213	1.020846	1.036421	1.061561	1.036642	1.025237	1.039028	1.022763	1.039162
83	1.032536	1.033103	1.025715	1.03174	1.061152	1.032546	1.019672	1.030321	1.01938	1.031967
84	1.029171	1.045591	1.031585	1.026787	1.055225	1.030174	1.005042	1.032222	1.017555	1.028352
85	1.010133	1.031658	1.018932	0.999211	1.03983	1.011995	0.987633	1.015892	1.008395	1.009818
86	0.976528	0.989271	0.984165	0.960189	1.001478	0.973824	0.964513	0.985619	0.979864	0.978308
87	0.953333	0.963143	0.96437	0.945578	0.966464	0.939868	0.953606	0.955003	0.953335	0.958344
88	0.951333	0.972123	0.958377	0.95092	0.970109	0.930295	0.949662	0.953555	0.943029	0.955783
89	0.941319	0.961084	0.945972	0.94995	0.96391	0.926235	0.944313	0.944518	0.918593	0.946592
90	0.911729	0.921883	0.913632	0.923593	0.931118	0.905613	0.91783	0.906024	0.885754	0.917762
91	0.886046	0.881884	0.88469	0.900965	0.905371	0.886989	0.891522	0.879833	0.869387	0.893077
92	0.862967	0.854422	0.865141	0.870728	0.877229	0.870077	0.864864	0.861085	0.851895	0.871241
93	0.830377	0.823898	0.833422	0.831823	0.842256	0.842738	0.831382	0.836463	0.821604	0.834671
94	0.801578	0.799926	0.806002	0.803168	0.808978	0.814131	0.803181	0.802242	0.796546	0.805507
95	0.763422	0.757128	0.769686	0.765205	0.766639	0.779389	0.766968	0.758991	0.754286	0.76997
96	0.710198	0.705972	0.719433	0.710315	0.712636	0.729425	0.71665	0.708964	0.6981	0.715953
97	0.639483	0.633722	0.649798	0.638638	0.641328	0.657051	0.639512	0.643742	0.636227	0.642238
98	0.523207	0.521358	0.533278	0.517989	0.524726	0.539256	0.522272	0.520675	0.521341	0.522069
99	0.339154	0.337981	0.348047	0.335928	0.343439	0.346585	0.338721	0.337078	0.337808	0.337203
100	0.130757	0.129954	0.133451	0.129499	0.131231	0.132093	0.133949	0.129548	0.129899	0.131328

