## htsjdk.samtools.metrics.StringHeader
# picard.analysis.CollectRnaSeqMetrics REF_FLAT=/ref/genomes/hg19/refFlat.txt.gz RIBOSOMAL_INTERVALS=/ref/genomes/hg19/hg19.rRNA.interval_list STRAND_SPECIFICITY=NONE METRIC_ACCUMULATION_LEVEL=[ALL_READS, READ_GROUP] INPUT=/data/parkome/rna/results/bamfiles/SL283597.bam OUTPUT=/data/parkome/rna/results/QC_postAln/SL283597_picardRNAmetrics.txt    MINIMUM_LENGTH=500 RRNA_FRAGMENT_PERCENTAGE=0.8 ASSUME_SORTED=true STOP_AFTER=0 VERBOSITY=INFO QUIET=false VALIDATION_STRINGENCY=STRICT COMPRESSION_LEVEL=5 MAX_RECORDS_IN_RAM=500000 CREATE_INDEX=false CREATE_MD5_FILE=false GA4GH_CLIENT_SECRETS=client_secrets.json
## htsjdk.samtools.metrics.StringHeader
# Started on: Thu Jul 12 16:07:09 CEST 2018

## METRICS CLASS	picard.analysis.RnaSeqMetrics
PF_BASES	PF_ALIGNED_BASES	RIBOSOMAL_BASES	CODING_BASES	UTR_BASES	INTRONIC_BASES	INTERGENIC_BASES	IGNORED_READS	CORRECT_STRAND_READS	INCORRECT_STRAND_READS	PCT_RIBOSOMAL_BASES	PCT_CODING_BASES	PCT_UTR_BASES	PCT_INTRONIC_BASES	PCT_INTERGENIC_BASES	PCT_MRNA_BASES	PCT_USABLE_BASES	PCT_CORRECT_STRAND_READS	MEDIAN_CV_COVERAGE	MEDIAN_5PRIME_BIAS	MEDIAN_3PRIME_BIAS	MEDIAN_5PRIME_TO_3PRIME_BIAS	SAMPLE	LIBRARY	READ_GROUP
15142851055	14267847156	21274	2678120410	3434548332	5092087462	3063070945	0	0	0	0.000001	0.187703	0.240719	0.356892	0.214683	0.428423	0.403667	0	0.462165	0.111675	0.45203	0.319764			
948274973	891338978	1124	166435562	213496230	320822465	190583686	0	0	0	0.000001	0.186725	0.239523	0.359933	0.213817	0.426248	0.400656	0	0.506531	0.111849	0.450896	0.321168	SL283597	LIB-SL283597	CBTWNANXX.s1.35
946585771	893556251	2069	166662119	214314443	318919428	193658327	0	0	0	0.000002	0.186516	0.239844	0.35691	0.216728	0.42636	0.402474	0	0.508911	0.114785	0.451132	0.315166	SL283597	LIB-SL283597	CBTWNANXX.s2.35
931050476	880203296	920	163599794	211587084	315228875	189786670	0	0	0	0.000001	0.185866	0.240384	0.358132	0.215617	0.42625	0.402972	0	0.512162	0.102901	0.459085	0.304153	SL283597	LIB-SL283597	CBTWNANXX.s3.35
939156320	886311787	1208	165192517	212658906	317708261	190750940	0	0	0	0.000001	0.186382	0.239937	0.358461	0.215219	0.426319	0.402331	0	0.510528	0.107328	0.437431	0.29344	SL283597	LIB-SL283597	CBTWNANXX.s4.35
905742350	860403917	1651	158531008	208614395	307527813	185729127	0	0	0	0.000002	0.184252	0.242461	0.357423	0.215863	0.426713	0.405353	0	0.51149	0.110603	0.47159	0.313774	SL283597	LIB-SL283597	CBTWNANXX.s5.35
934193768	882273486	1395	163771749	212466784	317164007	188869635	0	0	0	0.000002	0.185625	0.240817	0.359485	0.214072	0.426442	0.402741	0	0.508507	0.106257	0.477325	0.310345	SL283597	LIB-SL283597	CBTWNANXX.s6.35
942003221	888693772	1467	165227118	213494954	318181266	191789045	0	0	0	0.000002	0.185921	0.240235	0.358033	0.21581	0.426156	0.402039	0	0.504466	0.111639	0.460413	0.306318	SL283597	LIB-SL283597	CBTWNANXX.s7.35
949785818	893562106	1304	166387389	213447083	320999257	192727148	0	0	0	0.000001	0.186207	0.238872	0.359236	0.215684	0.425079	0.399916	0	0.50567	0.114299	0.453703	0.31856	SL283597	LIB-SL283597	CBTWNANXX.s8.35
7646058358	7191503563	10136	1362313154	1734468453	2555536090	1539176367	0	0	0	0.000001	0.189434	0.241183	0.355355	0.214027	0.430617	0.405017	0	0.465392	0.107863	0.452702	0.339546	SL283597	LIB-SL283597	CC2NUANXX.s1.35

## HISTOGRAM	java.lang.Integer
normalized_position	All_Reads.normalized_coverage	CBTWNANXX.s1.35.normalized_coverage	CBTWNANXX.s2.35.normalized_coverage	CBTWNANXX.s3.35.normalized_coverage	CBTWNANXX.s4.35.normalized_coverage	CBTWNANXX.s5.35.normalized_coverage	CBTWNANXX.s6.35.normalized_coverage	CBTWNANXX.s7.35.normalized_coverage	CBTWNANXX.s8.35.normalized_coverage	CC2NUANXX.s1.35.normalized_coverage
0	0.067319	0.065532	0.066194	0.062936	0.064044	0.063784	0.06248	0.067125	0.066699	0.068266
1	0.134252	0.134626	0.134035	0.12617	0.134538	0.132124	0.130856	0.134589	0.134307	0.136005
2	0.253818	0.251273	0.259961	0.243576	0.261238	0.254011	0.251785	0.254293	0.250344	0.254398
3	0.390318	0.381164	0.398782	0.374873	0.39992	0.392739	0.390236	0.393717	0.380354	0.389099
4	0.49959	0.493802	0.504532	0.47917	0.506859	0.507021	0.497729	0.503875	0.486961	0.497294
5	0.602821	0.605005	0.611496	0.58165	0.606115	0.604694	0.604051	0.604292	0.588167	0.599121
6	0.679714	0.686046	0.685078	0.659262	0.679426	0.677425	0.677063	0.679526	0.668461	0.678706
7	0.753772	0.755194	0.752412	0.744382	0.757909	0.753118	0.752663	0.748823	0.746643	0.75182
8	0.815696	0.812814	0.80766	0.820115	0.814677	0.822815	0.810693	0.815699	0.81526	0.813062
9	0.8806	0.881525	0.871013	0.88465	0.874355	0.897608	0.87611	0.880712	0.876452	0.880895
10	0.921573	0.930778	0.912675	0.93009	0.921436	0.941316	0.925554	0.921043	0.92702	0.926189
11	0.962854	0.969834	0.95681	0.974454	0.965897	0.971355	0.966013	0.965227	0.970332	0.96483
12	0.988646	1.002642	0.994404	0.997665	0.99448	1.000406	0.994153	0.985325	0.990774	0.988454
13	1.018848	1.029468	1.029074	1.027378	1.018191	1.022286	1.028429	1.010757	1.014361	1.019826
14	1.047509	1.051799	1.052466	1.058267	1.047666	1.04721	1.053368	1.042364	1.045779	1.049231
15	1.061809	1.062136	1.071862	1.069602	1.061763	1.060811	1.066096	1.060944	1.058991	1.062751
16	1.075132	1.077286	1.085077	1.081141	1.079118	1.065352	1.083242	1.074109	1.065025	1.077491
17	1.079844	1.082496	1.090704	1.093385	1.085198	1.073025	1.088579	1.077663	1.079488	1.08176
18	1.090248	1.10529	1.101407	1.099381	1.097896	1.085712	1.105442	1.088528	1.090144	1.092219
19	1.108798	1.131786	1.117727	1.110262	1.120776	1.110972	1.128535	1.115115	1.101982	1.111518
20	1.110012	1.128901	1.118821	1.110675	1.122165	1.106696	1.129727	1.117224	1.099985	1.113691
21	1.121247	1.132699	1.127916	1.119187	1.127463	1.114916	1.135748	1.124248	1.110468	1.125071
22	1.13312	1.137137	1.138222	1.127318	1.138864	1.128991	1.145268	1.137055	1.120691	1.138206
23	1.141747	1.141523	1.144298	1.137608	1.145513	1.131968	1.15054	1.142324	1.127446	1.14834
24	1.142415	1.134775	1.146346	1.14274	1.144361	1.13296	1.15966	1.146883	1.131568	1.146461
25	1.144902	1.133347	1.147684	1.15233	1.138537	1.135346	1.170425	1.150574	1.130842	1.15088
26	1.146911	1.129786	1.152284	1.156899	1.137195	1.142711	1.16656	1.158111	1.134631	1.150746
27	1.136604	1.12877	1.137642	1.146108	1.127513	1.139049	1.156397	1.151407	1.125274	1.141513
28	1.129518	1.127746	1.132823	1.138256	1.125079	1.136584	1.152148	1.140468	1.123745	1.133715
29	1.141894	1.144064	1.140587	1.150167	1.145754	1.144239	1.157385	1.14293	1.140326	1.143829
30	1.141903	1.144236	1.147158	1.145551	1.148542	1.139801	1.148658	1.145514	1.140351	1.143559
31	1.14234	1.144405	1.149176	1.134607	1.148421	1.139782	1.139032	1.146219	1.130764	1.144853
32	1.155161	1.157587	1.159054	1.143039	1.160384	1.159731	1.150219	1.159135	1.141444	1.15742
33	1.153385	1.156003	1.14835	1.150043	1.160724	1.159841	1.147708	1.155062	1.131764	1.154354
34	1.148066	1.147304	1.139964	1.144791	1.153674	1.156598	1.144739	1.148756	1.127774	1.147864
35	1.155204	1.153267	1.145503	1.160238	1.159177	1.16515	1.15954	1.157478	1.135315	1.155915
36	1.16228	1.162331	1.157211	1.164916	1.164718	1.168441	1.167541	1.166451	1.142584	1.16618
37	1.167161	1.171252	1.157804	1.15805	1.166352	1.165524	1.167589	1.163249	1.150637	1.171593
38	1.166725	1.169364	1.157936	1.148984	1.160318	1.167798	1.169392	1.154147	1.152241	1.170637
39	1.160031	1.16631	1.160023	1.153017	1.156463	1.153707	1.158039	1.156676	1.143703	1.163346
40	1.150441	1.154943	1.153458	1.141377	1.14728	1.137125	1.153072	1.152473	1.13197	1.153234
41	1.134632	1.142655	1.138206	1.124909	1.135533	1.128843	1.137036	1.135076	1.125666	1.136378
42	1.128912	1.134337	1.135293	1.124457	1.130607	1.122953	1.127854	1.125248	1.124637	1.128598
43	1.123407	1.133104	1.127121	1.121041	1.124532	1.111059	1.124345	1.120955	1.124695	1.123253
44	1.118712	1.123712	1.119146	1.117642	1.119949	1.104341	1.124815	1.114308	1.126323	1.118316
45	1.11946	1.127333	1.119709	1.116554	1.115457	1.110242	1.127741	1.112509	1.136006	1.120162
46	1.11634	1.118631	1.114393	1.112776	1.111155	1.106479	1.125386	1.113968	1.129464	1.114424
47	1.114208	1.114013	1.116218	1.10848	1.112881	1.099212	1.122848	1.117192	1.128161	1.110263
48	1.119905	1.119691	1.118938	1.105663	1.120373	1.10294	1.121778	1.123794	1.124378	1.1199
49	1.126422	1.118452	1.118608	1.11455	1.12497	1.119956	1.118497	1.127972	1.124618	1.127216
50	1.120723	1.10835	1.114763	1.116015	1.118857	1.124367	1.113267	1.117533	1.127265	1.121029
51	1.114369	1.104693	1.111039	1.110003	1.11797	1.122517	1.108873	1.113324	1.125736	1.115471
52	1.113606	1.102938	1.109608	1.108232	1.120694	1.119228	1.105001	1.113584	1.125949	1.114203
53	1.127798	1.116646	1.1172	1.122522	1.131972	1.123674	1.11495	1.131377	1.137281	1.130303
54	1.130444	1.115759	1.111709	1.129805	1.132585	1.122434	1.121702	1.13643	1.134009	1.132687
55	1.134566	1.118026	1.104015	1.125067	1.132415	1.126535	1.130733	1.134612	1.1331	1.137775
56	1.133925	1.114448	1.103691	1.125574	1.127798	1.124675	1.134566	1.132435	1.123984	1.136498
57	1.131274	1.11521	1.113993	1.12547	1.129033	1.117868	1.133553	1.123242	1.124273	1.131038
58	1.126573	1.115495	1.112586	1.119489	1.128422	1.106772	1.124617	1.115503	1.125561	1.127168
59	1.117493	1.109437	1.108286	1.103388	1.115917	1.10167	1.114415	1.103873	1.111445	1.120303
60	1.116175	1.113666	1.10084	1.111641	1.116175	1.101666	1.113803	1.107402	1.113293	1.12009
61	1.127789	1.126445	1.126312	1.123062	1.129461	1.105359	1.122792	1.123902	1.130704	1.132743
62	1.138037	1.132892	1.14523	1.130028	1.137284	1.11554	1.125883	1.135598	1.147494	1.141471
63	1.120365	1.113854	1.128607	1.10777	1.118936	1.106814	1.108804	1.123935	1.133681	1.123649
64	1.099583	1.101617	1.105699	1.090158	1.098974	1.091156	1.096327	1.110061	1.109996	1.101945
65	1.088264	1.095226	1.08855	1.086026	1.081016	1.078121	1.087826	1.098337	1.099857	1.086552
66	1.089884	1.098166	1.094197	1.091381	1.08593	1.084432	1.095175	1.091583	1.103796	1.084606
67	1.086498	1.091593	1.095713	1.089303	1.089199	1.082498	1.087212	1.080125	1.105994	1.080689
68	1.085677	1.082513	1.092112	1.086822	1.088157	1.07987	1.08195	1.074614	1.111425	1.080626
69	1.100663	1.080841	1.096454	1.101526	1.092795	1.09096	1.099846	1.087875	1.115016	1.093838
70	1.096961	1.076399	1.092627	1.087566	1.076918	1.09033	1.096239	1.088424	1.104881	1.089512
71	1.086311	1.074245	1.084335	1.069461	1.069808	1.088185	1.08578	1.07594	1.093256	1.076417
72	1.083608	1.077729	1.080238	1.068153	1.06524	1.095017	1.076289	1.063612	1.090476	1.074163
73	1.07807	1.072412	1.078487	1.073798	1.06323	1.091756	1.066682	1.06176	1.092974	1.067839
74	1.083633	1.071666	1.081112	1.085751	1.076986	1.099359	1.063226	1.075915	1.101349	1.075675
75	1.077713	1.068999	1.076065	1.083352	1.069972	1.090994	1.05663	1.078142	1.091585	1.074008
76	1.063112	1.056241	1.063622	1.068556	1.061324	1.07067	1.047929	1.073083	1.069802	1.060104
77	1.047528	1.041904	1.056991	1.052982	1.046434	1.050179	1.035386	1.059086	1.051437	1.045853
78	1.049169	1.045978	1.058774	1.05731	1.038489	1.049846	1.039275	1.064454	1.056458	1.047042
79	1.055295	1.053656	1.06205	1.05646	1.046864	1.061834	1.050685	1.06901	1.066896	1.05294
80	1.053538	1.057678	1.062981	1.050391	1.048809	1.049234	1.055811	1.065202	1.065444	1.050798
81	1.049595	1.049917	1.053725	1.054522	1.048871	1.036345	1.051221	1.056674	1.054358	1.047978
82	1.039919	1.03142	1.034098	1.059696	1.046747	1.03518	1.040681	1.047405	1.036203	1.040301
83	1.036162	1.031919	1.024447	1.058245	1.041306	1.040377	1.025309	1.043123	1.033017	1.039636
84	1.031488	1.032818	1.024641	1.044707	1.03923	1.041218	1.016537	1.032034	1.026269	1.036976
85	1.019082	1.032179	1.019495	1.032472	1.025866	1.029699	1.003164	1.022035	1.013175	1.022023
86	0.987688	1.005947	0.992903	1.006162	0.990153	0.988492	0.973542	0.985348	0.987421	0.989293
87	0.96504	0.985268	0.975093	0.98009	0.964582	0.967179	0.950043	0.959261	0.973702	0.966108
88	0.968292	0.995804	0.974165	0.981126	0.966227	0.977836	0.952269	0.962981	0.972682	0.967413
89	0.955469	0.97835	0.961153	0.971375	0.947812	0.969981	0.940665	0.95614	0.959519	0.95358
90	0.924125	0.934652	0.923399	0.935802	0.911743	0.942117	0.917522	0.933058	0.926174	0.922353
91	0.897032	0.902436	0.899962	0.913059	0.890289	0.9222	0.896382	0.901535	0.902239	0.892955
92	0.868578	0.866468	0.874153	0.873932	0.869779	0.886364	0.870667	0.860893	0.869626	0.865662
93	0.839487	0.833505	0.838375	0.836037	0.844783	0.843934	0.840646	0.829218	0.844742	0.836657
94	0.811059	0.806182	0.803684	0.813919	0.815121	0.812927	0.808858	0.80608	0.81882	0.805895
95	0.770664	0.772471	0.760079	0.78113	0.771056	0.778206	0.766961	0.767153	0.781019	0.76531
96	0.713447	0.717484	0.707286	0.725677	0.718435	0.729319	0.715451	0.707945	0.728693	0.709126
97	0.634871	0.636473	0.637612	0.645661	0.645729	0.654613	0.640508	0.634834	0.64255	0.631878
98	0.513378	0.513459	0.522097	0.521608	0.521732	0.532304	0.522636	0.517962	0.520425	0.510741
99	0.328243	0.327961	0.336016	0.333052	0.330762	0.344062	0.335444	0.333041	0.328756	0.326458
100	0.126206	0.128559	0.135687	0.128229	0.129474	0.13333	0.128272	0.130082	0.126635	0.125918

