## htsjdk.samtools.metrics.StringHeader
# picard.analysis.CollectRnaSeqMetrics REF_FLAT=/ref/genomes/hg19/refFlat.txt.gz RIBOSOMAL_INTERVALS=/ref/genomes/hg19/hg19.rRNA.interval_list STRAND_SPECIFICITY=NONE METRIC_ACCUMULATION_LEVEL=[ALL_READS, READ_GROUP] INPUT=/data/parkome/rna/results/bamfiles/SL283578.bam OUTPUT=/data/parkome/rna/results/QC_postAln/SL283578_picardRNAmetrics.txt    MINIMUM_LENGTH=500 RRNA_FRAGMENT_PERCENTAGE=0.8 ASSUME_SORTED=true STOP_AFTER=0 VERBOSITY=INFO QUIET=false VALIDATION_STRINGENCY=STRICT COMPRESSION_LEVEL=5 MAX_RECORDS_IN_RAM=500000 CREATE_INDEX=false CREATE_MD5_FILE=false GA4GH_CLIENT_SECRETS=client_secrets.json
## htsjdk.samtools.metrics.StringHeader
# Started on: Wed Jul 11 12:02:33 CEST 2018

## METRICS CLASS	picard.analysis.RnaSeqMetrics
PF_BASES	PF_ALIGNED_BASES	RIBOSOMAL_BASES	CODING_BASES	UTR_BASES	INTRONIC_BASES	INTERGENIC_BASES	IGNORED_READS	CORRECT_STRAND_READS	INCORRECT_STRAND_READS	PCT_RIBOSOMAL_BASES	PCT_CODING_BASES	PCT_UTR_BASES	PCT_INTRONIC_BASES	PCT_INTERGENIC_BASES	PCT_MRNA_BASES	PCT_USABLE_BASES	PCT_CORRECT_STRAND_READS	MEDIAN_CV_COVERAGE	MEDIAN_5PRIME_BIAS	MEDIAN_3PRIME_BIAS	MEDIAN_5PRIME_TO_3PRIME_BIAS	SAMPLE	LIBRARY	READ_GROUP
14455970240	13914973428	7597	4602931132	4386432291	2901624477	2023978342	0	0	0	0.000001	0.33079	0.315231	0.208525	0.145453	0.646021	0.621844	0	0.457811	0.118202	0.637061	0.255239			
1599934657	1538404602	745	509338539	484884984	320450657	223729702	0	0	0	0	0.331082	0.315187	0.208301	0.14543	0.646269	0.621415	0	0.468458	0.113121	0.623689	0.249838	SL283578	LIB-SL283578	CBTWNANXX.s1.15
1595335825	1536489663	248	509057511	483790185	319099691	224542036	0	0	0	0	0.331312	0.314867	0.207681	0.14614	0.646179	0.622344	0	0.465087	0.113348	0.629276	0.238344	SL283578	LIB-SL283578	CBTWNANXX.s2.15
1563461437	1505817342	660	498254889	474537793	313152864	219871163	0	0	0	0	0.330887	0.315136	0.207962	0.146014	0.646023	0.622204	0	0.466544	0.120704	0.627591	0.250487	SL283578	LIB-SL283578	CBTWNANXX.s3.15
1587351059	1528508543	738	506090891	482497375	320723918	219195684	0	0	0	0	0.331101	0.315665	0.209828	0.143405	0.646767	0.622791	0	0.469422	0.114575	0.632969	0.263094	SL283578	LIB-SL283578	CBTWNANXX.s4.15
1528618300	1473321026	919	485407575	465644027	306231196	216037357	0	0	0	0.000001	0.329465	0.316051	0.207851	0.146633	0.645516	0.622164	0	0.472779	0.114854	0.644426	0.241169	SL283578	LIB-SL283578	CBTWNANXX.s5.15
1575048920	1516466383	1322	501456563	477568515	317245955	220194077	0	0	0	0.000001	0.330674	0.314922	0.209201	0.145202	0.645596	0.621584	0	0.472777	0.115409	0.630974	0.243493	SL283578	LIB-SL283578	CBTWNANXX.s6.15
1588975884	1529960374	743	506453473	482196001	317937719	223372478	0	0	0	0	0.331024	0.315169	0.207808	0.145999	0.646193	0.622193	0	0.465909	0.108568	0.631428	0.251307	SL283578	LIB-SL283578	CBTWNANXX.s7.15
1602508653	1542270590	1223	510329674	485438738	321913368	224587638	0	0	0	0.000001	0.330895	0.314756	0.208727	0.145621	0.645651	0.621381	0	0.471367	0.119767	0.620123	0.260304	SL283578	LIB-SL283578	CBTWNANXX.s8.15
1814735505	1743734905	999	576542017	549874673	364869109	252448207	0	0	0	0.000001	0.330636	0.315343	0.209246	0.144774	0.645979	0.620706	0	0.472544	0.118801	0.613215	0.266006	SL283578	LIB-SL283578	CC2NUANXX.s4.15

## HISTOGRAM	java.lang.Integer
normalized_position	All_Reads.normalized_coverage	CBTWNANXX.s1.15.normalized_coverage	CBTWNANXX.s2.15.normalized_coverage	CBTWNANXX.s3.15.normalized_coverage	CBTWNANXX.s4.15.normalized_coverage	CBTWNANXX.s5.15.normalized_coverage	CBTWNANXX.s6.15.normalized_coverage	CBTWNANXX.s7.15.normalized_coverage	CBTWNANXX.s8.15.normalized_coverage	CC2NUANXX.s4.15.normalized_coverage
0	0.049911	0.047382	0.049394	0.049577	0.049658	0.048087	0.050965	0.048516	0.049759	0.049826
1	0.118381	0.115747	0.118201	0.117721	0.117185	0.116167	0.121333	0.114233	0.120865	0.118418
2	0.245994	0.241163	0.245469	0.247263	0.245966	0.242643	0.250549	0.238983	0.250397	0.246383
3	0.39678	0.393446	0.394524	0.399715	0.395696	0.395924	0.399111	0.390143	0.39939	0.397577
4	0.523053	0.522742	0.519256	0.525743	0.519716	0.523503	0.521685	0.517492	0.524506	0.524049
5	0.622962	0.623245	0.617599	0.625245	0.61916	0.621821	0.616533	0.618511	0.624597	0.626981
6	0.71026	0.710712	0.700833	0.711784	0.705799	0.708237	0.700898	0.706405	0.712186	0.715083
7	0.794133	0.786724	0.78055	0.79357	0.789919	0.790449	0.78657	0.788382	0.792618	0.79866
8	0.873143	0.862144	0.859945	0.869975	0.868961	0.867294	0.867239	0.871889	0.870103	0.875727
9	0.946769	0.93775	0.936361	0.943344	0.942676	0.941722	0.941147	0.948707	0.940985	0.952501
10	0.993349	0.99172	0.982832	0.993864	0.992552	0.989186	0.989297	0.991402	0.984205	0.995984
11	1.018388	1.02094	1.005355	1.020193	1.015998	1.016972	1.013636	1.017041	1.005417	1.018855
12	1.046654	1.046573	1.028459	1.045825	1.046888	1.045731	1.036632	1.04545	1.029879	1.045688
13	1.083118	1.081313	1.067337	1.08151	1.086152	1.083903	1.069583	1.087	1.063349	1.082331
14	1.11269	1.109752	1.098678	1.110762	1.116877	1.113377	1.100298	1.117069	1.094698	1.110589
15	1.131909	1.13162	1.121937	1.127023	1.137985	1.134979	1.12	1.136794	1.117972	1.132573
16	1.152209	1.154466	1.141598	1.144462	1.155983	1.152202	1.143779	1.157224	1.141196	1.150029
17	1.169358	1.172562	1.161475	1.158498	1.172212	1.16348	1.163122	1.174447	1.159669	1.167722
18	1.184608	1.188389	1.171723	1.172743	1.18575	1.178817	1.178297	1.188857	1.174113	1.182735
19	1.195806	1.195326	1.181027	1.186916	1.19981	1.186723	1.19288	1.20097	1.187383	1.190957
20	1.20968	1.208189	1.200711	1.205899	1.213373	1.199605	1.206979	1.215817	1.199217	1.201156
21	1.220636	1.218341	1.214096	1.217699	1.223774	1.213934	1.215593	1.226077	1.212745	1.213977
22	1.224762	1.223313	1.224189	1.219568	1.230575	1.22107	1.215692	1.230362	1.219177	1.222128
23	1.230693	1.227235	1.231418	1.224313	1.235886	1.23077	1.225048	1.236739	1.226805	1.227954
24	1.237176	1.23418	1.23461	1.229194	1.243468	1.236258	1.236003	1.242342	1.231225	1.232305
25	1.234111	1.23543	1.236832	1.224376	1.243495	1.231783	1.238083	1.234692	1.227081	1.233308
26	1.231677	1.238119	1.231582	1.220816	1.243276	1.228272	1.235946	1.232654	1.22487	1.233161
27	1.219969	1.229369	1.216923	1.212434	1.230287	1.220667	1.220267	1.223821	1.212819	1.218707
28	1.210265	1.221098	1.204152	1.203803	1.220576	1.210896	1.208661	1.213171	1.205145	1.209587
29	1.205896	1.213804	1.198125	1.201784	1.217863	1.208464	1.198719	1.208443	1.197758	1.209002
30	1.199494	1.208901	1.192157	1.19696	1.212404	1.203001	1.192101	1.201869	1.191071	1.20502
31	1.193133	1.198229	1.187323	1.191753	1.208178	1.197052	1.184723	1.195354	1.191439	1.198738
32	1.192718	1.198932	1.191448	1.187152	1.208997	1.198872	1.185469	1.195571	1.196343	1.19897
33	1.189124	1.195835	1.191515	1.180994	1.200869	1.190449	1.183563	1.189007	1.19342	1.194352
34	1.191061	1.196952	1.192575	1.179786	1.19837	1.188086	1.185689	1.186697	1.192989	1.1956
35	1.193754	1.197939	1.196507	1.187348	1.198818	1.187965	1.185882	1.189146	1.196782	1.198711
36	1.181192	1.185879	1.182488	1.178467	1.186097	1.173326	1.17489	1.182449	1.186253	1.18501
37	1.169098	1.171404	1.170974	1.165099	1.17113	1.162817	1.165353	1.166832	1.170035	1.169447
38	1.160899	1.158417	1.161784	1.156245	1.162475	1.154507	1.156429	1.156365	1.159649	1.160299
39	1.162873	1.161542	1.161822	1.159293	1.166595	1.159462	1.158793	1.156712	1.163435	1.167529
40	1.166267	1.163498	1.167622	1.168467	1.170074	1.162404	1.164574	1.162587	1.163299	1.171642
41	1.155979	1.153347	1.155401	1.163165	1.158855	1.156663	1.155738	1.157874	1.152079	1.161212
42	1.142113	1.140884	1.140274	1.15135	1.144666	1.141298	1.14639	1.147653	1.139682	1.145312
43	1.135283	1.136294	1.131622	1.14254	1.138344	1.135672	1.144121	1.141612	1.130234	1.13433
44	1.12914	1.132899	1.123972	1.13681	1.132326	1.132654	1.139136	1.136912	1.129266	1.129913
45	1.126906	1.129757	1.122391	1.136011	1.132438	1.134242	1.132637	1.135927	1.129265	1.129853
46	1.113928	1.122548	1.111119	1.123006	1.12363	1.118063	1.111984	1.12299	1.116652	1.1176
47	1.10169	1.110605	1.098605	1.110231	1.110788	1.098204	1.098386	1.10689	1.106096	1.103638
48	1.095662	1.102822	1.093448	1.101825	1.100251	1.093341	1.096643	1.098818	1.101077	1.093686
49	1.092324	1.097074	1.093576	1.10005	1.094292	1.092768	1.094971	1.099924	1.099689	1.093013
50	1.089797	1.087217	1.08871	1.094749	1.089505	1.090792	1.090558	1.09706	1.098003	1.090338
51	1.08478	1.078798	1.086141	1.089201	1.082541	1.085377	1.087233	1.08826	1.093439	1.084771
52	1.082341	1.074533	1.083726	1.082586	1.080911	1.082347	1.088234	1.083962	1.088845	1.082521
53	1.081088	1.076985	1.084349	1.078914	1.083311	1.079981	1.087262	1.081303	1.088283	1.079881
54	1.079422	1.079498	1.080299	1.0793	1.082954	1.07696	1.08591	1.077951	1.08872	1.078151
55	1.077825	1.074934	1.077399	1.080351	1.078202	1.074267	1.085932	1.072335	1.084173	1.078899
56	1.075505	1.074579	1.076193	1.078409	1.073041	1.073838	1.086214	1.069646	1.078269	1.077027
57	1.068349	1.070326	1.071382	1.073594	1.062252	1.06641	1.077681	1.060673	1.073173	1.064971
58	1.055236	1.053869	1.058094	1.056586	1.051547	1.053479	1.064281	1.050357	1.061419	1.05325
59	1.041955	1.0377	1.041801	1.041152	1.041812	1.042811	1.047463	1.038359	1.047318	1.040015
60	1.040684	1.033857	1.041546	1.037221	1.042433	1.038015	1.044578	1.036049	1.045288	1.037424
61	1.045783	1.039778	1.048469	1.044012	1.046855	1.041843	1.050111	1.041244	1.052848	1.039363
62	1.047959	1.038596	1.051442	1.044284	1.05064	1.045467	1.051377	1.043726	1.057988	1.041163
63	1.060252	1.053383	1.065208	1.057766	1.063412	1.058432	1.063306	1.056235	1.076801	1.058008
64	1.02641	1.025481	1.030539	1.025674	1.02869	1.02545	1.03035	1.024315	1.043085	1.027479
65	1.013549	1.011284	1.015485	1.014089	1.012196	1.016329	1.018196	1.01168	1.029476	1.016317
66	1.009042	1.006287	1.012236	1.009622	1.008611	1.012872	1.01272	1.007132	1.022845	1.010439
67	1.010453	1.007484	1.018163	1.008743	1.008218	1.013221	1.011619	1.008155	1.022877	1.012858
68	1.011826	1.00993	1.022538	1.010269	1.004645	1.014259	1.016966	1.012456	1.020845	1.015629
69	1.010129	1.012604	1.023348	1.007497	1.003777	1.012764	1.013561	1.01183	1.016992	1.013347
70	1.002066	1.005563	1.015485	1.003988	0.994457	1.001334	1.004553	1.003906	1.006651	1.002552
71	0.994651	0.995284	1.008418	0.999515	0.985783	0.996341	0.998011	0.997112	1.000274	0.996231
72	0.989473	0.98963	0.998812	0.992082	0.979472	0.993941	0.995519	0.991795	0.991768	0.990169
73	0.983146	0.980908	0.993648	0.989011	0.975352	0.989988	0.989401	0.983332	0.983938	0.983398
74	0.990939	0.990916	0.999054	0.997181	0.983557	0.993925	0.995713	0.990062	0.987838	0.987013
75	0.988504	0.987038	0.994224	0.991802	0.981629	0.989789	0.993864	0.984872	0.983019	0.981199
76	0.980339	0.977862	0.985452	0.980938	0.978466	0.98047	0.9831	0.976197	0.97728	0.973075
77	0.968977	0.969656	0.976722	0.971058	0.971964	0.968966	0.9709	0.967293	0.969191	0.962408
78	0.968432	0.970467	0.973631	0.970023	0.975682	0.966319	0.968755	0.968767	0.970896	0.965233
79	0.972363	0.973437	0.97514	0.973222	0.978077	0.96662	0.972991	0.973902	0.973919	0.971511
80	0.977902	0.977604	0.982849	0.978716	0.97645	0.971343	0.976968	0.975064	0.980219	0.97691
81	0.977466	0.97393	0.982566	0.980617	0.971782	0.967581	0.975427	0.978085	0.98175	0.977577
82	0.977482	0.974392	0.980883	0.984448	0.97041	0.969699	0.976747	0.977968	0.98238	0.975281
83	0.966695	0.965001	0.968139	0.972504	0.95828	0.964904	0.967847	0.9682	0.970323	0.966067
84	0.957629	0.957151	0.959108	0.966905	0.950265	0.95801	0.959162	0.96001	0.958003	0.956341
85	0.945972	0.944784	0.949377	0.952425	0.940749	0.946143	0.946077	0.948145	0.945437	0.945151
86	0.94063	0.939673	0.942612	0.943887	0.935953	0.941503	0.938672	0.938014	0.940835	0.939664
87	0.936999	0.93705	0.942679	0.93844	0.931291	0.940938	0.935977	0.933185	0.938434	0.937292
88	0.933071	0.932003	0.939945	0.931213	0.925397	0.937475	0.932603	0.930185	0.932368	0.933534
89	0.923246	0.921137	0.930432	0.923396	0.914904	0.927851	0.922835	0.919528	0.919453	0.923315
90	0.911213	0.909652	0.915969	0.913489	0.903681	0.91773	0.910949	0.908964	0.906946	0.910583
91	0.902615	0.900403	0.907747	0.905838	0.89528	0.912891	0.904338	0.900101	0.898759	0.902361
92	0.896265	0.898099	0.900419	0.899137	0.886864	0.904129	0.895729	0.893288	0.892822	0.897263
93	0.886913	0.891047	0.892181	0.887647	0.874932	0.891524	0.889452	0.883008	0.885556	0.885706
94	0.871489	0.875752	0.881721	0.871605	0.858717	0.874514	0.876652	0.869513	0.872801	0.86837
95	0.847879	0.850716	0.857395	0.848762	0.836394	0.852647	0.854187	0.846838	0.848084	0.84844
96	0.814804	0.816619	0.822292	0.815384	0.806193	0.820694	0.819928	0.811686	0.813364	0.816368
97	0.750883	0.753342	0.756676	0.75251	0.745362	0.761431	0.753472	0.748696	0.749183	0.749381
98	0.626507	0.626937	0.630974	0.628177	0.620507	0.644899	0.631175	0.626997	0.625875	0.622818
99	0.414932	0.414677	0.417382	0.417215	0.410575	0.432837	0.420834	0.414675	0.412794	0.413128
100	0.158108	0.160671	0.156273	0.160148	0.154906	0.16407	0.161208	0.15794	0.157213	0.159308

