## htsjdk.samtools.metrics.StringHeader
# picard.analysis.CollectRnaSeqMetrics REF_FLAT=/ref/genomes/hg19/refFlat.txt.gz RIBOSOMAL_INTERVALS=/ref/genomes/hg19/hg19.rRNA.interval_list STRAND_SPECIFICITY=SECOND_READ_TRANSCRIPTION_STRAND METRIC_ACCUMULATION_LEVEL=[ALL_READS, READ_GROUP] INPUT=/data/parkome/rna/results/bamfiles/SL283604.bam OUTPUT=/data/parkome/rna/results/QC_postAln/SL283604_picardRNAmetrics.txt    MINIMUM_LENGTH=500 RRNA_FRAGMENT_PERCENTAGE=0.8 ASSUME_SORTED=true STOP_AFTER=0 VERBOSITY=INFO QUIET=false VALIDATION_STRINGENCY=STRICT COMPRESSION_LEVEL=5 MAX_RECORDS_IN_RAM=500000 CREATE_INDEX=false CREATE_MD5_FILE=false GA4GH_CLIENT_SECRETS=client_secrets.json
## htsjdk.samtools.metrics.StringHeader
# Started on: Tue Jul 24 14:49:08 CEST 2018

## METRICS CLASS	picard.analysis.RnaSeqMetrics
PF_BASES	PF_ALIGNED_BASES	RIBOSOMAL_BASES	CODING_BASES	UTR_BASES	INTRONIC_BASES	INTERGENIC_BASES	IGNORED_READS	CORRECT_STRAND_READS	INCORRECT_STRAND_READS	PCT_RIBOSOMAL_BASES	PCT_CODING_BASES	PCT_UTR_BASES	PCT_INTRONIC_BASES	PCT_INTERGENIC_BASES	PCT_MRNA_BASES	PCT_USABLE_BASES	PCT_CORRECT_STRAND_READS	MEDIAN_CV_COVERAGE	MEDIAN_5PRIME_BIAS	MEDIAN_3PRIME_BIAS	MEDIAN_5PRIME_TO_3PRIME_BIAS	SAMPLE	LIBRARY	READ_GROUP
15338553940	14598752819	17496	2748761175	2685138131	6824836463	2340000414	0	42070571	860779	0.000001	0.188287	0.183929	0.467494	0.160288	0.372217	0.354264	0.97995	0.498272	0.094321	0.465049	0.256254			
1383292519	1314876350	3422	248019957	241686642	612821618	212344849	0	3752487	76368	0.000003	0.188626	0.183809	0.466068	0.161494	0.372435	0.354015	0.980055	0.532609	0.093539	0.435087	0.268776	SL283604	LIB-SL283604	CBTWNANXX.s1.42
1376793839	1311838184	2365	247462273	240799403	612346577	211227641	0	3766428	76976	0.000002	0.188638	0.183559	0.466785	0.161017	0.372197	0.354637	0.979972	0.533399	0.09453	0.456639	0.254618	SL283604	LIB-SL283604	CBTWNANXX.s2.42
1350392134	1286669531	1168	242289069	236808124	602451844	205119386	0	3736195	76400	0.000001	0.188307	0.184047	0.468226	0.159419	0.372355	0.354784	0.979961	0.528898	0.093179	0.451932	0.257278	SL283604	LIB-SL283604	CBTWNANXX.s3.42
1369527615	1304570745	447	245809382	239275121	609707353	209778466	0	3756917	76078	0	0.188422	0.183413	0.467362	0.160803	0.371835	0.354198	0.980152	0.530942	0.089014	0.426718	0.244836	SL283604	LIB-SL283604	CBTWNANXX.s4.42
1324160190	1263350418	1643	236143567	232752114	592617365	201835804	0	3769987	76367	0.000001	0.186919	0.184234	0.469084	0.159762	0.371153	0.354108	0.980146	0.531211	0.091022	0.46976	0.257576	SL283604	LIB-SL283604	CBTWNANXX.s5.42
1361283303	1296591679	1076	244007781	238959347	605470106	208153415	0	3767187	77141	0.000001	0.188192	0.184298	0.466971	0.160539	0.37249	0.354788	0.979934	0.527945	0.090331	0.45254	0.251372	SL283604	LIB-SL283604	CBTWNANXX.s6.42
1371506573	1306091135	357	245883985	240411612	608412345	211382836	0	3767688	76572	0	0.188259	0.18407	0.465827	0.161844	0.372329	0.35457	0.980081	0.528081	0.091083	0.445309	0.248705	SL283604	LIB-SL283604	CBTWNANXX.s7.42
1382786061	1315828010	2294	247868047	242578785	615163904	210215112	0	3759730	77132	0.000002	0.188374	0.184354	0.467511	0.159759	0.372729	0.35468	0.979897	0.529636	0.094248	0.43833	0.259414	SL283604	LIB-SL283604	CBTWNANXX.s8.42
4418811706	4198936767	4724	791277114	771866983	1965845351	669942905	0	11993952	247745	0.000001	0.188447	0.183824	0.468177	0.159551	0.372271	0.353748	0.979762	0.508276	0.096684	0.458846	0.263846	SL283604	LIB-SL283604	CC2NUANXX.s4.42

## HISTOGRAM	java.lang.Integer
normalized_position	All_Reads.normalized_coverage	CBTWNANXX.s1.42.normalized_coverage	CBTWNANXX.s2.42.normalized_coverage	CBTWNANXX.s3.42.normalized_coverage	CBTWNANXX.s4.42.normalized_coverage	CBTWNANXX.s5.42.normalized_coverage	CBTWNANXX.s6.42.normalized_coverage	CBTWNANXX.s7.42.normalized_coverage	CBTWNANXX.s8.42.normalized_coverage	CC2NUANXX.s4.42.normalized_coverage
0	0.068324	0.066594	0.068552	0.063948	0.063286	0.065135	0.063304	0.066115	0.065442	0.069141
1	0.127811	0.125811	0.124743	0.123728	0.126141	0.119735	0.123657	0.124935	0.127465	0.127305
2	0.242771	0.244793	0.234622	0.236083	0.247096	0.233743	0.239349	0.244495	0.247252	0.239464
3	0.380684	0.383182	0.370005	0.372107	0.386317	0.377393	0.378579	0.391517	0.389585	0.376744
4	0.496405	0.496173	0.482404	0.488293	0.502176	0.496443	0.494547	0.503554	0.508491	0.497894
5	0.602284	0.604603	0.587436	0.594836	0.60801	0.598309	0.596997	0.609901	0.607169	0.60659
6	0.698839	0.698641	0.68736	0.695688	0.709671	0.697327	0.68856	0.703778	0.697296	0.702995
7	0.770825	0.768747	0.763991	0.76881	0.778441	0.770976	0.76115	0.777663	0.76446	0.776445
8	0.838585	0.834881	0.829626	0.8365	0.846555	0.837319	0.8317	0.841143	0.832071	0.842498
9	0.911312	0.908564	0.905078	0.911584	0.912479	0.917242	0.900702	0.911699	0.902089	0.917381
10	0.95814	0.95328	0.954286	0.964118	0.954353	0.959716	0.940681	0.956309	0.948047	0.962657
11	0.992932	0.985828	0.99149	0.994423	0.982959	0.994226	0.979805	0.990247	0.98721	0.995538
12	1.020373	1.009	1.020692	1.018779	1.012594	1.019739	1.009343	1.01567	1.015022	1.022908
13	1.065813	1.056815	1.067863	1.060362	1.050746	1.07024	1.052507	1.06183	1.054177	1.069181
14	1.097655	1.087872	1.09335	1.096767	1.078491	1.107745	1.074892	1.095844	1.091293	1.100788
15	1.114827	1.108604	1.105589	1.11729	1.109283	1.124813	1.091476	1.114552	1.111368	1.115716
16	1.140556	1.136624	1.126423	1.135152	1.132983	1.144527	1.133547	1.140662	1.137634	1.137255
17	1.14821	1.143885	1.143694	1.144427	1.132424	1.154028	1.144936	1.148404	1.145421	1.144057
18	1.152963	1.151062	1.151783	1.155806	1.144859	1.157821	1.142796	1.14874	1.149432	1.149439
19	1.162822	1.160488	1.160369	1.160627	1.156448	1.168538	1.153659	1.156485	1.159715	1.161978
20	1.174309	1.170418	1.175029	1.169749	1.16346	1.183342	1.168174	1.166603	1.167367	1.172441
21	1.189973	1.185993	1.193981	1.179155	1.182939	1.198713	1.18149	1.180485	1.180812	1.183758
22	1.194457	1.193416	1.193831	1.180265	1.175566	1.198611	1.185508	1.185129	1.184961	1.184922
23	1.198713	1.19752	1.197473	1.191226	1.178457	1.198988	1.192341	1.191927	1.193336	1.192006
24	1.207082	1.202772	1.207781	1.193747	1.192725	1.203145	1.205952	1.206181	1.200861	1.204428
25	1.207703	1.204247	1.206998	1.193177	1.194389	1.20609	1.210494	1.209403	1.206855	1.206049
26	1.203812	1.205957	1.203462	1.188753	1.195011	1.204566	1.20469	1.205449	1.202699	1.202682
27	1.203055	1.210936	1.197558	1.184309	1.196847	1.200421	1.208469	1.206543	1.197612	1.204441
28	1.203511	1.213891	1.197651	1.183523	1.206546	1.199317	1.201614	1.208598	1.198597	1.202845
29	1.217441	1.222731	1.212077	1.203403	1.223263	1.210355	1.21034	1.221273	1.21961	1.217267
30	1.218546	1.219849	1.210366	1.210798	1.222033	1.210382	1.216486	1.219448	1.21458	1.220658
31	1.2222	1.222552	1.218023	1.22125	1.220148	1.207068	1.2258	1.215861	1.212557	1.221818
32	1.237225	1.229956	1.235208	1.240619	1.233408	1.219922	1.236844	1.233718	1.234538	1.233226
33	1.235796	1.23317	1.235984	1.238423	1.229091	1.218697	1.229668	1.232659	1.238271	1.229963
34	1.215393	1.217952	1.216868	1.22038	1.216929	1.205222	1.203884	1.216008	1.212076	1.211757
35	1.224608	1.225322	1.220531	1.226063	1.230584	1.218425	1.208147	1.225142	1.211558	1.221428
36	1.220366	1.218635	1.220025	1.214599	1.220078	1.214669	1.203771	1.22487	1.205753	1.217457
37	1.214592	1.216092	1.213782	1.207356	1.219567	1.211597	1.20033	1.22058	1.200992	1.209069
38	1.21307	1.218774	1.214923	1.210993	1.217388	1.217391	1.203275	1.218537	1.210026	1.201337
39	1.209582	1.224613	1.212714	1.212193	1.21359	1.21808	1.201535	1.218553	1.208605	1.196721
40	1.198833	1.214576	1.205731	1.200811	1.200414	1.209059	1.190665	1.205391	1.196566	1.189499
41	1.182933	1.201571	1.190007	1.188242	1.19605	1.185906	1.177898	1.183514	1.186364	1.176134
42	1.170061	1.186192	1.178718	1.180466	1.184776	1.171437	1.169489	1.170112	1.179126	1.163877
43	1.162415	1.180436	1.171679	1.173346	1.178455	1.161327	1.158747	1.164688	1.170827	1.159352
44	1.155267	1.172829	1.159148	1.157665	1.174214	1.157817	1.152415	1.15748	1.167608	1.154507
45	1.158398	1.171251	1.162078	1.160539	1.179652	1.163494	1.148365	1.158945	1.176041	1.158388
46	1.156706	1.160356	1.154447	1.157015	1.170162	1.162311	1.149862	1.153578	1.167074	1.159517
47	1.147214	1.152306	1.144625	1.144438	1.150115	1.146272	1.149746	1.142127	1.15145	1.149757
48	1.145212	1.151128	1.1446	1.147853	1.144166	1.1421	1.146216	1.142548	1.143962	1.147877
49	1.147962	1.149044	1.145113	1.153784	1.146426	1.140548	1.145389	1.153584	1.15189	1.150383
50	1.14029	1.141494	1.141706	1.140289	1.139568	1.134024	1.134355	1.154537	1.144774	1.142205
51	1.130602	1.133481	1.130577	1.127522	1.128151	1.11958	1.130053	1.144076	1.123055	1.136049
52	1.127812	1.136432	1.131076	1.122058	1.126534	1.120234	1.131553	1.131323	1.122708	1.131587
53	1.119551	1.120159	1.122161	1.11557	1.127691	1.112018	1.123286	1.131248	1.116141	1.123519
54	1.114605	1.116879	1.123564	1.112146	1.121738	1.109204	1.124355	1.125495	1.112431	1.123401
55	1.11127	1.113543	1.121674	1.116226	1.111276	1.102842	1.114381	1.107776	1.102887	1.126137
56	1.115041	1.112474	1.12133	1.122525	1.112073	1.114121	1.121763	1.106489	1.101989	1.12597
57	1.114505	1.111822	1.122599	1.116514	1.115955	1.117484	1.121205	1.11118	1.103774	1.12268
58	1.088732	1.091252	1.09921	1.092597	1.09659	1.098393	1.088289	1.091847	1.0933	1.095795
59	1.074516	1.082608	1.078715	1.079279	1.079584	1.087855	1.070973	1.076882	1.07592	1.076902
60	1.072846	1.086119	1.080601	1.08549	1.07713	1.080031	1.071983	1.07282	1.078119	1.075213
61	1.088823	1.098658	1.095612	1.101188	1.091198	1.091415	1.084654	1.083432	1.089395	1.090337
62	1.091802	1.097461	1.102286	1.100868	1.096495	1.099416	1.084457	1.086118	1.094235	1.09148
63	1.083008	1.086516	1.086932	1.088543	1.091344	1.088184	1.080802	1.080381	1.083402	1.084596
64	1.07088	1.068515	1.079524	1.08055	1.083228	1.077873	1.072738	1.071061	1.071871	1.073463
65	1.062318	1.060269	1.075548	1.069298	1.07828	1.063547	1.067075	1.056422	1.062355	1.062344
66	1.060049	1.062846	1.064083	1.065325	1.073113	1.063971	1.066389	1.049561	1.059262	1.058977
67	1.05751	1.062913	1.053874	1.063212	1.068263	1.067214	1.060534	1.048663	1.057027	1.051672
68	1.050142	1.058216	1.048198	1.052025	1.058927	1.061294	1.057489	1.044768	1.05488	1.046663
69	1.050787	1.054291	1.052949	1.051192	1.055471	1.05648	1.055143	1.047555	1.062131	1.050352
70	1.042037	1.044055	1.038107	1.043712	1.045216	1.042397	1.048878	1.037309	1.056138	1.045061
71	1.033796	1.038232	1.030718	1.035915	1.031675	1.034105	1.042908	1.03234	1.047817	1.037287
72	1.025704	1.032291	1.019444	1.022241	1.017442	1.029377	1.034804	1.026941	1.034859	1.032998
73	1.016436	1.020981	1.010351	1.019748	1.012943	1.023062	1.018233	1.01047	1.017613	1.019443
74	1.008471	1.010989	1.006535	1.013654	1.003402	1.017224	1.014139	1.006871	1.009435	1.008392
75	0.992818	0.994396	0.994891	0.997046	0.984118	0.998973	1.001079	0.994899	0.999149	0.99093
76	0.981144	0.981319	0.987738	0.985081	0.971362	0.981786	0.990433	0.98337	0.990522	0.977709
77	0.970241	0.970293	0.97889	0.971983	0.959018	0.967844	0.978049	0.973822	0.981518	0.967065
78	0.968603	0.969203	0.974654	0.972776	0.95804	0.965564	0.975504	0.970305	0.973539	0.966662
79	0.966793	0.966343	0.969345	0.969919	0.962812	0.95969	0.976687	0.974195	0.968395	0.965512
80	0.960074	0.961753	0.955392	0.970996	0.956651	0.952447	0.968348	0.970757	0.964791	0.960149
81	0.956015	0.952681	0.950634	0.972011	0.951434	0.953412	0.966162	0.968094	0.956826	0.957099
82	0.954174	0.951822	0.953481	0.970654	0.949582	0.947249	0.965092	0.971423	0.953779	0.949514
83	0.938143	0.930268	0.9411	0.946313	0.939664	0.923082	0.946945	0.954679	0.936745	0.935628
84	0.928683	0.91958	0.933276	0.933621	0.93262	0.915847	0.938362	0.935989	0.928574	0.928822
85	0.910114	0.897913	0.915265	0.915946	0.913206	0.905739	0.916281	0.910561	0.912022	0.910756
86	0.898004	0.887784	0.897338	0.902625	0.90175	0.89034	0.901899	0.89503	0.901509	0.897585
87	0.887011	0.877417	0.883134	0.893114	0.889022	0.88195	0.900239	0.882188	0.893687	0.885328
88	0.879492	0.871768	0.877453	0.885664	0.878337	0.876142	0.89514	0.874168	0.885989	0.877318
89	0.877068	0.863598	0.878717	0.883066	0.875291	0.872155	0.89419	0.874353	0.882867	0.875275
90	0.867891	0.853514	0.869212	0.870249	0.864868	0.865801	0.883415	0.862395	0.87396	0.865376
91	0.854269	0.842041	0.856861	0.854619	0.853741	0.851055	0.870663	0.848106	0.861308	0.852863
92	0.838481	0.82567	0.842635	0.840562	0.83822	0.832111	0.856008	0.830055	0.845209	0.840574
93	0.820022	0.807868	0.826119	0.816254	0.820192	0.813582	0.838474	0.81126	0.829893	0.82307
94	0.790658	0.781058	0.789965	0.785111	0.792666	0.791243	0.808597	0.784331	0.794085	0.791854
95	0.754311	0.747311	0.755871	0.747044	0.757693	0.765022	0.767106	0.745766	0.753635	0.756513
96	0.709276	0.703935	0.709629	0.704685	0.707013	0.722247	0.717142	0.70248	0.703144	0.712508
97	0.643298	0.633579	0.640477	0.636606	0.639914	0.653504	0.650102	0.637401	0.637274	0.646865
98	0.530524	0.525935	0.526195	0.523819	0.52449	0.541542	0.535673	0.527855	0.522268	0.531348
99	0.351151	0.348542	0.349794	0.345485	0.349262	0.364749	0.353506	0.346354	0.345365	0.350485
100	0.144682	0.140706	0.152375	0.142211	0.142856	0.151293	0.145479	0.142046	0.145625	0.144207

