## htsjdk.samtools.metrics.StringHeader
# picard.analysis.CollectRnaSeqMetrics REF_FLAT=/ref/genomes/hg19/refFlat.txt.gz RIBOSOMAL_INTERVALS=/ref/genomes/hg19/hg19.rRNA.interval_list STRAND_SPECIFICITY=SECOND_READ_TRANSCRIPTION_STRAND METRIC_ACCUMULATION_LEVEL=[ALL_READS, READ_GROUP] INPUT=/data/parkome/rna/results/bamfiles/SL283614.bam OUTPUT=/data/parkome/rna/results/QC_postAln/SL283614_picardRNAmetrics.txt    MINIMUM_LENGTH=500 RRNA_FRAGMENT_PERCENTAGE=0.8 ASSUME_SORTED=true STOP_AFTER=0 VERBOSITY=INFO QUIET=false VALIDATION_STRINGENCY=STRICT COMPRESSION_LEVEL=5 MAX_RECORDS_IN_RAM=500000 CREATE_INDEX=false CREATE_MD5_FILE=false GA4GH_CLIENT_SECRETS=client_secrets.json
## htsjdk.samtools.metrics.StringHeader
# Started on: Tue Jul 24 16:34:38 CEST 2018

## METRICS CLASS	picard.analysis.RnaSeqMetrics
PF_BASES	PF_ALIGNED_BASES	RIBOSOMAL_BASES	CODING_BASES	UTR_BASES	INTRONIC_BASES	INTERGENIC_BASES	IGNORED_READS	CORRECT_STRAND_READS	INCORRECT_STRAND_READS	PCT_RIBOSOMAL_BASES	PCT_CODING_BASES	PCT_UTR_BASES	PCT_INTRONIC_BASES	PCT_INTERGENIC_BASES	PCT_MRNA_BASES	PCT_USABLE_BASES	PCT_CORRECT_STRAND_READS	MEDIAN_CV_COVERAGE	MEDIAN_5PRIME_BIAS	MEDIAN_3PRIME_BIAS	MEDIAN_5PRIME_TO_3PRIME_BIAS	SAMPLE	LIBRARY	READ_GROUP
15812410343	15155584135	6357	2899217889	2731151135	7147113361	2378095733	0	42711054	985365	0	0.191297	0.180208	0.471583	0.156912	0.371505	0.356073	0.97745	0.488175	0.091694	0.441899	0.262667			
1462999904	1401507668	154	268236621	253094450	660296156	219880287	0	3906952	89663	0	0.191391	0.180587	0.471133	0.156888	0.371979	0.356344	0.977565	0.508993	0.097183	0.436582	0.254821	SL283614	LIB-SL283614	CBTWNANXX.s1.52
1452625859	1393280461	1084	267054442	251439469	656383739	218401782	0	3927946	90825	0.000001	0.191673	0.180466	0.471107	0.156754	0.372139	0.356936	0.9774	0.516283	0.092335	0.440563	0.2752	SL283614	LIB-SL283614	CBTWNANXX.s2.52
1424990714	1366291708	348	261267835	246770872	643902622	214350053	0	3881907	89262	0	0.191224	0.180614	0.471278	0.156885	0.371838	0.356521	0.977522	0.507693	0.094329	0.433638	0.261364	SL283614	LIB-SL283614	CBTWNANXX.s3.52
1446244032	1387046852	727	265475797	249879100	654712231	216979038	0	3907157	89005	0.000001	0.191396	0.180152	0.472019	0.156432	0.371548	0.35634	0.977727	0.516069	0.092206	0.43816	0.265686	SL283614	LIB-SL283614	CBTWNANXX.s4.52
1396089215	1337814846	468	254411117	241402488	632556916	209443877	0	3904573	89636	0	0.190169	0.180445	0.472828	0.156557	0.370615	0.355145	0.977559	0.514926	0.09264	0.456312	0.250976	SL283614	LIB-SL283614	CBTWNANXX.s5.52
1437319587	1377869545	250	263416229	248205524	650123005	216124537	0	3904421	90335	0	0.191176	0.180137	0.471832	0.156854	0.371314	0.355955	0.977387	0.519979	0.095622	0.457	0.24933	SL283614	LIB-SL283614	CBTWNANXX.s6.52
1450299735	1390592720	745	266355177	251066933	655082544	218087397	0	3921863	90256	0.000001	0.191541	0.180547	0.471082	0.156831	0.372087	0.356769	0.977504	0.508823	0.094586	0.438572	0.273904	SL283614	LIB-SL283614	CBTWNANXX.s7.52
1460634396	1399987065	979	268619888	252507409	659664422	219194423	0	3909386	89688	0.000001	0.191873	0.180364	0.471193	0.156569	0.372237	0.356781	0.977573	0.515523	0.092031	0.448495	0.264081	SL283614	LIB-SL283614	CBTWNANXX.s8.52
4281206901	4101193270	1602	784380783	736784890	1934391726	645634339	0	11446849	266695	0	0.191257	0.179651	0.471666	0.157426	0.370908	0.355312	0.977232	0.501437	0.090356	0.43987	0.255049	SL283614	LIB-SL283614	CC2NUANXX.s4.52

## HISTOGRAM	java.lang.Integer
normalized_position	All_Reads.normalized_coverage	CBTWNANXX.s1.52.normalized_coverage	CBTWNANXX.s2.52.normalized_coverage	CBTWNANXX.s3.52.normalized_coverage	CBTWNANXX.s4.52.normalized_coverage	CBTWNANXX.s5.52.normalized_coverage	CBTWNANXX.s6.52.normalized_coverage	CBTWNANXX.s7.52.normalized_coverage	CBTWNANXX.s8.52.normalized_coverage	CC2NUANXX.s4.52.normalized_coverage
0	0.062574	0.062857	0.063279	0.06457	0.063595	0.063857	0.064589	0.063262	0.061236	0.064508
1	0.120688	0.122847	0.124507	0.12372	0.12035	0.1207	0.12163	0.118662	0.119027	0.120329
2	0.235082	0.232947	0.242865	0.237277	0.238557	0.233899	0.230701	0.232269	0.235588	0.230551
3	0.371923	0.362279	0.379268	0.372078	0.376615	0.373256	0.366294	0.366397	0.377905	0.367157
4	0.488528	0.478246	0.491721	0.491854	0.493285	0.490545	0.480802	0.48162	0.494808	0.483218
5	0.596933	0.588532	0.59397	0.598902	0.604972	0.595809	0.585993	0.590327	0.598167	0.593139
6	0.692831	0.68173	0.693004	0.69956	0.694012	0.690527	0.686136	0.683282	0.691456	0.687006
7	0.765781	0.754047	0.763192	0.772729	0.762941	0.764094	0.755201	0.757161	0.769472	0.756953
8	0.839906	0.825613	0.828331	0.845068	0.83227	0.842618	0.823315	0.833331	0.849549	0.828346
9	0.91084	0.895672	0.904703	0.914713	0.901519	0.917747	0.892889	0.91069	0.915802	0.901902
10	0.960288	0.953417	0.959203	0.962879	0.95602	0.967731	0.94615	0.967212	0.968677	0.953214
11	1.00023	0.996732	1.00014	0.999445	0.997315	1.009905	0.984371	1.005156	1.00375	0.991906
12	1.034755	1.036101	1.033563	1.038238	1.028827	1.049366	1.020923	1.03781	1.035285	1.024371
13	1.080982	1.081235	1.085942	1.090632	1.074805	1.099719	1.064315	1.077886	1.083751	1.071915
14	1.109262	1.106551	1.112941	1.124668	1.101145	1.125886	1.097281	1.109159	1.116096	1.104223
15	1.129852	1.128598	1.128511	1.142958	1.123009	1.137632	1.119215	1.13221	1.136043	1.125877
16	1.155073	1.155505	1.15093	1.162832	1.150035	1.157822	1.143167	1.156894	1.158057	1.148357
17	1.167327	1.16858	1.153438	1.174806	1.160409	1.176682	1.154902	1.170625	1.169243	1.15876
18	1.170768	1.178193	1.152859	1.175955	1.169985	1.18213	1.160194	1.175219	1.166609	1.15959
19	1.184659	1.1937	1.163102	1.185997	1.181367	1.190583	1.17547	1.1872	1.179582	1.171849
20	1.195725	1.201102	1.181981	1.197397	1.190646	1.19424	1.184876	1.200484	1.194553	1.184672
21	1.206308	1.209987	1.198494	1.212655	1.201213	1.206691	1.195611	1.207799	1.202662	1.19325
22	1.210069	1.210166	1.202549	1.217679	1.205009	1.213109	1.200412	1.21119	1.213608	1.200841
23	1.215164	1.216453	1.199979	1.224797	1.216166	1.212487	1.203357	1.21082	1.215713	1.21122
24	1.22085	1.223641	1.205352	1.231616	1.223034	1.232115	1.209463	1.214533	1.220744	1.216248
25	1.22511	1.234655	1.219515	1.233191	1.22333	1.23661	1.213727	1.212863	1.223436	1.221729
26	1.222854	1.235461	1.22102	1.235584	1.225605	1.234139	1.211953	1.211042	1.222503	1.219549
27	1.221506	1.229399	1.222134	1.235065	1.220885	1.235361	1.209199	1.210655	1.222706	1.217633
28	1.225463	1.231216	1.221886	1.237122	1.220597	1.230491	1.210016	1.2169	1.22535	1.221864
29	1.238489	1.243288	1.235659	1.244769	1.230546	1.236658	1.226468	1.235678	1.24434	1.232709
30	1.238868	1.243977	1.235905	1.246379	1.226148	1.241469	1.229111	1.238418	1.245737	1.234374
31	1.236304	1.242442	1.235657	1.245422	1.23003	1.241777	1.220799	1.230718	1.239082	1.23643
32	1.244481	1.246817	1.244457	1.255385	1.242138	1.248003	1.230823	1.236565	1.242031	1.246207
33	1.239645	1.236461	1.235533	1.243549	1.241761	1.243414	1.228581	1.233069	1.230837	1.243401
34	1.22128	1.219326	1.211652	1.22652	1.225621	1.221314	1.208812	1.223038	1.211561	1.222005
35	1.222493	1.21717	1.205755	1.222438	1.228085	1.222696	1.207445	1.225237	1.214122	1.219324
36	1.218643	1.208689	1.204175	1.216153	1.225172	1.219186	1.205988	1.21889	1.217182	1.216089
37	1.219724	1.208705	1.208896	1.216061	1.224451	1.218275	1.207724	1.21863	1.217113	1.221036
38	1.219081	1.208266	1.203976	1.213591	1.221693	1.215688	1.206355	1.22129	1.220732	1.223438
39	1.216133	1.199563	1.192353	1.21001	1.21612	1.212989	1.202704	1.216468	1.219766	1.22007
40	1.207596	1.189928	1.177969	1.204007	1.204352	1.208586	1.192455	1.20905	1.204761	1.209964
41	1.196866	1.179016	1.170083	1.198274	1.191812	1.197459	1.182212	1.199361	1.195487	1.194857
42	1.18595	1.168813	1.166148	1.188948	1.185934	1.184868	1.170859	1.18749	1.185161	1.183463
43	1.172802	1.159525	1.152567	1.175913	1.182515	1.172303	1.157623	1.179746	1.175797	1.172422
44	1.165833	1.152242	1.157804	1.167741	1.183019	1.165731	1.153791	1.170732	1.172141	1.163432
45	1.172313	1.158643	1.1755	1.173985	1.185129	1.162117	1.163061	1.177417	1.179677	1.171957
46	1.167022	1.15426	1.167741	1.167078	1.175364	1.150807	1.158002	1.171126	1.171866	1.167871
47	1.152134	1.143393	1.15573	1.151958	1.161848	1.140798	1.144168	1.151046	1.159148	1.157805
48	1.151121	1.148266	1.153026	1.149016	1.161136	1.15045	1.140703	1.147387	1.154902	1.157103
49	1.152957	1.154771	1.154205	1.152515	1.159463	1.156375	1.137838	1.149486	1.154309	1.158572
50	1.146399	1.150018	1.148655	1.141542	1.142009	1.145034	1.129436	1.14608	1.140443	1.150807
51	1.138407	1.143793	1.140031	1.131126	1.13749	1.14183	1.11671	1.13922	1.136663	1.138435
52	1.133459	1.133632	1.133035	1.132185	1.135519	1.141354	1.110484	1.138636	1.131806	1.132056
53	1.129387	1.131638	1.136798	1.126164	1.130664	1.126068	1.123554	1.133118	1.133114	1.130232
54	1.120172	1.116891	1.134794	1.121612	1.120548	1.116538	1.117905	1.116358	1.119122	1.126012
55	1.109342	1.106391	1.12728	1.10509	1.111696	1.108343	1.119121	1.102939	1.102552	1.118255
56	1.104751	1.108031	1.115793	1.099335	1.115045	1.107483	1.112969	1.092956	1.095816	1.113808
57	1.101463	1.103985	1.109519	1.09966	1.111	1.103885	1.108444	1.085035	1.097491	1.111955
58	1.086625	1.086679	1.093405	1.083044	1.091642	1.085576	1.103424	1.068955	1.083281	1.09718
59	1.073941	1.070518	1.079645	1.070067	1.078588	1.070315	1.100738	1.065272	1.071505	1.081846
60	1.069797	1.0682	1.082637	1.066195	1.069628	1.069168	1.106581	1.067126	1.064863	1.076901
61	1.085275	1.082556	1.096411	1.072999	1.078578	1.08427	1.117391	1.083905	1.075446	1.091253
62	1.08624	1.086873	1.098672	1.073776	1.077678	1.085334	1.12041	1.079282	1.076165	1.092803
63	1.074394	1.077186	1.092197	1.062486	1.06647	1.068605	1.10725	1.065237	1.06343	1.078242
64	1.069412	1.071245	1.090557	1.055054	1.065652	1.067369	1.094269	1.065087	1.063051	1.069856
65	1.060604	1.052907	1.075524	1.046732	1.057371	1.062778	1.073399	1.05634	1.050108	1.061167
66	1.059178	1.043935	1.067374	1.047942	1.054865	1.060436	1.06393	1.050843	1.048957	1.058126
67	1.053573	1.036666	1.066417	1.040732	1.048381	1.056436	1.051886	1.04766	1.046559	1.050047
68	1.04436	1.028209	1.061764	1.034478	1.042998	1.039658	1.039422	1.047688	1.044641	1.040078
69	1.042945	1.030149	1.056356	1.030717	1.04028	1.035029	1.039933	1.052079	1.048592	1.036645
70	1.033114	1.023811	1.040198	1.025093	1.030285	1.029923	1.04198	1.045248	1.038656	1.028443
71	1.024374	1.01907	1.030035	1.016395	1.023741	1.020528	1.031782	1.036289	1.026567	1.021928
72	1.013139	1.010439	1.019944	1.007691	1.010762	1.014559	1.023394	1.017448	1.015143	1.010703
73	1.00548	1.008044	1.001353	1.002137	1.005038	1.003335	1.017724	1.00831	1.007121	1.003898
74	1.001032	1.007558	1.000271	0.997828	1.000408	0.99781	1.015847	1.001685	0.999413	0.999646
75	0.986085	0.998898	0.99533	0.98168	0.98933	0.978898	1.002584	0.983202	0.98183	0.98884
76	0.973132	0.97729	0.986594	0.972661	0.977039	0.960172	0.989607	0.973207	0.969424	0.978276
77	0.961491	0.972452	0.968041	0.960003	0.964206	0.946926	0.978381	0.965314	0.955257	0.970404
78	0.958569	0.974194	0.964766	0.954853	0.959185	0.951258	0.975375	0.960515	0.959382	0.968596
79	0.953738	0.972407	0.958943	0.948893	0.948846	0.945647	0.973708	0.957871	0.951943	0.963959
80	0.950078	0.969993	0.953834	0.944566	0.943535	0.941468	0.973215	0.952853	0.947957	0.958986
81	0.947347	0.961667	0.944679	0.942336	0.942819	0.937494	0.972019	0.95001	0.94392	0.955692
82	0.944907	0.955465	0.943257	0.941675	0.946422	0.935173	0.967247	0.945596	0.940167	0.951675
83	0.935833	0.943346	0.938154	0.934172	0.935899	0.924989	0.966068	0.936462	0.929218	0.944216
84	0.925962	0.929314	0.931594	0.922771	0.917718	0.922013	0.962602	0.93044	0.917582	0.933891
85	0.90718	0.917179	0.913249	0.89871	0.897812	0.905376	0.938822	0.907803	0.900012	0.914455
86	0.893209	0.904528	0.892443	0.884096	0.890005	0.891725	0.909503	0.887929	0.890138	0.895839
87	0.881559	0.890556	0.878789	0.872705	0.880193	0.881634	0.891046	0.876328	0.881105	0.881447
88	0.869164	0.877609	0.872727	0.869314	0.863925	0.871518	0.880088	0.869677	0.866011	0.867668
89	0.858104	0.867508	0.859341	0.861609	0.859079	0.862036	0.865193	0.863721	0.857613	0.858752
90	0.844827	0.858491	0.841517	0.847278	0.84878	0.846269	0.850596	0.852071	0.852653	0.848746
91	0.826447	0.842777	0.827893	0.832032	0.832755	0.826448	0.827463	0.839062	0.840857	0.829781
92	0.814471	0.829944	0.816915	0.820306	0.820279	0.809383	0.815354	0.82794	0.824262	0.81791
93	0.798538	0.809086	0.798887	0.804752	0.807533	0.78939	0.799447	0.812511	0.805926	0.803691
94	0.765477	0.775378	0.766221	0.76754	0.770641	0.754094	0.77276	0.777922	0.769612	0.773483
95	0.72666	0.733475	0.729353	0.727955	0.730213	0.716869	0.732148	0.735171	0.733125	0.733255
96	0.681117	0.685067	0.684444	0.681105	0.684653	0.674005	0.686984	0.69493	0.690383	0.68658
97	0.620302	0.623194	0.629125	0.618871	0.627681	0.617794	0.631192	0.630815	0.629014	0.622882
98	0.513917	0.517916	0.521688	0.513289	0.519453	0.522262	0.523542	0.523208	0.52013	0.515009
99	0.341959	0.342865	0.34652	0.342403	0.345213	0.355037	0.346818	0.34791	0.343093	0.342074
100	0.140986	0.140556	0.144108	0.1396	0.141689	0.147043	0.142043	0.142345	0.138379	0.140656

