## htsjdk.samtools.metrics.StringHeader
# picard.analysis.CollectRnaSeqMetrics REF_FLAT=/ref/genomes/hg19/refFlat.txt.gz RIBOSOMAL_INTERVALS=/ref/genomes/hg19/hg19.rRNA.interval_list STRAND_SPECIFICITY=NONE METRIC_ACCUMULATION_LEVEL=[ALL_READS, READ_GROUP] INPUT=/data/parkome/rna/results/bamfiles/SL283569.bam OUTPUT=/data/parkome/rna/results/QC_postAln/SL283569_picardRNAmetrics.txt    MINIMUM_LENGTH=500 RRNA_FRAGMENT_PERCENTAGE=0.8 ASSUME_SORTED=true STOP_AFTER=0 VERBOSITY=INFO QUIET=false VALIDATION_STRINGENCY=STRICT COMPRESSION_LEVEL=5 MAX_RECORDS_IN_RAM=500000 CREATE_INDEX=false CREATE_MD5_FILE=false GA4GH_CLIENT_SECRETS=client_secrets.json
## htsjdk.samtools.metrics.StringHeader
# Started on: Thu Jul 12 02:08:30 CEST 2018

## METRICS CLASS	picard.analysis.RnaSeqMetrics
PF_BASES	PF_ALIGNED_BASES	RIBOSOMAL_BASES	CODING_BASES	UTR_BASES	INTRONIC_BASES	INTERGENIC_BASES	IGNORED_READS	CORRECT_STRAND_READS	INCORRECT_STRAND_READS	PCT_RIBOSOMAL_BASES	PCT_CODING_BASES	PCT_UTR_BASES	PCT_INTRONIC_BASES	PCT_INTERGENIC_BASES	PCT_MRNA_BASES	PCT_USABLE_BASES	PCT_CORRECT_STRAND_READS	MEDIAN_CV_COVERAGE	MEDIAN_5PRIME_BIAS	MEDIAN_3PRIME_BIAS	MEDIAN_5PRIME_TO_3PRIME_BIAS	SAMPLE	LIBRARY	READ_GROUP
15328730863	14688156133	11510	4348137679	4265364772	3914055482	2160587043	0	0	0	0.000001	0.29603	0.290395	0.266477	0.147097	0.586425	0.561919	0	0.47397	0.117553	0.608928	0.26751			
965352294	922941052	748	271159473	268181274	246623914	136975649	0	0	0	0.000001	0.293799	0.290572	0.267215	0.148412	0.584372	0.558698	0	0.494642	0.117428	0.603008	0.254806	SL283569	LIB-SL283569	CBTWNANXX.s1.06
959203669	918796109	0	269947903	267403815	245502137	135942254	0	0	0	0	0.293806	0.291037	0.2672	0.147957	0.584843	0.560206	0	0.495598	0.118324	0.609484	0.249524	SL283569	LIB-SL283569	CBTWNANXX.s2.06
941315627	901635400	452	264919102	262081816	242250633	132383409	0	0	0	0.000001	0.293821	0.290674	0.268679	0.146826	0.584494	0.559856	0	0.494806	0.124504	0.611982	0.263351	SL283569	LIB-SL283569	CBTWNANXX.s3.06
952298557	911967461	1992	267958273	265172179	243946825	134888219	0	0	0	0.000002	0.293824	0.290769	0.267495	0.147909	0.584594	0.559835	0	0.499147	0.116853	0.60624	0.254172	SL283569	LIB-SL283569	CBTWNANXX.s4.06
920860720	883093313	1427	257976992	257252390	238525368	129337189	0	0	0	0.000002	0.292129	0.291308	0.270102	0.146459	0.583437	0.559508	0	0.498975	0.118328	0.627639	0.258209	SL283569	LIB-SL283569	CBTWNANXX.s5.06
946806675	906855017	498	265965655	263896709	243979296	133012883	0	0	0	0.000001	0.293284	0.291002	0.269039	0.146675	0.584286	0.559631	0	0.499589	0.11335	0.599646	0.240828	SL283569	LIB-SL283569	CBTWNANXX.s6.06
958174239	917450449	250	269686837	266711601	245495542	135556219	0	0	0	0	0.293952	0.29071	0.267585	0.147753	0.584662	0.559813	0	0.495034	0.115847	0.613107	0.253933	SL283569	LIB-SL283569	CBTWNANXX.s7.06
960681102	919285594	1065	269812477	267776137	244683118	137012852	0	0	0	0.000001	0.293502	0.291287	0.266167	0.149043	0.58479	0.559591	0	0.48957	0.118516	0.609526	0.255916	SL283569	LIB-SL283569	CBTWNANXX.s8.06
7724037980	7406131738	5078	2210710967	2146888851	1963048649	1085478369	0	0	0	0.000001	0.298497	0.28988	0.265057	0.146565	0.588377	0.564161	0	0.471341	0.116169	0.605371	0.278096	SL283569	LIB-SL283569	CC2NUANXX.s1.06

## HISTOGRAM	java.lang.Integer
normalized_position	All_Reads.normalized_coverage	CBTWNANXX.s1.06.normalized_coverage	CBTWNANXX.s2.06.normalized_coverage	CBTWNANXX.s3.06.normalized_coverage	CBTWNANXX.s4.06.normalized_coverage	CBTWNANXX.s5.06.normalized_coverage	CBTWNANXX.s6.06.normalized_coverage	CBTWNANXX.s7.06.normalized_coverage	CBTWNANXX.s8.06.normalized_coverage	CC2NUANXX.s1.06.normalized_coverage
0	0.051771	0.04867	0.050354	0.050187	0.04929	0.049958	0.045654	0.051087	0.050888	0.052415
1	0.119823	0.118188	0.119786	0.117655	0.119726	0.117683	0.110932	0.118273	0.120056	0.120157
2	0.250004	0.24709	0.25054	0.246895	0.249881	0.249674	0.233531	0.249444	0.247854	0.250415
3	0.409066	0.400051	0.407735	0.410051	0.408413	0.40965	0.381148	0.408451	0.404407	0.409897
4	0.543487	0.532844	0.54256	0.543286	0.540369	0.540252	0.513994	0.544368	0.537887	0.544477
5	0.643217	0.63971	0.642273	0.646402	0.63843	0.636112	0.620061	0.647007	0.636075	0.643552
6	0.727988	0.72853	0.729935	0.73041	0.71875	0.717717	0.709371	0.728055	0.720353	0.726612
7	0.808772	0.811828	0.808989	0.809252	0.795924	0.796318	0.789833	0.807735	0.805077	0.806725
8	0.880679	0.88382	0.880624	0.888348	0.868752	0.872451	0.868594	0.879765	0.880059	0.878875
9	0.949162	0.952537	0.951553	0.958668	0.941501	0.945131	0.941712	0.948533	0.949175	0.948991
10	0.997576	1.001321	1.002309	1.005844	0.989715	0.995463	0.993137	0.999062	0.99806	0.998551
11	1.02074	1.026794	1.023523	1.022667	1.008413	1.01898	1.015236	1.023386	1.017265	1.022053
12	1.040798	1.044164	1.043956	1.038862	1.025189	1.042478	1.0344	1.046344	1.036744	1.043225
13	1.074431	1.070592	1.080794	1.075736	1.06072	1.073843	1.071664	1.084881	1.072068	1.074754
14	1.102136	1.100216	1.110981	1.107077	1.087382	1.098823	1.105286	1.112494	1.09996	1.099063
15	1.122463	1.116971	1.121583	1.124636	1.104926	1.114907	1.117351	1.130619	1.111334	1.119813
16	1.147166	1.130534	1.140385	1.148934	1.128074	1.138707	1.138254	1.146323	1.129331	1.14621
17	1.164699	1.148476	1.157451	1.168853	1.155071	1.155883	1.158779	1.162432	1.152817	1.166021
18	1.178236	1.164066	1.170467	1.181572	1.169997	1.167891	1.175373	1.173409	1.166189	1.180341
19	1.190819	1.17984	1.184002	1.199485	1.176396	1.179199	1.191139	1.180999	1.168753	1.193532
20	1.205017	1.195533	1.202708	1.216725	1.1851	1.199769	1.20217	1.18846	1.185773	1.209
21	1.213139	1.211495	1.21238	1.22859	1.191128	1.206684	1.206836	1.195112	1.195772	1.217517
22	1.21383	1.213138	1.20795	1.229117	1.191859	1.208254	1.206888	1.196934	1.19554	1.218533
23	1.217335	1.21489	1.211577	1.22917	1.197807	1.210186	1.20574	1.19942	1.202288	1.222412
24	1.226057	1.219524	1.226227	1.227747	1.207822	1.21565	1.211327	1.20482	1.20524	1.231152
25	1.223574	1.217159	1.228365	1.222683	1.212041	1.209499	1.217587	1.209006	1.204762	1.228691
26	1.216568	1.211797	1.221024	1.214192	1.207894	1.203376	1.216172	1.200152	1.202101	1.222386
27	1.205128	1.198631	1.206062	1.203645	1.196993	1.193361	1.200682	1.189553	1.19743	1.210182
28	1.194768	1.191943	1.192686	1.192772	1.191741	1.181775	1.187961	1.177594	1.193469	1.1987
29	1.195082	1.195606	1.193129	1.196231	1.185166	1.17807	1.184032	1.176027	1.195971	1.19869
30	1.191186	1.191566	1.192927	1.190047	1.176941	1.175577	1.182161	1.177618	1.194943	1.193676
31	1.186082	1.187614	1.186682	1.180605	1.172261	1.17107	1.175455	1.173524	1.188308	1.188155
32	1.18862	1.188291	1.191512	1.183057	1.181282	1.176883	1.173461	1.174633	1.188304	1.190236
33	1.184769	1.177931	1.185097	1.181156	1.178269	1.176409	1.173766	1.171584	1.181329	1.183346
34	1.180114	1.170747	1.18095	1.175872	1.17798	1.170549	1.176419	1.168485	1.174679	1.177335
35	1.182208	1.175542	1.181784	1.186162	1.187718	1.177786	1.187351	1.177657	1.169269	1.177012
36	1.171371	1.162601	1.172944	1.173096	1.174993	1.169369	1.172272	1.165656	1.161062	1.166882
37	1.157473	1.149143	1.159203	1.152882	1.161466	1.158706	1.155977	1.146202	1.147551	1.1546
38	1.149166	1.145812	1.148325	1.145982	1.155223	1.147154	1.142105	1.135366	1.13593	1.14795
39	1.147933	1.150093	1.148259	1.146511	1.152544	1.149728	1.141635	1.140807	1.138671	1.145793
40	1.153653	1.153922	1.152543	1.149922	1.159537	1.156481	1.15043	1.146194	1.146782	1.150367
41	1.145358	1.144389	1.138423	1.144705	1.145447	1.148939	1.139808	1.137881	1.139938	1.142537
42	1.131106	1.129508	1.120861	1.135337	1.128408	1.135508	1.125477	1.126349	1.128669	1.128589
43	1.129371	1.125799	1.12028	1.137756	1.125491	1.127597	1.128165	1.127455	1.123136	1.125152
44	1.127762	1.124197	1.120453	1.137441	1.122066	1.123646	1.126688	1.125511	1.119414	1.1239
45	1.129035	1.130446	1.12115	1.131496	1.126446	1.126043	1.12978	1.122366	1.122675	1.124924
46	1.121039	1.126847	1.111669	1.122691	1.117175	1.119692	1.124421	1.111425	1.110559	1.114638
47	1.107075	1.113134	1.095723	1.113457	1.105586	1.105999	1.113522	1.097543	1.099331	1.100956
48	1.097341	1.101023	1.090255	1.10422	1.093805	1.098259	1.107939	1.08845	1.099983	1.092186
49	1.095614	1.101873	1.089713	1.102747	1.093488	1.09318	1.106948	1.091296	1.099432	1.091305
50	1.089825	1.093481	1.082411	1.093072	1.092825	1.088073	1.103895	1.091619	1.091345	1.086057
51	1.085309	1.086778	1.076451	1.087345	1.091386	1.087208	1.096088	1.093902	1.086933	1.083635
52	1.08386	1.081609	1.078749	1.083532	1.086058	1.09306	1.089498	1.097649	1.085842	1.083552
53	1.084057	1.076654	1.078322	1.085118	1.08031	1.094361	1.08736	1.093373	1.0832	1.084293
54	1.084943	1.080633	1.07895	1.087169	1.077645	1.088814	1.087259	1.089843	1.07774	1.084743
55	1.078399	1.07398	1.071793	1.080008	1.073877	1.078597	1.081481	1.077213	1.076594	1.07777
56	1.074474	1.071972	1.072624	1.077761	1.073654	1.074083	1.081244	1.070528	1.077061	1.074396
57	1.067777	1.063016	1.071526	1.071662	1.071468	1.066371	1.073975	1.064764	1.072735	1.069147
58	1.049401	1.046871	1.051296	1.055603	1.052521	1.043882	1.055061	1.048291	1.055974	1.051115
59	1.037138	1.03412	1.03507	1.0449	1.041599	1.032235	1.044108	1.038788	1.047061	1.039287
60	1.032107	1.027974	1.02621	1.039547	1.044495	1.032052	1.042692	1.035621	1.046274	1.033741
61	1.036493	1.032559	1.023889	1.040312	1.048636	1.038012	1.042279	1.03931	1.045067	1.038261
62	1.044754	1.041458	1.03234	1.040676	1.052359	1.049121	1.046358	1.04593	1.047008	1.046637
63	1.072101	1.065777	1.064045	1.065898	1.072778	1.077568	1.070284	1.073468	1.074828	1.075217
64	1.034923	1.027599	1.03436	1.025365	1.032969	1.047902	1.035232	1.046018	1.039923	1.037259
65	1.022014	1.019501	1.021202	1.010417	1.020197	1.038584	1.021269	1.032217	1.026535	1.023761
66	1.020347	1.02167	1.02001	1.01199	1.022237	1.035261	1.020013	1.026433	1.028555	1.020732
67	1.015549	1.022506	1.017947	1.012032	1.021184	1.032109	1.020765	1.021786	1.025021	1.017187
68	1.015769	1.024586	1.018836	1.010971	1.024956	1.035719	1.021047	1.026086	1.02744	1.018705
69	1.017154	1.02653	1.017373	1.009987	1.029542	1.035444	1.021189	1.025043	1.029311	1.019623
70	1.010264	1.020463	1.012814	1.000234	1.024088	1.019874	1.011884	1.016913	1.021584	1.013706
71	0.999773	1.011411	0.999169	0.985425	1.013491	1.000927	1.001262	1.005064	1.013817	1.003768
72	0.996192	1.002328	0.996619	0.979933	1.007429	0.99309	1.003881	1.003097	1.007255	0.99802
73	0.990777	0.993721	0.991933	0.981302	1.003333	0.98779	1.002354	1.002546	1.001447	0.991013
74	0.995546	0.998529	0.996684	0.987122	1.011685	0.993933	1.003402	1.008827	1.007682	0.993683
75	0.990573	0.994797	0.993038	0.98449	1.008249	0.985884	0.997046	1.003084	1.004405	0.987695
76	0.978273	0.988165	0.985439	0.974787	0.996293	0.97512	0.990242	0.989791	0.992778	0.976628
77	0.970732	0.980256	0.976475	0.964327	0.986784	0.969771	0.98267	0.978414	0.984569	0.968819
78	0.976708	0.986567	0.975981	0.970565	0.995863	0.976754	0.98229	0.983414	0.992402	0.974891
79	0.984296	0.990252	0.980029	0.978002	1.001175	0.980941	0.986446	0.990142	0.997916	0.983908
80	0.989537	0.992347	0.990254	0.985056	1.007413	0.98753	0.995497	0.996839	0.998839	0.988888
81	0.990568	0.996598	0.990624	0.983327	1.007764	0.989271	0.993164	0.991979	1.000219	0.990531
82	0.989048	0.99876	0.990369	0.983341	1.0009	0.991486	0.989738	0.990062	0.998845	0.990156
83	0.979856	0.990317	0.982607	0.975348	0.988103	0.9822	0.983827	0.98413	0.993492	0.982094
84	0.968024	0.98206	0.973694	0.96272	0.974757	0.972958	0.974828	0.974115	0.979187	0.970318
85	0.951399	0.962463	0.95804	0.944597	0.961062	0.960357	0.957479	0.958046	0.959164	0.953392
86	0.943186	0.954406	0.950939	0.934507	0.953303	0.950816	0.95014	0.950188	0.955023	0.945514
87	0.936699	0.945543	0.946691	0.927918	0.944175	0.94347	0.945449	0.94174	0.95127	0.937718
88	0.934216	0.940034	0.944752	0.930811	0.944411	0.94233	0.944125	0.943899	0.946422	0.933998
89	0.92852	0.933878	0.939029	0.930598	0.938953	0.937337	0.933665	0.935382	0.935634	0.929079
90	0.918805	0.920736	0.927017	0.921443	0.930709	0.928841	0.92452	0.925383	0.921697	0.919912
91	0.906501	0.909722	0.913939	0.911303	0.914274	0.917276	0.915745	0.913943	0.906833	0.908122
92	0.898128	0.905056	0.903765	0.901431	0.898672	0.903387	0.906387	0.907497	0.896841	0.900419
93	0.887603	0.892775	0.89453	0.88925	0.888092	0.890324	0.897655	0.896513	0.891561	0.887772
94	0.872154	0.880169	0.881935	0.8753	0.870989	0.879924	0.880433	0.883598	0.875738	0.870122
95	0.850962	0.852888	0.863731	0.852371	0.849729	0.859796	0.863584	0.863985	0.856303	0.846791
96	0.81673	0.815002	0.831611	0.819081	0.81994	0.826721	0.828338	0.826073	0.819167	0.81168
97	0.748894	0.745519	0.760064	0.752141	0.753979	0.764703	0.757635	0.757596	0.753214	0.743301
98	0.625191	0.61746	0.631505	0.629736	0.632281	0.644732	0.635858	0.633899	0.625335	0.618866
99	0.414659	0.410364	0.414639	0.417752	0.418625	0.432763	0.425085	0.418205	0.41377	0.410965
100	0.155715	0.155021	0.15331	0.154442	0.156057	0.164841	0.161726	0.159029	0.156075	0.156473

