## htsjdk.samtools.metrics.StringHeader
# picard.analysis.CollectRnaSeqMetrics REF_FLAT=/ref/genomes/hg19/refFlat.txt.gz RIBOSOMAL_INTERVALS=/ref/genomes/hg19/hg19.rRNA.interval_list STRAND_SPECIFICITY=NONE METRIC_ACCUMULATION_LEVEL=[ALL_READS, READ_GROUP] INPUT=/data/parkome/rna/results/bamfiles/SL283587.bam OUTPUT=/data/parkome/rna/results/QC_postAln/SL283587_picardRNAmetrics.txt    MINIMUM_LENGTH=500 RRNA_FRAGMENT_PERCENTAGE=0.8 ASSUME_SORTED=true STOP_AFTER=0 VERBOSITY=INFO QUIET=false VALIDATION_STRINGENCY=STRICT COMPRESSION_LEVEL=5 MAX_RECORDS_IN_RAM=500000 CREATE_INDEX=false CREATE_MD5_FILE=false GA4GH_CLIENT_SECRETS=client_secrets.json
## htsjdk.samtools.metrics.StringHeader
# Started on: Thu Jul 12 06:27:48 CEST 2018

## METRICS CLASS	picard.analysis.RnaSeqMetrics
PF_BASES	PF_ALIGNED_BASES	RIBOSOMAL_BASES	CODING_BASES	UTR_BASES	INTRONIC_BASES	INTERGENIC_BASES	IGNORED_READS	CORRECT_STRAND_READS	INCORRECT_STRAND_READS	PCT_RIBOSOMAL_BASES	PCT_CODING_BASES	PCT_UTR_BASES	PCT_INTRONIC_BASES	PCT_INTERGENIC_BASES	PCT_MRNA_BASES	PCT_USABLE_BASES	PCT_CORRECT_STRAND_READS	MEDIAN_CV_COVERAGE	MEDIAN_5PRIME_BIAS	MEDIAN_3PRIME_BIAS	MEDIAN_5PRIME_TO_3PRIME_BIAS	SAMPLE	LIBRARY	READ_GROUP
14778912754	14173542277	5128	4505028953	4209878570	3276504868	2182124911	0	0	0	0	0.317848	0.297024	0.231171	0.153958	0.614872	0.589685	0	0.457165	0.124629	0.629183	0.25961			
1276901764	1223540200	249	388187350	363665709	283766994	187919907	0	0	0	0	0.317266	0.297224	0.231923	0.153587	0.61449	0.58881	0	0.477511	0.11506	0.622079	0.264028	SL283587	LIB-SL283587	CBTWNANXX.s1.25
1272255328	1220782093	520	387755302	362821875	281352886	188851538	0	0	0	0	0.317629	0.297204	0.230469	0.154697	0.614833	0.589958	0	0.476971	0.126078	0.628799	0.271992	SL283587	LIB-SL283587	CBTWNANXX.s2.25
1251625654	1200588283	730	381074440	357368791	277135205	185009131	0	0	0	0.000001	0.317406	0.297661	0.230833	0.154099	0.615068	0.589987	0	0.472361	0.122953	0.622079	0.277121	SL283587	LIB-SL283587	CBTWNANXX.s3.25
1265171516	1213677671	747	385340302	360277870	281723918	186334884	0	0	0	0.000001	0.317498	0.296848	0.232124	0.153529	0.614346	0.589342	0	0.474782	0.119504	0.618649	0.255403	SL283587	LIB-SL283587	CBTWNANXX.s4.25
1219077037	1169856799	435	369908421	348401870	270833030	180713043	0	0	0	0	0.3162	0.297816	0.23151	0.154474	0.614016	0.589225	0	0.480485	0.120462	0.63062	0.238259	SL283587	LIB-SL283587	CBTWNANXX.s5.25
1258248801	1206570634	499	382336546	359164439	278404898	186664252	0	0	0	0	0.316879	0.297674	0.230741	0.154706	0.614552	0.589312	0	0.47799	0.117622	0.631525	0.248194	SL283587	LIB-SL283587	CBTWNANXX.s6.25
1269497518	1217593127	1448	387019318	361689309	281124244	187758834	0	0	0	0.000001	0.317856	0.297053	0.230885	0.154205	0.614909	0.589768	0	0.474818	0.12216	0.633314	0.249812	SL283587	LIB-SL283587	CBTWNANXX.s7.25
1277782167	1224907705	0	389122277	363895030	282430615	189459783	0	0	0	0	0.317675	0.29708	0.230573	0.154673	0.614754	0.589316	0	0.478045	0.126828	0.606022	0.277806	SL283587	LIB-SL283587	CBTWNANXX.s8.25
4688352969	4496025765	500	1434284997	1332593677	1039733078	689413539	0	0	0	0	0.319012	0.296394	0.231256	0.153338	0.615405	0.59016	0	0.462372	0.126757	0.612839	0.268803	SL283587	LIB-SL283587	CC2NUANXX.s3.25

## HISTOGRAM	java.lang.Integer
normalized_position	All_Reads.normalized_coverage	CBTWNANXX.s1.25.normalized_coverage	CBTWNANXX.s2.25.normalized_coverage	CBTWNANXX.s3.25.normalized_coverage	CBTWNANXX.s4.25.normalized_coverage	CBTWNANXX.s5.25.normalized_coverage	CBTWNANXX.s6.25.normalized_coverage	CBTWNANXX.s7.25.normalized_coverage	CBTWNANXX.s8.25.normalized_coverage	CC2NUANXX.s3.25.normalized_coverage
0	0.053255	0.053794	0.050011	0.054423	0.052744	0.053904	0.053251	0.053971	0.053045	0.054572
1	0.121825	0.119006	0.117565	0.123239	0.121485	0.123958	0.119273	0.12054	0.122505	0.123693
2	0.253487	0.244218	0.250277	0.259263	0.253015	0.253984	0.2495	0.249234	0.257906	0.254662
3	0.408294	0.396575	0.415989	0.415654	0.404547	0.409051	0.404453	0.411467	0.410922	0.412895
4	0.543405	0.531524	0.548534	0.550214	0.535444	0.54667	0.538518	0.545012	0.546343	0.549854
5	0.650224	0.641759	0.656607	0.657157	0.642978	0.658388	0.645187	0.651101	0.650757	0.653887
6	0.735903	0.732112	0.744708	0.747733	0.730088	0.741777	0.726454	0.738346	0.739034	0.73625
7	0.814192	0.812175	0.820429	0.822734	0.808295	0.81837	0.807152	0.816028	0.816768	0.813302
8	0.891452	0.890852	0.899351	0.898684	0.88911	0.895181	0.88887	0.898041	0.896393	0.888376
9	0.957115	0.956767	0.965616	0.962851	0.957277	0.961917	0.954877	0.960447	0.964784	0.954719
10	1.000407	1.002929	1.003304	1.002998	1.006028	1.010964	0.995268	0.99925	1.009462	0.999696
11	1.023867	1.02721	1.025413	1.024916	1.032757	1.036709	1.01897	1.022574	1.026979	1.027044
12	1.048585	1.048088	1.053652	1.0532	1.057395	1.058263	1.043829	1.044601	1.053175	1.051721
13	1.083707	1.077571	1.087315	1.086152	1.090014	1.088073	1.079926	1.077758	1.089771	1.085684
14	1.111186	1.102103	1.112104	1.112065	1.120318	1.116788	1.111725	1.104053	1.11748	1.114197
15	1.130102	1.120363	1.128761	1.135459	1.139805	1.133782	1.133693	1.125364	1.137778	1.134461
16	1.149597	1.140259	1.149702	1.157161	1.160249	1.152083	1.155809	1.146096	1.152386	1.153514
17	1.165782	1.155165	1.170838	1.174195	1.178259	1.173294	1.171188	1.16867	1.163944	1.169782
18	1.179465	1.173676	1.184225	1.181463	1.189815	1.190667	1.184474	1.181144	1.177245	1.182718
19	1.190397	1.183144	1.19472	1.194473	1.197432	1.205283	1.192555	1.19103	1.187734	1.19522
20	1.202376	1.190859	1.204735	1.198978	1.209407	1.216668	1.212403	1.20409	1.203677	1.207773
21	1.211637	1.194018	1.215526	1.212693	1.223109	1.221165	1.222573	1.208239	1.213747	1.217692
22	1.214899	1.200717	1.221698	1.220278	1.224719	1.221761	1.222621	1.215912	1.216413	1.222853
23	1.220604	1.209186	1.226289	1.22445	1.226458	1.223611	1.221646	1.223839	1.223579	1.231215
24	1.227102	1.219527	1.232304	1.228896	1.233586	1.226726	1.226869	1.227886	1.221417	1.236412
25	1.224115	1.216023	1.228298	1.228461	1.232625	1.219503	1.223374	1.225711	1.215779	1.232841
26	1.220614	1.212576	1.220817	1.226974	1.231691	1.211646	1.217064	1.221765	1.213351	1.231589
27	1.205909	1.201527	1.205191	1.210646	1.220189	1.198287	1.198463	1.206797	1.204011	1.21562
28	1.198339	1.192898	1.201561	1.204532	1.2152	1.193189	1.192885	1.1943	1.198028	1.206792
29	1.19747	1.196292	1.200264	1.20501	1.211007	1.187171	1.194576	1.192512	1.197705	1.209418
30	1.191659	1.194456	1.192999	1.196968	1.205072	1.184294	1.188145	1.190994	1.192537	1.203764
31	1.182275	1.187908	1.185649	1.187547	1.195739	1.182372	1.175982	1.182432	1.181588	1.190966
32	1.184967	1.188948	1.189808	1.187619	1.196677	1.187047	1.17874	1.189169	1.181801	1.192199
33	1.179799	1.182662	1.184062	1.187241	1.193467	1.182628	1.178077	1.185415	1.178226	1.18584
34	1.174486	1.172542	1.178492	1.182148	1.186078	1.176731	1.174703	1.180788	1.173885	1.181687
35	1.175842	1.173931	1.179822	1.184898	1.186052	1.177252	1.176723	1.183182	1.175211	1.181856
36	1.160688	1.162864	1.170493	1.166324	1.167778	1.164892	1.160473	1.164737	1.159211	1.168299
37	1.147173	1.149051	1.159564	1.152772	1.152916	1.150324	1.14978	1.150458	1.147764	1.151591
38	1.142482	1.146	1.156894	1.145353	1.146139	1.144382	1.146485	1.141177	1.145256	1.142215
39	1.143432	1.148495	1.152036	1.143948	1.147161	1.146931	1.145399	1.139784	1.144463	1.140939
40	1.150101	1.158418	1.159884	1.149135	1.148396	1.152595	1.149108	1.146644	1.14733	1.146947
41	1.144442	1.152008	1.155132	1.146879	1.140302	1.144641	1.143408	1.146503	1.142597	1.140533
42	1.134872	1.141449	1.143471	1.134654	1.132216	1.133486	1.131649	1.137585	1.132355	1.128705
43	1.130355	1.135941	1.134522	1.129036	1.129497	1.126045	1.125152	1.134201	1.127321	1.12667
44	1.12781	1.135563	1.127019	1.133049	1.126348	1.125448	1.122533	1.127064	1.126661	1.123673
45	1.128165	1.139501	1.128912	1.132122	1.125827	1.131037	1.126501	1.130356	1.129102	1.123893
46	1.118746	1.128753	1.118789	1.120756	1.114918	1.121727	1.118147	1.121621	1.124221	1.11591
47	1.106844	1.114722	1.107221	1.107703	1.105375	1.102772	1.107192	1.108405	1.113737	1.10302
48	1.102871	1.108879	1.103419	1.103081	1.102974	1.103283	1.099458	1.104793	1.108459	1.101282
49	1.101288	1.107109	1.100134	1.100574	1.102701	1.105972	1.095099	1.10638	1.100046	1.101521
50	1.099214	1.099875	1.100341	1.099116	1.097885	1.098482	1.092501	1.10577	1.091409	1.095948
51	1.095758	1.091916	1.098163	1.098476	1.090874	1.092163	1.091373	1.100311	1.090485	1.092882
52	1.090942	1.089694	1.090614	1.091684	1.085089	1.087829	1.089719	1.096355	1.087213	1.086987
53	1.089732	1.098448	1.085702	1.085427	1.086534	1.083804	1.090896	1.095789	1.087347	1.084482
54	1.087155	1.09459	1.084937	1.082613	1.086978	1.07637	1.08753	1.091576	1.08594	1.084076
55	1.079148	1.086645	1.07774	1.075755	1.07756	1.069605	1.081517	1.078415	1.078855	1.077925
56	1.073374	1.081419	1.069669	1.070339	1.075471	1.069415	1.077143	1.070301	1.076788	1.073414
57	1.069108	1.076458	1.068228	1.064414	1.068084	1.068422	1.073915	1.063782	1.072235	1.06836
58	1.054845	1.060276	1.055225	1.04863	1.051241	1.053492	1.060576	1.048166	1.058496	1.050808
59	1.040466	1.04274	1.044562	1.030979	1.034365	1.035038	1.04747	1.036446	1.044976	1.035847
60	1.034931	1.034346	1.038364	1.025074	1.026268	1.029805	1.042223	1.033876	1.034794	1.032215
61	1.041137	1.043882	1.042832	1.034234	1.02904	1.035142	1.049052	1.035671	1.040796	1.038256
62	1.045911	1.047966	1.049485	1.04406	1.036608	1.037898	1.050474	1.037315	1.047737	1.044259
63	1.050337	1.05595	1.051581	1.046988	1.042786	1.044295	1.056157	1.047565	1.051983	1.047039
64	1.030369	1.035157	1.030218	1.027078	1.027434	1.026957	1.035318	1.030976	1.037174	1.027904
65	1.024722	1.028128	1.020361	1.017925	1.021658	1.021931	1.02513	1.024923	1.028352	1.02112
66	1.021467	1.024426	1.018175	1.015271	1.019655	1.019145	1.01947	1.018778	1.022421	1.015865
67	1.015905	1.020295	1.013772	1.015385	1.011678	1.015821	1.014737	1.00828	1.018081	1.012409
68	1.011046	1.017491	1.007954	1.015517	1.005043	1.012008	1.009328	0.999625	1.013381	1.00846
69	1.008576	1.017286	1.002579	1.01362	1.007986	1.006794	1.00792	0.999925	1.010318	1.0067
70	0.998844	1.00569	0.992262	0.998581	0.998071	0.996042	0.998536	0.993731	1.00006	0.996633
71	0.996057	0.999401	0.987949	0.992413	0.993679	0.992893	0.992715	0.996139	0.996952	0.994715
72	0.991457	0.992222	0.982684	0.987966	0.986505	0.989063	0.98817	0.99107	0.99367	0.989915
73	0.985678	0.98515	0.975092	0.977444	0.982722	0.985478	0.984502	0.983948	0.987538	0.984453
74	0.990343	0.986723	0.98067	0.98445	0.98712	0.988424	0.988839	0.985748	0.989347	0.989935
75	0.987693	0.987312	0.97791	0.981913	0.981506	0.980584	0.984683	0.981971	0.982166	0.987727
76	0.980605	0.980945	0.971698	0.974843	0.972583	0.971371	0.978185	0.974785	0.97526	0.979454
77	0.971679	0.971296	0.959868	0.963685	0.961587	0.960311	0.969764	0.967793	0.969014	0.971473
78	0.971952	0.974232	0.961329	0.960602	0.962946	0.958336	0.966388	0.9724	0.967578	0.971766
79	0.972067	0.975028	0.95698	0.962594	0.960737	0.955955	0.964563	0.97423	0.967025	0.973077
80	0.974565	0.978373	0.957786	0.966714	0.967401	0.962996	0.970294	0.971668	0.97155	0.974906
81	0.973639	0.978188	0.961704	0.967509	0.970828	0.967339	0.971681	0.969608	0.972733	0.974858
82	0.977796	0.97777	0.967825	0.971722	0.977844	0.973865	0.974748	0.973602	0.980197	0.980067
83	0.973696	0.971329	0.965098	0.964539	0.971345	0.968257	0.972118	0.972214	0.973784	0.974195
84	0.964987	0.964153	0.959926	0.954591	0.95713	0.962235	0.962296	0.964829	0.967327	0.964504
85	0.950536	0.949116	0.947819	0.941043	0.942904	0.947747	0.947556	0.951183	0.952524	0.94822
86	0.940382	0.939123	0.937425	0.931105	0.936484	0.938956	0.941186	0.938884	0.938856	0.936162
87	0.935639	0.932824	0.93142	0.923424	0.929321	0.936434	0.940195	0.932929	0.928884	0.932123
88	0.93346	0.928672	0.93053	0.926488	0.92929	0.934048	0.937801	0.928289	0.927246	0.930723
89	0.925252	0.922285	0.922956	0.918894	0.919513	0.926177	0.930306	0.922635	0.92073	0.918236
90	0.914861	0.914709	0.908445	0.910888	0.904531	0.91767	0.921355	0.910813	0.910934	0.906553
91	0.906957	0.907182	0.898311	0.905071	0.895974	0.911426	0.91472	0.906344	0.904289	0.899175
92	0.89851	0.898187	0.891465	0.896697	0.889002	0.900223	0.902823	0.900952	0.897346	0.891973
93	0.886208	0.88609	0.881582	0.887062	0.879761	0.887517	0.889136	0.893562	0.885319	0.880698
94	0.86947	0.870364	0.865424	0.869925	0.864931	0.86959	0.874446	0.877888	0.868706	0.862979
95	0.847184	0.848514	0.844945	0.848498	0.84432	0.846823	0.850576	0.855377	0.845345	0.841988
96	0.817775	0.820065	0.818147	0.818184	0.813045	0.817894	0.822134	0.826791	0.814444	0.811154
97	0.759747	0.759686	0.760409	0.760343	0.755569	0.765359	0.765178	0.767529	0.75492	0.751734
98	0.640803	0.64217	0.644493	0.645065	0.642042	0.655046	0.649703	0.649176	0.634149	0.631833
99	0.430102	0.430526	0.43639	0.435073	0.433191	0.447005	0.436566	0.438287	0.426405	0.421739
100	0.163695	0.163101	0.165182	0.163295	0.162762	0.17089	0.165425	0.167873	0.162373	0.160649

