## htsjdk.samtools.metrics.StringHeader
# picard.analysis.CollectRnaSeqMetrics REF_FLAT=/ref/genomes/hg19/refFlat.txt.gz RIBOSOMAL_INTERVALS=/ref/genomes/hg19/hg19.rRNA.interval_list STRAND_SPECIFICITY=SECOND_READ_TRANSCRIPTION_STRAND METRIC_ACCUMULATION_LEVEL=[ALL_READS, READ_GROUP] INPUT=/data/parkome/rna/results/bamfiles/SL283582.bam OUTPUT=/data/parkome/rna/results/QC_postAln/SL283582_picardRNAmetrics.txt QUIET=true    MINIMUM_LENGTH=500 RRNA_FRAGMENT_PERCENTAGE=0.8 ASSUME_SORTED=true STOP_AFTER=0 VERBOSITY=INFO VALIDATION_STRINGENCY=STRICT COMPRESSION_LEVEL=5 MAX_RECORDS_IN_RAM=500000 CREATE_INDEX=false CREATE_MD5_FILE=false GA4GH_CLIENT_SECRETS=client_secrets.json
## htsjdk.samtools.metrics.StringHeader
# Started on: Mon Jul 23 12:44:22 CEST 2018

## METRICS CLASS	picard.analysis.RnaSeqMetrics
PF_BASES	PF_ALIGNED_BASES	RIBOSOMAL_BASES	CODING_BASES	UTR_BASES	INTRONIC_BASES	INTERGENIC_BASES	IGNORED_READS	CORRECT_STRAND_READS	INCORRECT_STRAND_READS	PCT_RIBOSOMAL_BASES	PCT_CODING_BASES	PCT_UTR_BASES	PCT_INTRONIC_BASES	PCT_INTERGENIC_BASES	PCT_MRNA_BASES	PCT_USABLE_BASES	PCT_CORRECT_STRAND_READS	MEDIAN_CV_COVERAGE	MEDIAN_5PRIME_BIAS	MEDIAN_3PRIME_BIAS	MEDIAN_5PRIME_TO_3PRIME_BIAS	SAMPLE	LIBRARY	READ_GROUP
14845160862	14269071288	10100	3449509385	3240094307	5510408344	2069049535	0	53170000	710159	0.000001	0.241747	0.227071	0.386178	0.145002	0.468818	0.450625	0.98682	0.472241	0.094007	0.57298	0.229276			
1882989077	1808075769	1210	437254198	410342909	698351110	262126413	0	6625936	88873	0.000001	0.241834	0.22695	0.38624	0.144975	0.468784	0.450134	0.986765	0.489976	0.093748	0.56651	0.227792	SL283582	LIB-SL283582	CBTWNANXX.s1.19
1868427491	1796658576	673	435084459	407788137	692547024	261238306	0	6670299	89109	0	0.242163	0.22697	0.385464	0.145402	0.469133	0.451113	0.986817	0.483223	0.099031	0.568741	0.216462	SL283582	LIB-SL283582	CBTWNANXX.s2.19
1840850629	1769879320	1991	428062321	402595292	682459522	256760266	0	6634521	88765	0.000001	0.24186	0.22747	0.385597	0.145072	0.46933	0.451236	0.986797	0.487665	0.095947	0.570118	0.223203	SL283582	LIB-SL283582	CBTWNANXX.s3.19
1860429991	1788573846	480	432774391	405981533	690124589	259692875	0	6652995	88229	0	0.241966	0.226986	0.385852	0.145196	0.468952	0.45084	0.986912	0.484994	0.090518	0.571713	0.229066	SL283582	LIB-SL283582	CBTWNANXX.s4.19
1797581431	1728401906	2333	415808046	393052185	669779632	249759785	0	6655270	88951	0.000001	0.240574	0.227408	0.387514	0.144503	0.467982	0.449971	0.986811	0.485786	0.095089	0.576901	0.216844	SL283582	LIB-SL283582	CBTWNANXX.s5.19
1850041011	1778255694	942	429478330	403375715	687871711	257529018	0	6648582	88559	0.000001	0.241517	0.226838	0.386824	0.144821	0.468354	0.450181	0.986855	0.484606	0.090562	0.569725	0.241334	SL283582	LIB-SL283582	CBTWNANXX.s6.19
1867971257	1795707379	746	435072647	407946549	692503707	260183752	0	6672494	88774	0	0.242285	0.227179	0.385644	0.144892	0.469464	0.451302	0.98687	0.485926	0.093369	0.552748	0.228386	SL283582	LIB-SL283582	CBTWNANXX.s7.19
1876869975	1803518798	1725	435974993	409011987	696771049	261759120	0	6609903	88899	0.000001	0.241736	0.226786	0.38634	0.145138	0.468521	0.450211	0.986729	0.487226	0.096044	0.552817	0.226709	SL283582	LIB-SL283582	CBTWNANXX.s8.19

## HISTOGRAM	java.lang.Integer
normalized_position	All_Reads.normalized_coverage	CBTWNANXX.s1.19.normalized_coverage	CBTWNANXX.s2.19.normalized_coverage	CBTWNANXX.s3.19.normalized_coverage	CBTWNANXX.s4.19.normalized_coverage	CBTWNANXX.s5.19.normalized_coverage	CBTWNANXX.s6.19.normalized_coverage	CBTWNANXX.s7.19.normalized_coverage	CBTWNANXX.s8.19.normalized_coverage
0	0.049231	0.047197	0.048008	0.049904	0.048844	0.050669	0.048888	0.048607	0.047146
1	0.103597	0.099177	0.103923	0.106319	0.101772	0.106198	0.105041	0.100755	0.102134
2	0.22057	0.217269	0.222169	0.224532	0.216261	0.22211	0.220369	0.216999	0.221539
3	0.374404	0.372983	0.380108	0.374949	0.372372	0.379308	0.371066	0.369233	0.374885
4	0.504749	0.502733	0.50889	0.502578	0.504538	0.505695	0.499039	0.50799	0.505502
5	0.612482	0.609296	0.611364	0.613149	0.60928	0.608833	0.610165	0.619618	0.61347
6	0.707663	0.701792	0.703376	0.707583	0.70496	0.702432	0.705868	0.714776	0.707438
7	0.785179	0.780828	0.781325	0.787537	0.7812	0.782868	0.789098	0.787401	0.786315
8	0.856479	0.854375	0.852442	0.863023	0.851199	0.861501	0.860191	0.863196	0.857153
9	0.92766	0.926792	0.921695	0.936191	0.923407	0.931728	0.929672	0.934947	0.930562
10	0.9709	0.965059	0.967611	0.97961	0.966646	0.979254	0.973773	0.977925	0.972853
11	1.003465	0.998124	1.000419	1.012802	0.999712	1.009124	1.007024	1.008976	1.007169
12	1.035962	1.031746	1.034666	1.040613	1.027422	1.038519	1.040323	1.042079	1.038398
13	1.077155	1.070406	1.074171	1.079876	1.067756	1.080168	1.082521	1.082044	1.075102
14	1.105525	1.097455	1.105073	1.106379	1.091797	1.115287	1.113326	1.10463	1.102726
15	1.12925	1.121758	1.132357	1.129342	1.112988	1.136586	1.135993	1.121725	1.126004
16	1.153962	1.148731	1.152395	1.153532	1.134478	1.157139	1.15817	1.152795	1.155618
17	1.170928	1.164332	1.168518	1.171565	1.152221	1.171106	1.17415	1.171393	1.174407
18	1.186112	1.178365	1.185763	1.181643	1.169269	1.181723	1.190378	1.188302	1.188747
19	1.193433	1.184885	1.193109	1.190782	1.183514	1.192816	1.195904	1.194948	1.202054
20	1.201124	1.19717	1.197178	1.195256	1.195232	1.199142	1.201528	1.200496	1.211985
21	1.21264	1.214882	1.208436	1.203913	1.207398	1.214785	1.214848	1.20803	1.220615
22	1.219801	1.221761	1.21218	1.211837	1.217802	1.222542	1.223543	1.214579	1.222055
23	1.229003	1.230296	1.2216	1.221495	1.226709	1.225824	1.233755	1.228732	1.226957
24	1.234049	1.237112	1.229722	1.23179	1.238405	1.231676	1.238845	1.235637	1.231007
25	1.232351	1.234559	1.230335	1.227446	1.239247	1.234939	1.236851	1.228618	1.227507
26	1.227568	1.22518	1.22539	1.223623	1.231053	1.228601	1.233394	1.226435	1.22562
27	1.224381	1.217799	1.219875	1.22274	1.226339	1.22474	1.228823	1.219758	1.225089
28	1.217853	1.214703	1.211856	1.214983	1.224903	1.221877	1.221822	1.213297	1.21694
29	1.218826	1.217974	1.216414	1.217848	1.227503	1.222584	1.223722	1.212044	1.219159
30	1.218311	1.221875	1.215515	1.218034	1.22463	1.221646	1.224169	1.208745	1.220197
31	1.213501	1.217188	1.211529	1.217876	1.212894	1.217263	1.218828	1.202231	1.217737
32	1.219043	1.224785	1.2197	1.220745	1.217276	1.219796	1.221095	1.210698	1.222735
33	1.219028	1.224882	1.222116	1.217794	1.214034	1.218835	1.221176	1.210196	1.220672
34	1.213914	1.221644	1.210625	1.210859	1.208004	1.211959	1.21563	1.205067	1.213551
35	1.218556	1.223607	1.21684	1.215369	1.21161	1.222286	1.217155	1.207134	1.211309
36	1.208751	1.2143	1.205472	1.206395	1.204328	1.215202	1.200825	1.1993	1.203416
37	1.201498	1.20269	1.201185	1.194619	1.197051	1.204208	1.193229	1.198263	1.201052
38	1.198014	1.19905	1.200141	1.191199	1.194654	1.190236	1.188789	1.197912	1.197585
39	1.20144	1.200994	1.197268	1.19595	1.194321	1.193516	1.196846	1.199506	1.196902
40	1.202192	1.20524	1.197787	1.198049	1.196742	1.19314	1.202523	1.198309	1.195139
41	1.189939	1.190606	1.188913	1.18923	1.188183	1.181808	1.191087	1.186693	1.178438
42	1.17315	1.171383	1.172457	1.175851	1.168656	1.171831	1.175504	1.169225	1.163824
43	1.161538	1.160414	1.159133	1.16729	1.153368	1.165168	1.160168	1.15802	1.158297
44	1.154716	1.156061	1.150372	1.159337	1.148804	1.159966	1.148746	1.154255	1.147791
45	1.158496	1.157173	1.156428	1.163808	1.153036	1.158499	1.151253	1.156552	1.15357
46	1.149986	1.149342	1.146537	1.156523	1.146531	1.149938	1.143046	1.146306	1.147925
47	1.132723	1.130234	1.127325	1.140381	1.131278	1.12954	1.131532	1.132956	1.131033
48	1.1281	1.133379	1.120811	1.134815	1.12861	1.121806	1.130977	1.127411	1.122451
49	1.127065	1.135585	1.120686	1.130149	1.131088	1.122864	1.127272	1.124852	1.120046
50	1.118925	1.128727	1.112723	1.117008	1.124594	1.115533	1.117033	1.116054	1.114179
51	1.108435	1.116426	1.097278	1.104282	1.11363	1.103022	1.103852	1.108421	1.108992
52	1.104977	1.106637	1.095013	1.100002	1.109768	1.099171	1.103621	1.106226	1.104689
53	1.103143	1.104164	1.094062	1.099595	1.113197	1.095853	1.103765	1.104321	1.101341
54	1.098796	1.102329	1.09412	1.094207	1.111378	1.090039	1.098047	1.103054	1.09882
55	1.093717	1.095858	1.089768	1.087198	1.10182	1.084204	1.091031	1.098912	1.095306
56	1.082115	1.082592	1.081893	1.075688	1.090728	1.071328	1.08342	1.086943	1.084508
57	1.072245	1.069773	1.070871	1.069164	1.084055	1.060826	1.077159	1.073652	1.074902
58	1.049901	1.046262	1.04894	1.048563	1.065518	1.040918	1.056362	1.049932	1.053724
59	1.032006	1.023519	1.031375	1.031421	1.044033	1.025345	1.037169	1.028894	1.036926
60	1.031335	1.024597	1.024769	1.0328	1.041112	1.027756	1.035738	1.027835	1.037189
61	1.043488	1.041905	1.033088	1.045409	1.048219	1.042195	1.045429	1.040236	1.050117
62	1.048826	1.045546	1.034195	1.051829	1.051563	1.047078	1.048705	1.046317	1.057917
63	1.054908	1.054965	1.040293	1.057447	1.057206	1.053302	1.054358	1.057058	1.063181
64	1.032623	1.034631	1.024187	1.0371	1.036306	1.034017	1.033898	1.040235	1.036334
65	1.021878	1.025373	1.02025	1.024042	1.030662	1.02395	1.024102	1.031993	1.022479
66	1.01888	1.0213	1.019936	1.020722	1.024918	1.020825	1.019419	1.028931	1.014705
67	1.012275	1.0129	1.013926	1.016821	1.012076	1.015217	1.014977	1.0194	1.010006
68	1.007025	1.007727	1.012767	1.010107	1.008735	1.011381	1.009198	1.01381	1.008097
69	1.006885	1.006813	1.016982	1.006245	1.011821	1.009072	1.006904	1.012172	1.01131
70	0.995338	0.996234	1.012214	0.991469	1.00443	0.995097	0.993744	0.999091	1.001549
71	0.986552	0.989039	1.003218	0.983447	0.995716	0.986478	0.988563	0.994694	0.991961
72	0.984716	0.985679	0.996234	0.984077	0.991438	0.985561	0.9855	0.992842	0.988821
73	0.976451	0.976462	0.986444	0.979429	0.979678	0.983231	0.976403	0.982827	0.978136
74	0.980952	0.979299	0.989772	0.986489	0.986134	0.989294	0.980115	0.986803	0.983901
75	0.979167	0.982612	0.98353	0.983234	0.982626	0.985438	0.975136	0.986797	0.983977
76	0.968559	0.976031	0.971499	0.972733	0.969072	0.971256	0.965985	0.976355	0.975384
77	0.952607	0.957058	0.955105	0.959073	0.951514	0.956519	0.952595	0.957951	0.95686
78	0.949211	0.95106	0.953683	0.954529	0.949438	0.950505	0.95099	0.952868	0.951243
79	0.950441	0.954441	0.958456	0.952035	0.952865	0.952603	0.954516	0.950479	0.950783
80	0.955444	0.96087	0.966586	0.95651	0.961127	0.958518	0.955397	0.955809	0.950663
81	0.956544	0.963997	0.964416	0.96245	0.960267	0.957512	0.953279	0.960769	0.951135
82	0.960331	0.966748	0.967435	0.965548	0.963123	0.959342	0.958687	0.963752	0.957712
83	0.953057	0.958473	0.964338	0.956308	0.953683	0.950695	0.95446	0.956413	0.950997
84	0.942185	0.948975	0.953436	0.942001	0.943249	0.937024	0.94246	0.941247	0.93758
85	0.928692	0.933621	0.935801	0.926271	0.931983	0.924834	0.933004	0.925446	0.923399
86	0.916808	0.922	0.923449	0.91145	0.919051	0.915618	0.919317	0.915609	0.913175
87	0.910448	0.913624	0.916759	0.906875	0.912775	0.906263	0.91201	0.911331	0.905817
88	0.905514	0.907138	0.911156	0.905293	0.907898	0.902721	0.904958	0.904392	0.900631
89	0.900263	0.900747	0.906445	0.90069	0.901866	0.901387	0.899976	0.89889	0.893779
90	0.892597	0.890861	0.898621	0.890501	0.895317	0.891592	0.891524	0.890127	0.884771
91	0.886079	0.883612	0.892008	0.88339	0.890825	0.882658	0.882741	0.882649	0.880612
92	0.879721	0.877722	0.885998	0.876919	0.884959	0.875985	0.87132	0.87937	0.877598
93	0.869857	0.866805	0.874332	0.870037	0.870823	0.867901	0.859343	0.872022	0.871436
94	0.846986	0.844814	0.849145	0.84682	0.846321	0.851066	0.837222	0.847554	0.851915
95	0.818888	0.815302	0.818743	0.820033	0.818013	0.822366	0.808436	0.816667	0.824448
96	0.786824	0.784887	0.78942	0.784987	0.783064	0.786212	0.77802	0.782459	0.792852
97	0.724877	0.719612	0.728755	0.721218	0.721456	0.729724	0.715872	0.717107	0.725825
98	0.607776	0.603024	0.609031	0.601491	0.60122	0.617632	0.599568	0.602451	0.606686
99	0.407065	0.403606	0.407879	0.401968	0.403145	0.415774	0.402487	0.403667	0.403758
100	0.163122	0.162237	0.164497	0.160638	0.160424	0.167393	0.159002	0.16192	0.161887

