## htsjdk.samtools.metrics.StringHeader
# picard.analysis.CollectRnaSeqMetrics REF_FLAT=/ref/genomes/hg19/refFlat.txt.gz RIBOSOMAL_INTERVALS=/ref/genomes/hg19/hg19.rRNA.interval_list STRAND_SPECIFICITY=SECOND_READ_TRANSCRIPTION_STRAND METRIC_ACCUMULATION_LEVEL=[ALL_READS, READ_GROUP] INPUT=/data/parkome/rna/results/bamfiles/SL283618.bam OUTPUT=/data/parkome/rna/results/QC_postAln/SL283618_picardRNAmetrics.txt QUIET=true    MINIMUM_LENGTH=500 RRNA_FRAGMENT_PERCENTAGE=0.8 ASSUME_SORTED=true STOP_AFTER=0 VERBOSITY=INFO VALIDATION_STRINGENCY=STRICT COMPRESSION_LEVEL=5 MAX_RECORDS_IN_RAM=500000 CREATE_INDEX=false CREATE_MD5_FILE=false GA4GH_CLIENT_SECRETS=client_secrets.json
## htsjdk.samtools.metrics.StringHeader
# Started on: Tue Jul 24 09:33:24 CEST 2018

## METRICS CLASS	picard.analysis.RnaSeqMetrics
PF_BASES	PF_ALIGNED_BASES	RIBOSOMAL_BASES	CODING_BASES	UTR_BASES	INTRONIC_BASES	INTERGENIC_BASES	IGNORED_READS	CORRECT_STRAND_READS	INCORRECT_STRAND_READS	PCT_RIBOSOMAL_BASES	PCT_CODING_BASES	PCT_UTR_BASES	PCT_INTRONIC_BASES	PCT_INTERGENIC_BASES	PCT_MRNA_BASES	PCT_USABLE_BASES	PCT_CORRECT_STRAND_READS	MEDIAN_CV_COVERAGE	MEDIAN_5PRIME_BIAS	MEDIAN_3PRIME_BIAS	MEDIAN_5PRIME_TO_3PRIME_BIAS	SAMPLE	LIBRARY	READ_GROUP
14418689863	13658735508	13481	2322518316	2295868785	6624662614	2415672894	0	34257529	757625	0.000001	0.170039	0.168088	0.485013	0.176859	0.338127	0.320306	0.978363	0.515729	0.089302	0.423912	0.244942			
1626149165	1536775334	1459	261823139	257810179	744943093	272197562	0	3807533	84141	0.000001	0.170372	0.16776	0.484744	0.177123	0.338132	0.319548	0.978379	0.544157	0.085676	0.407329	0.272727	SL283618	LIB-SL283618	CBTWNANXX.s1.23
1622939832	1538065465	1284	261613390	259004538	746253231	271193033	0	3849701	85763	0.000001	0.170092	0.168396	0.48519	0.176321	0.338489	0.320787	0.978208	0.542945	0.084353	0.406556	0.282845	SL283618	LIB-SL283618	CBTWNANXX.s2.23
1597593680	1514736450	2070	257527963	255226353	733805188	268174981	0	3818805	84288	0.000001	0.170015	0.168496	0.484444	0.177044	0.338511	0.320954	0.978405	0.545377	0.089201	0.419189	0.254998	SL283618	LIB-SL283618	CBTWNANXX.s3.23
1612004072	1527664987	1360	260114716	256356855	741013159	270178974	0	3821689	84472	0.000001	0.170269	0.16781	0.485063	0.176857	0.338079	0.320391	0.978375	0.549456	0.094615	0.425396	0.255732	SL283618	LIB-SL283618	CBTWNANXX.s4.23
1561379461	1484525974	2072	250878168	250596905	720931957	262116933	0	3835566	84899	0.000001	0.168995	0.168806	0.485631	0.176566	0.337801	0.321174	0.978345	0.547132	0.085662	0.432193	0.240917	SL283618	LIB-SL283618	CBTWNANXX.s5.23
1600237059	1516876629	1914	257534744	255627360	735586668	268126029	0	3827775	84288	0.000001	0.16978	0.168522	0.484935	0.176762	0.338302	0.320679	0.978454	0.545447	0.082759	0.429249	0.238267	SL283618	LIB-SL283618	CBTWNANXX.s6.23
1616779041	1531746634	994	260780520	257073595	742198857	271692706	0	3834983	84138	0.000001	0.17025	0.16783	0.484544	0.177374	0.338081	0.3203	0.978531	0.546515	0.087413	0.416727	0.254734	SL283618	LIB-SL283618	CBTWNANXX.s7.23
1623399905	1535887815	1232	261446248	257131430	745635581	271673396	0	3799532	84426	0.000001	0.170225	0.167416	0.485475	0.176884	0.33764	0.319439	0.978263	0.547262	0.08932	0.413113	0.262039	SL283618	LIB-SL283618	CBTWNANXX.s8.23
1558207648	1472456220	1096	250799428	247041570	714294880	260319280	0	3661945	81210	0.000001	0.170327	0.167775	0.485104	0.176793	0.338102	0.319496	0.978304	0.552196	0.081336	0.40844	0.249361	SL283618	LIB-SL283618	CC2NUANXX.s4.23

## HISTOGRAM	java.lang.Integer
normalized_position	All_Reads.normalized_coverage	CBTWNANXX.s1.23.normalized_coverage	CBTWNANXX.s2.23.normalized_coverage	CBTWNANXX.s3.23.normalized_coverage	CBTWNANXX.s4.23.normalized_coverage	CBTWNANXX.s5.23.normalized_coverage	CBTWNANXX.s6.23.normalized_coverage	CBTWNANXX.s7.23.normalized_coverage	CBTWNANXX.s8.23.normalized_coverage	CC2NUANXX.s4.23.normalized_coverage
0	0.06453	0.06523	0.063466	0.063648	0.067561	0.059838	0.062459	0.065108	0.067643	0.066717
1	0.119706	0.120917	0.120868	0.119147	0.126351	0.115301	0.117819	0.125592	0.125207	0.122481
2	0.225091	0.230241	0.230454	0.227812	0.232145	0.226137	0.223925	0.228695	0.234672	0.225053
3	0.354092	0.359462	0.362285	0.354548	0.361316	0.355009	0.34929	0.353577	0.366565	0.351758
4	0.463365	0.469533	0.473282	0.468211	0.469269	0.46427	0.458821	0.463219	0.474733	0.46152
5	0.58099	0.580105	0.590702	0.583836	0.584467	0.582937	0.578528	0.57559	0.591043	0.573857
6	0.678431	0.673284	0.68892	0.679503	0.676058	0.674774	0.676748	0.677402	0.685995	0.668184
7	0.753657	0.752254	0.765664	0.753543	0.752914	0.749006	0.746603	0.750407	0.757683	0.735832
8	0.829244	0.833302	0.836004	0.824915	0.827592	0.82496	0.819887	0.832726	0.822388	0.815028
9	0.901418	0.901292	0.907469	0.897748	0.896348	0.903328	0.897607	0.902708	0.885975	0.893661
10	0.955449	0.954999	0.965599	0.952057	0.944639	0.95524	0.94953	0.962145	0.951456	0.950271
11	0.999547	1.004	1.015211	1.003598	0.983679	1.003978	0.988967	1.000428	1.007643	0.995696
12	1.033638	1.043915	1.054895	1.028374	1.020814	1.042191	1.018493	1.028122	1.041427	1.027865
13	1.067199	1.079969	1.090322	1.057551	1.051763	1.075002	1.045842	1.056848	1.080791	1.064298
14	1.093843	1.109109	1.11246	1.085148	1.07484	1.101442	1.070723	1.08726	1.107477	1.092468
15	1.116963	1.133803	1.131127	1.101677	1.097147	1.123827	1.095379	1.113112	1.130657	1.115448
16	1.146718	1.163279	1.153616	1.129523	1.133253	1.148249	1.128764	1.148188	1.158333	1.147542
17	1.157242	1.170735	1.160168	1.144117	1.151468	1.15575	1.142311	1.156578	1.167397	1.156957
18	1.161813	1.168925	1.158468	1.154995	1.157486	1.163954	1.147694	1.166	1.174824	1.16717
19	1.177984	1.187627	1.167011	1.170329	1.166775	1.183278	1.162869	1.186177	1.182701	1.183533
20	1.186416	1.198072	1.17278	1.183541	1.17457	1.189087	1.175937	1.190559	1.191128	1.184009
21	1.199743	1.204623	1.191359	1.196057	1.188049	1.202454	1.183508	1.196005	1.20283	1.195411
22	1.204349	1.206608	1.202658	1.192961	1.193589	1.207221	1.192666	1.198598	1.203764	1.1966
23	1.208935	1.208566	1.20319	1.195718	1.200918	1.211013	1.198263	1.20323	1.209595	1.203405
24	1.216578	1.215638	1.21277	1.198913	1.20987	1.220858	1.207661	1.210179	1.220451	1.211516
25	1.216498	1.222317	1.217916	1.20258	1.203844	1.219937	1.20604	1.21509	1.223525	1.216927
26	1.214251	1.222366	1.227011	1.198764	1.199592	1.214068	1.209447	1.210379	1.222115	1.222835
27	1.223042	1.219889	1.227715	1.204268	1.211455	1.224812	1.216787	1.214397	1.224768	1.231931
28	1.224003	1.214914	1.226297	1.199316	1.213026	1.21754	1.218356	1.213195	1.225938	1.22595
29	1.239074	1.232574	1.237393	1.219764	1.225335	1.2325	1.229122	1.228961	1.240345	1.245436
30	1.24017	1.234876	1.235717	1.22658	1.222969	1.236117	1.230559	1.231125	1.235693	1.254146
31	1.238703	1.235917	1.234123	1.228745	1.2221	1.236283	1.232335	1.22819	1.229817	1.256716
32	1.248592	1.24801	1.236738	1.244946	1.234823	1.246808	1.251139	1.235654	1.241386	1.25886
33	1.243671	1.239264	1.231008	1.240772	1.22928	1.245053	1.253675	1.230365	1.242565	1.255824
34	1.231821	1.226894	1.22407	1.226718	1.226135	1.235124	1.234831	1.223436	1.228589	1.244907
35	1.227196	1.230302	1.221331	1.220829	1.216357	1.231937	1.227722	1.229051	1.228131	1.239139
36	1.220961	1.221574	1.217645	1.212685	1.206433	1.223453	1.223715	1.221756	1.222688	1.232218
37	1.226995	1.222958	1.227072	1.219196	1.21155	1.223202	1.226203	1.227494	1.223554	1.238841
38	1.232954	1.22599	1.238138	1.224468	1.220905	1.227894	1.228681	1.226017	1.229156	1.243065
39	1.228729	1.220663	1.236802	1.226012	1.215648	1.221566	1.221397	1.222232	1.227348	1.243158
40	1.210503	1.206728	1.216668	1.215628	1.197709	1.20115	1.202203	1.205883	1.211185	1.225191
41	1.192164	1.19277	1.194132	1.197103	1.186625	1.177166	1.183662	1.186271	1.195871	1.200721
42	1.178858	1.184041	1.180256	1.184408	1.17231	1.164468	1.169011	1.173272	1.178186	1.17769
43	1.166855	1.172655	1.166613	1.171641	1.159887	1.156485	1.161514	1.156911	1.164714	1.165889
44	1.157211	1.16655	1.157473	1.155688	1.156161	1.151472	1.156816	1.152923	1.153447	1.159844
45	1.162863	1.168942	1.164478	1.159466	1.15618	1.154661	1.161977	1.150877	1.159571	1.169588
46	1.160632	1.160325	1.155923	1.153973	1.147199	1.149855	1.160942	1.151878	1.154258	1.169704
47	1.155404	1.151202	1.15797	1.144448	1.140805	1.140031	1.152509	1.152156	1.150176	1.159896
48	1.159228	1.156684	1.159741	1.143832	1.146174	1.143549	1.155423	1.156235	1.155715	1.162372
49	1.161475	1.158998	1.154486	1.138503	1.156303	1.148397	1.149777	1.154774	1.160077	1.160485
50	1.156069	1.150805	1.147401	1.133047	1.158206	1.141918	1.140653	1.151891	1.153403	1.156328
51	1.146134	1.140633	1.140649	1.127297	1.149168	1.130593	1.134141	1.145735	1.144383	1.147232
52	1.146589	1.13259	1.1362	1.134348	1.14345	1.132129	1.138372	1.146364	1.136405	1.134618
53	1.140303	1.132064	1.125459	1.134213	1.136649	1.128804	1.133755	1.139331	1.122504	1.133122
54	1.130728	1.1246	1.120587	1.124541	1.131216	1.116865	1.126836	1.12896	1.11893	1.126801
55	1.120492	1.111998	1.109003	1.120728	1.127268	1.103011	1.123648	1.123954	1.111763	1.115405
56	1.112687	1.109454	1.106181	1.115942	1.118535	1.091282	1.123368	1.117114	1.105081	1.110615
57	1.108172	1.111789	1.112299	1.109961	1.115422	1.091044	1.118109	1.113789	1.101414	1.109775
58	1.092504	1.096815	1.09845	1.100332	1.107034	1.081211	1.100155	1.099231	1.086919	1.090777
59	1.080088	1.08646	1.087589	1.096266	1.09297	1.068244	1.085076	1.090796	1.075439	1.081731
60	1.075485	1.082917	1.083757	1.096749	1.08778	1.066525	1.08572	1.094655	1.071131	1.078065
61	1.084167	1.088591	1.089611	1.109333	1.094229	1.07719	1.104328	1.104841	1.082051	1.080207
62	1.089338	1.09181	1.090483	1.106822	1.102406	1.088703	1.114569	1.106393	1.084666	1.079103
63	1.080029	1.074753	1.077354	1.088397	1.089898	1.079179	1.101977	1.094551	1.074999	1.074119
64	1.076877	1.075903	1.076377	1.083587	1.080889	1.07103	1.090815	1.09412	1.079671	1.071917
65	1.062432	1.061063	1.062646	1.068719	1.063077	1.06387	1.074142	1.077885	1.073392	1.057719
66	1.062906	1.057786	1.06519	1.058285	1.064651	1.070801	1.076841	1.075768	1.074795	1.056759
67	1.054858	1.050141	1.059836	1.047507	1.05845	1.060729	1.065212	1.062982	1.063281	1.053496
68	1.050962	1.052239	1.055135	1.04338	1.052157	1.05844	1.058561	1.051596	1.060029	1.047106
69	1.052751	1.06045	1.055467	1.052229	1.056068	1.056061	1.054026	1.051758	1.063779	1.047558
70	1.03767	1.046235	1.041351	1.042501	1.037707	1.04316	1.043136	1.034814	1.045158	1.034382
71	1.027273	1.033782	1.01999	1.033975	1.024611	1.035449	1.038479	1.028001	1.032497	1.029019
72	1.017596	1.023965	1.011845	1.022621	1.017125	1.030958	1.027724	1.023905	1.020806	1.021271
73	1.01588	1.01898	1.0145	1.015871	1.01824	1.032373	1.022772	1.02252	1.013699	1.013035
74	1.008944	1.00845	1.008472	1.00804	1.016383	1.02916	1.017827	1.01808	1.003154	1.004785
75	0.992946	0.992127	0.995477	0.997207	1.004616	1.007164	0.997545	0.998542	0.991975	0.988081
76	0.976831	0.975264	0.979893	0.991202	0.994067	0.988271	0.979099	0.98258	0.982359	0.97034
77	0.970059	0.962271	0.967728	0.9844	0.988998	0.976542	0.97399	0.97626	0.982267	0.966464
78	0.969493	0.957528	0.967309	0.983069	0.989448	0.978197	0.978698	0.976602	0.97844	0.971528
79	0.967224	0.957952	0.966529	0.980166	0.98749	0.977601	0.979817	0.974552	0.968754	0.970202
80	0.962789	0.951474	0.962826	0.977112	0.98447	0.969293	0.974066	0.965957	0.9582	0.963368
81	0.956494	0.945537	0.960366	0.971471	0.977214	0.961669	0.967104	0.950438	0.959473	0.957641
82	0.949645	0.940966	0.951354	0.96221	0.967658	0.953362	0.965347	0.944993	0.955604	0.95172
83	0.943371	0.936256	0.935764	0.956018	0.962491	0.950431	0.962823	0.945286	0.94864	0.94809
84	0.93478	0.928349	0.921595	0.959262	0.959551	0.939459	0.949091	0.936159	0.941941	0.940815
85	0.912961	0.909961	0.895892	0.945499	0.937113	0.916549	0.923672	0.914134	0.914626	0.922325
86	0.897686	0.895232	0.887673	0.917207	0.908458	0.89943	0.898977	0.899245	0.894754	0.904242
87	0.888611	0.884312	0.881662	0.899502	0.887779	0.88634	0.89074	0.88952	0.886235	0.893188
88	0.881796	0.877744	0.871675	0.888674	0.889029	0.876578	0.888198	0.882122	0.873218	0.884934
89	0.867264	0.870354	0.857146	0.875168	0.880476	0.860298	0.873014	0.868203	0.857966	0.872722
90	0.850043	0.853981	0.847082	0.858613	0.859367	0.843249	0.856757	0.849327	0.841751	0.855215
91	0.83896	0.842672	0.836151	0.842738	0.843175	0.835741	0.842902	0.839561	0.828916	0.838261
92	0.822889	0.822958	0.822492	0.822076	0.83003	0.820919	0.826969	0.822333	0.810587	0.820488
93	0.80119	0.799517	0.79972	0.801587	0.809714	0.802557	0.802777	0.798188	0.786356	0.794867
94	0.766343	0.765282	0.763453	0.771362	0.77477	0.775622	0.769527	0.761891	0.748609	0.75954
95	0.719504	0.716676	0.717407	0.727264	0.7258	0.735012	0.721801	0.713941	0.70513	0.714856
96	0.663897	0.659342	0.666361	0.675005	0.672397	0.687517	0.668603	0.659487	0.65904	0.657333
97	0.592723	0.587221	0.595505	0.607876	0.608302	0.616357	0.600936	0.588175	0.586578	0.581244
98	0.48247	0.473845	0.478602	0.496922	0.491333	0.506672	0.492412	0.482684	0.477287	0.466901
99	0.315776	0.312609	0.311651	0.32067	0.318204	0.334195	0.323599	0.317688	0.310553	0.302292
100	0.128515	0.128975	0.128206	0.12733	0.128922	0.133692	0.132516	0.13103	0.124911	0.122426

