## htsjdk.samtools.metrics.StringHeader
# picard.analysis.CollectRnaSeqMetrics REF_FLAT=/ref/genomes/hg19/refFlat.txt.gz RIBOSOMAL_INTERVALS=/ref/genomes/hg19/hg19.rRNA.interval_list STRAND_SPECIFICITY=NONE METRIC_ACCUMULATION_LEVEL=[ALL_READS, READ_GROUP] INPUT=/data/parkome/rna/results/bamfiles/SL283586.bam OUTPUT=/data/parkome/rna/results/QC_postAln/SL283586_picardRNAmetrics.txt    MINIMUM_LENGTH=500 RRNA_FRAGMENT_PERCENTAGE=0.8 ASSUME_SORTED=true STOP_AFTER=0 VERBOSITY=INFO QUIET=false VALIDATION_STRINGENCY=STRICT COMPRESSION_LEVEL=5 MAX_RECORDS_IN_RAM=500000 CREATE_INDEX=false CREATE_MD5_FILE=false GA4GH_CLIENT_SECRETS=client_secrets.json
## htsjdk.samtools.metrics.StringHeader
# Started on: Thu Jul 12 14:53:56 CEST 2018

## METRICS CLASS	picard.analysis.RnaSeqMetrics
PF_BASES	PF_ALIGNED_BASES	RIBOSOMAL_BASES	CODING_BASES	UTR_BASES	INTRONIC_BASES	INTERGENIC_BASES	IGNORED_READS	CORRECT_STRAND_READS	INCORRECT_STRAND_READS	PCT_RIBOSOMAL_BASES	PCT_CODING_BASES	PCT_UTR_BASES	PCT_INTRONIC_BASES	PCT_INTERGENIC_BASES	PCT_MRNA_BASES	PCT_USABLE_BASES	PCT_CORRECT_STRAND_READS	MEDIAN_CV_COVERAGE	MEDIAN_5PRIME_BIAS	MEDIAN_3PRIME_BIAS	MEDIAN_5PRIME_TO_3PRIME_BIAS	SAMPLE	LIBRARY	READ_GROUP
16418128651	15585026016	15580	2954989873	2819319336	7281363173	2529338725	0	0	0	0.000001	0.189604	0.180899	0.467203	0.162293	0.370504	0.351703	0	0.502475	0.088874	0.443775	0.237731			
1491855496	1413602841	2093	267892454	255807282	660972372	228928724	0	0	0	0.000001	0.18951	0.180961	0.46758	0.161947	0.370472	0.351039	0	0.532015	0.083289	0.42466	0.263852	SL283586	LIB-SL283586	CBTWNANXX.s1.24
1481045604	1407059451	499	266829611	254709490	655907598	229612255	0	0	0	0	0.189636	0.181023	0.466155	0.163186	0.370659	0.352142	0	0.525163	0.084497	0.432702	0.231765	SL283586	LIB-SL283586	CBTWNANXX.s2.24
1451118460	1379533632	1054	261777582	249227392	643708961	224818715	0	0	0	0.000001	0.189758	0.180661	0.466613	0.162967	0.370419	0.352146	0	0.532463	0.081111	0.436573	0.218499	SL283586	LIB-SL283586	CBTWNANXX.s3.24
1473319307	1399885439	732	265547326	253192062	652974256	228171109	0	0	0	0.000001	0.189692	0.180866	0.466448	0.162993	0.370558	0.352089	0	0.532304	0.091804	0.427726	0.265778	SL283586	LIB-SL283586	CBTWNANXX.s4.24
1423243355	1356435641	1390	255668464	245814210	635708409	219243223	0	0	0	0.000001	0.188486	0.181221	0.468661	0.161632	0.369706	0.352352	0	0.530034	0.086614	0.43283	0.24659	SL283586	LIB-SL283586	CBTWNANXX.s5.24
1465722668	1392999356	983	263962018	251872742	650941023	226222668	0	0	0	0.000001	0.189492	0.180813	0.467295	0.1624	0.370305	0.351932	0	0.531726	0.08045	0.437833	0.257669	SL283586	LIB-SL283586	CBTWNANXX.s6.24
1476965553	1402848672	1197	266383855	253821419	656384392	226257840	0	0	0	0.000001	0.189888	0.180933	0.467894	0.161285	0.370821	0.352212	0	0.529033	0.088773	0.448064	0.239291	SL283586	LIB-SL283586	CBTWNANXX.s7.24
1488076351	1411403355	1995	267419775	255035901	658953327	229992418	0	0	0	0.000001	0.189471	0.180697	0.466878	0.162953	0.370168	0.351095	0	0.530911	0.086874	0.415239	0.26561	SL283586	LIB-SL283586	CBTWNANXX.s8.24
4666781857	4421257629	5637	839508788	799838838	2065812835	716091773	0	0	0	0.000001	0.18988	0.180908	0.467246	0.161966	0.370788	0.35128	0	0.51511	0.088678	0.448809	0.232432	SL283586	LIB-SL283586	CC2NUANXX.s4.24

## HISTOGRAM	java.lang.Integer
normalized_position	All_Reads.normalized_coverage	CBTWNANXX.s1.24.normalized_coverage	CBTWNANXX.s2.24.normalized_coverage	CBTWNANXX.s3.24.normalized_coverage	CBTWNANXX.s4.24.normalized_coverage	CBTWNANXX.s5.24.normalized_coverage	CBTWNANXX.s6.24.normalized_coverage	CBTWNANXX.s7.24.normalized_coverage	CBTWNANXX.s8.24.normalized_coverage	CC2NUANXX.s4.24.normalized_coverage
0	0.062364	0.06065	0.060008	0.06277	0.061044	0.061137	0.062523	0.061221	0.065551	0.060873
1	0.118363	0.114651	0.116727	0.121968	0.116363	0.120648	0.118475	0.117663	0.122484	0.116377
2	0.224494	0.221668	0.224701	0.228864	0.226023	0.232422	0.224604	0.228212	0.228989	0.222081
3	0.363367	0.360259	0.36141	0.36518	0.369855	0.376261	0.367809	0.370644	0.364263	0.362142
4	0.481399	0.480455	0.479106	0.484437	0.495195	0.498264	0.492254	0.491751	0.48009	0.476724
5	0.588806	0.581638	0.5888	0.584969	0.604156	0.601706	0.595641	0.603465	0.587953	0.584075
6	0.684823	0.677866	0.687145	0.676412	0.6944	0.693603	0.6935	0.692994	0.68827	0.678013
7	0.763519	0.75832	0.768499	0.754613	0.770807	0.762999	0.767119	0.772753	0.762598	0.759269
8	0.835352	0.832492	0.838194	0.826747	0.848614	0.836259	0.838521	0.846732	0.837436	0.836508
9	0.908922	0.90685	0.905	0.894478	0.922523	0.911166	0.905826	0.926251	0.912415	0.91443
10	0.961003	0.96175	0.959869	0.948871	0.977654	0.961595	0.948713	0.97913	0.967605	0.968833
11	1.00432	1.001621	0.998785	0.994189	1.015818	1.012037	0.988875	1.014121	1.008966	1.010693
12	1.041109	1.037405	1.03669	1.033981	1.04766	1.050676	1.024559	1.051536	1.041904	1.048052
13	1.087726	1.085124	1.077967	1.085189	1.100625	1.098648	1.076699	1.097111	1.089409	1.09235
14	1.114353	1.115305	1.099902	1.112527	1.126759	1.123547	1.115973	1.121035	1.12156	1.118161
15	1.134126	1.135236	1.118191	1.131928	1.142292	1.144418	1.134823	1.141318	1.141204	1.135183
16	1.159687	1.155403	1.150916	1.158301	1.175267	1.172237	1.169311	1.164451	1.168789	1.156447
17	1.167231	1.166589	1.159523	1.168018	1.176554	1.181907	1.175662	1.175558	1.168746	1.16324
18	1.174059	1.176003	1.164033	1.171092	1.178798	1.186159	1.178124	1.183908	1.170995	1.170702
19	1.182959	1.181469	1.178801	1.182638	1.19634	1.197057	1.191481	1.192052	1.187024	1.174706
20	1.189299	1.184856	1.188183	1.188672	1.201576	1.201777	1.208523	1.20126	1.192013	1.181036
21	1.205613	1.199638	1.205665	1.205925	1.216724	1.214778	1.228083	1.216677	1.203779	1.20158
22	1.208637	1.205099	1.209249	1.210162	1.225817	1.231157	1.227375	1.21556	1.214907	1.205785
23	1.212769	1.210206	1.210747	1.212748	1.233937	1.233467	1.233192	1.220382	1.225195	1.209371
24	1.222742	1.228072	1.220918	1.224649	1.237102	1.239834	1.236596	1.234724	1.232996	1.220057
25	1.223669	1.237202	1.222253	1.230594	1.233625	1.242548	1.236743	1.233007	1.233834	1.224041
26	1.221968	1.235476	1.222884	1.234016	1.228748	1.246891	1.2312	1.238119	1.230101	1.221372
27	1.22172	1.233453	1.222886	1.233615	1.228557	1.245529	1.230048	1.241752	1.228301	1.219589
28	1.224215	1.232609	1.226725	1.233302	1.23153	1.244479	1.229054	1.237245	1.22996	1.221813
29	1.236527	1.233689	1.237254	1.245861	1.25082	1.253458	1.250448	1.242562	1.236577	1.237828
30	1.232537	1.22153	1.242046	1.241398	1.247825	1.251251	1.251217	1.239553	1.235136	1.235911
31	1.225434	1.218313	1.235487	1.237138	1.230581	1.243291	1.24866	1.234289	1.228454	1.229427
32	1.23361	1.233536	1.245407	1.239861	1.24078	1.245459	1.25292	1.239689	1.234695	1.236955
33	1.223998	1.228682	1.239925	1.227578	1.235736	1.229081	1.247108	1.224487	1.226744	1.227387
34	1.206504	1.210687	1.2145	1.211873	1.219114	1.220431	1.227053	1.207199	1.20789	1.211825
35	1.209538	1.216745	1.217069	1.216262	1.222157	1.225264	1.219377	1.21237	1.21274	1.212593
36	1.204169	1.214122	1.214096	1.212539	1.21925	1.218978	1.215405	1.210147	1.208325	1.206498
37	1.204103	1.21148	1.222945	1.209091	1.217699	1.218961	1.208414	1.202384	1.209319	1.205913
38	1.201354	1.21048	1.223431	1.194714	1.210517	1.210976	1.207138	1.196228	1.21151	1.203918
39	1.197516	1.211479	1.215131	1.191204	1.201607	1.201096	1.197783	1.191894	1.205221	1.19903
40	1.188703	1.199468	1.201431	1.185303	1.19982	1.186234	1.18794	1.183113	1.194512	1.188112
41	1.17983	1.189224	1.193616	1.171032	1.193016	1.176326	1.178457	1.172101	1.183734	1.173639
42	1.165355	1.17665	1.179007	1.149431	1.182932	1.168677	1.161607	1.151426	1.170014	1.159115
43	1.156364	1.161514	1.164154	1.148018	1.174154	1.161708	1.157585	1.14371	1.155564	1.14531
44	1.152928	1.158059	1.161271	1.143904	1.175176	1.152896	1.15132	1.142931	1.144646	1.142051
45	1.154506	1.165742	1.156679	1.138269	1.172897	1.163998	1.156879	1.149662	1.151613	1.145227
46	1.14435	1.156863	1.143704	1.120694	1.155602	1.157859	1.147507	1.143552	1.137823	1.138524
47	1.132396	1.143928	1.12571	1.114369	1.138874	1.142367	1.137721	1.128579	1.125091	1.13096
48	1.132663	1.149501	1.131583	1.117886	1.139947	1.14217	1.141015	1.125206	1.12887	1.12543
49	1.132149	1.149027	1.137102	1.116091	1.142602	1.142088	1.135949	1.112499	1.131142	1.124913
50	1.125863	1.135042	1.131605	1.110369	1.132687	1.135583	1.129321	1.108505	1.126958	1.119059
51	1.118189	1.124405	1.116743	1.106407	1.120123	1.128887	1.117005	1.106409	1.120461	1.108891
52	1.116255	1.122829	1.112098	1.105879	1.117629	1.127815	1.115866	1.10223	1.119374	1.10715
53	1.12822	1.125955	1.1222	1.110953	1.123771	1.132683	1.121253	1.114671	1.122807	1.119944
54	1.126719	1.120929	1.125369	1.114807	1.116608	1.131468	1.118502	1.116083	1.122425	1.117744
55	1.122516	1.118941	1.11818	1.118591	1.110386	1.123489	1.110523	1.116467	1.117404	1.118085
56	1.11768	1.118245	1.111852	1.109112	1.111319	1.11943	1.109947	1.108368	1.111644	1.107992
57	1.1146	1.112127	1.098919	1.109335	1.109822	1.108939	1.106759	1.106874	1.117312	1.103077
58	1.100101	1.094952	1.085017	1.098396	1.091449	1.080937	1.09694	1.10333	1.108109	1.093164
59	1.08846	1.08149	1.073432	1.102098	1.075376	1.068838	1.086933	1.09279	1.094753	1.083895
60	1.087346	1.0768	1.076497	1.104154	1.071668	1.067955	1.082263	1.09449	1.097031	1.086829
61	1.104505	1.086716	1.095905	1.110677	1.084284	1.081941	1.09488	1.109005	1.110441	1.105955
62	1.109167	1.106449	1.097798	1.110965	1.086434	1.08954	1.100563	1.115056	1.111118	1.113269
63	1.089628	1.096018	1.082884	1.086459	1.067156	1.077782	1.081778	1.101084	1.089085	1.094616
64	1.075089	1.079061	1.073239	1.081397	1.051609	1.065876	1.067824	1.08661	1.073991	1.082889
65	1.056956	1.058579	1.059511	1.064024	1.043928	1.049137	1.058623	1.056298	1.057728	1.065537
66	1.050303	1.05764	1.059535	1.063056	1.038679	1.039148	1.055929	1.037206	1.047715	1.060861
67	1.037683	1.037307	1.054114	1.043945	1.026011	1.032526	1.043947	1.017063	1.037825	1.046704
68	1.037022	1.033828	1.051017	1.037211	1.020887	1.033172	1.033746	1.012724	1.036805	1.04806
69	1.043678	1.035457	1.058855	1.045991	1.030016	1.033141	1.03373	1.027854	1.048824	1.053217
70	1.036279	1.025369	1.05166	1.045531	1.024206	1.023391	1.029957	1.031309	1.034612	1.044062
71	1.031064	1.022644	1.046557	1.034904	1.018678	1.015708	1.025552	1.03019	1.032792	1.034538
72	1.025205	1.022486	1.044548	1.017261	1.009167	1.01124	1.01741	1.024721	1.025601	1.028249
73	1.011842	1.014023	1.027967	1.005314	0.994846	0.993815	1.005932	1.005732	1.012076	1.013109
74	1.010445	1.013602	1.014124	1.003846	0.99369	0.991584	1.0069	1.008583	1.010025	1.007235
75	1.002523	1.005595	1.002697	0.995763	0.985703	0.98587	0.993358	1.006293	0.998212	0.999159
76	0.996675	0.999361	0.98984	0.996257	0.977313	0.975943	0.984478	1.000422	0.989412	0.995505
77	0.985049	0.985545	0.979001	0.999231	0.967659	0.966359	0.969297	0.982467	0.974889	0.985901
78	0.981217	0.979873	0.976913	1.000316	0.962962	0.96521	0.971678	0.978661	0.979275	0.981122
79	0.979257	0.974426	0.973686	0.995538	0.958275	0.9565	0.97806	0.974729	0.981053	0.980128
80	0.97625	0.965025	0.973125	0.987882	0.944728	0.954815	0.97534	0.964037	0.97412	0.981746
81	0.970006	0.954834	0.967018	0.971656	0.940489	0.949292	0.964171	0.961963	0.964145	0.976515
82	0.958812	0.947506	0.960498	0.957402	0.939159	0.944477	0.952789	0.947375	0.950377	0.961813
83	0.947456	0.948152	0.942083	0.953283	0.936503	0.927383	0.937081	0.938435	0.933134	0.948623
84	0.944433	0.949728	0.927582	0.956614	0.932144	0.918777	0.930859	0.931768	0.926642	0.951044
85	0.9283	0.931341	0.913321	0.951693	0.914346	0.89511	0.90912	0.921703	0.90543	0.937513
86	0.899901	0.894432	0.890317	0.913089	0.890432	0.882254	0.888639	0.899683	0.885025	0.903037
87	0.880419	0.87308	0.870686	0.882605	0.875146	0.867244	0.875599	0.877043	0.875794	0.880614
88	0.874111	0.864907	0.859054	0.879342	0.86676	0.85657	0.869171	0.86767	0.868838	0.877733
89	0.86425	0.857028	0.855117	0.874798	0.855816	0.847652	0.859138	0.861555	0.858855	0.866978
90	0.846625	0.8429	0.844485	0.853183	0.837519	0.835831	0.840329	0.844203	0.84216	0.850656
91	0.831922	0.828452	0.825477	0.832941	0.826068	0.823255	0.823141	0.827223	0.834995	0.838932
92	0.813371	0.811831	0.803687	0.811761	0.808763	0.807016	0.807471	0.805407	0.817026	0.821404
93	0.794971	0.78795	0.785152	0.793644	0.798248	0.787557	0.793468	0.79154	0.793789	0.797472
94	0.76732	0.760553	0.760494	0.764282	0.76494	0.761121	0.768164	0.767447	0.765812	0.769557
95	0.730441	0.725736	0.728501	0.727818	0.72492	0.73062	0.730056	0.727565	0.724598	0.732581
96	0.686082	0.685475	0.687435	0.684803	0.685272	0.686909	0.6752	0.683428	0.677842	0.686636
97	0.627558	0.623552	0.632566	0.628982	0.632969	0.624706	0.610385	0.628319	0.618749	0.629417
98	0.518829	0.518099	0.523625	0.520224	0.522349	0.51656	0.504131	0.522954	0.510438	0.51926
99	0.338143	0.337895	0.34302	0.341936	0.337067	0.34253	0.333388	0.341926	0.331516	0.338902
100	0.135136	0.133427	0.135227	0.139154	0.134656	0.139504	0.137271	0.13542	0.132521	0.135745

