## htsjdk.samtools.metrics.StringHeader
# picard.analysis.CollectRnaSeqMetrics REF_FLAT=/ref/genomes/hg19/refFlat.txt.gz RIBOSOMAL_INTERVALS=/ref/genomes/hg19/hg19.rRNA.interval_list STRAND_SPECIFICITY=NONE METRIC_ACCUMULATION_LEVEL=[ALL_READS, READ_GROUP] INPUT=/data/parkome/rna/results/bamfiles/SL283570.bam OUTPUT=/data/parkome/rna/results/QC_postAln/SL283570_picardRNAmetrics.txt    MINIMUM_LENGTH=500 RRNA_FRAGMENT_PERCENTAGE=0.8 ASSUME_SORTED=true STOP_AFTER=0 VERBOSITY=INFO QUIET=false VALIDATION_STRINGENCY=STRICT COMPRESSION_LEVEL=5 MAX_RECORDS_IN_RAM=500000 CREATE_INDEX=false CREATE_MD5_FILE=false GA4GH_CLIENT_SECRETS=client_secrets.json
## htsjdk.samtools.metrics.StringHeader
# Started on: Wed Jul 11 20:32:13 CEST 2018

## METRICS CLASS	picard.analysis.RnaSeqMetrics
PF_BASES	PF_ALIGNED_BASES	RIBOSOMAL_BASES	CODING_BASES	UTR_BASES	INTRONIC_BASES	INTERGENIC_BASES	IGNORED_READS	CORRECT_STRAND_READS	INCORRECT_STRAND_READS	PCT_RIBOSOMAL_BASES	PCT_CODING_BASES	PCT_UTR_BASES	PCT_INTRONIC_BASES	PCT_INTERGENIC_BASES	PCT_MRNA_BASES	PCT_USABLE_BASES	PCT_CORRECT_STRAND_READS	MEDIAN_CV_COVERAGE	MEDIAN_5PRIME_BIAS	MEDIAN_3PRIME_BIAS	MEDIAN_5PRIME_TO_3PRIME_BIAS	SAMPLE	LIBRARY	READ_GROUP
15849721979	15136260027	13471	4194753189	4046183746	4613597710	2281712584	0	0	0	0.000001	0.277133	0.267317	0.304804	0.150745	0.54445	0.519942	0	0.465645	0.113206	0.608386	0.258953			
985839553	939229091	979	258164901	250705695	287753012	142604572	0	0	0	0.000001	0.274869	0.266927	0.306371	0.151832	0.541796	0.51618	0	0.492819	0.113404	0.596857	0.248529	SL283570	LIB-SL283570	CBTWNANXX.s1.07
977919840	933791576	227	257010459	249137567	285636086	142007258	0	0	0	0	0.275233	0.266802	0.305888	0.152076	0.542035	0.517576	0	0.494878	0.115968	0.596246	0.251769	SL283570	LIB-SL283570	CBTWNANXX.s2.07
962546917	919150428	681	252923445	245188126	281282411	139755809	0	0	0	0.000001	0.275171	0.266755	0.306024	0.152049	0.541926	0.517493	0	0.500847	0.115119	0.610043	0.248488	SL283570	LIB-SL283570	CBTWNANXX.s3.07
973208746	929104097	1488	254937691	248161652	284255507	141747845	0	0	0	0.000002	0.274391	0.267098	0.305946	0.152564	0.541489	0.516949	0	0.493123	0.110107	0.593456	0.235258	SL283570	LIB-SL283570	CBTWNANXX.s4.07
938683232	897515865	878	245224659	240120293	276837619	135332425	0	0	0	0.000001	0.273226	0.267539	0.308449	0.150786	0.540765	0.517049	0	0.499883	0.116726	0.609149	0.246528	SL283570	LIB-SL283570	CBTWNANXX.s5.07
967628680	923725460	715	253161161	246615122	283333072	140615405	0	0	0	0.000001	0.274065	0.266979	0.306729	0.152226	0.541044	0.516496	0	0.497727	0.113667	0.611098	0.250717	SL283570	LIB-SL283570	CBTWNANXX.s6.07
977103283	932752296	1248	256830136	248923543	284905367	142092030	0	0	0	0.000001	0.275347	0.26687	0.305446	0.152336	0.542216	0.517605	0	0.494528	0.105742	0.597051	0.240271	SL283570	LIB-SL283570	CBTWNANXX.s7.07
984258950	938837250	1074	258176973	250618567	287659898	142380806	0	0	0	0.000001	0.274997	0.266946	0.3064	0.151657	0.541942	0.516933	0	0.496261	0.109965	0.605814	0.259631	SL283570	LIB-SL283570	CBTWNANXX.s8.07
8082532778	7722153964	6181	2158323764	2066713181	2341934738	1155176434	0	0	0	0.000001	0.279498	0.267634	0.303275	0.149593	0.547132	0.522737	0	0.466777	0.116717	0.587881	0.273417	SL283570	LIB-SL283570	CC2NUANXX.s1.07

## HISTOGRAM	java.lang.Integer
normalized_position	All_Reads.normalized_coverage	CBTWNANXX.s1.07.normalized_coverage	CBTWNANXX.s2.07.normalized_coverage	CBTWNANXX.s3.07.normalized_coverage	CBTWNANXX.s4.07.normalized_coverage	CBTWNANXX.s5.07.normalized_coverage	CBTWNANXX.s6.07.normalized_coverage	CBTWNANXX.s7.07.normalized_coverage	CBTWNANXX.s8.07.normalized_coverage	CC2NUANXX.s1.07.normalized_coverage
0	0.05186	0.050859	0.051044	0.04568	0.047022	0.049623	0.049684	0.053683	0.050866	0.053269
1	0.118023	0.116484	0.120786	0.109225	0.109761	0.113478	0.112197	0.121126	0.118878	0.120674
2	0.248728	0.240165	0.250028	0.239044	0.236356	0.242098	0.238524	0.243115	0.240722	0.252674
3	0.405131	0.394487	0.407296	0.394491	0.392192	0.402105	0.393222	0.392152	0.389311	0.412191
4	0.535729	0.524154	0.541925	0.52835	0.520057	0.532697	0.521639	0.524636	0.519292	0.544481
5	0.63922	0.631923	0.651979	0.633561	0.621215	0.641053	0.626347	0.623045	0.618149	0.645854
6	0.723521	0.713233	0.737866	0.719776	0.705982	0.725182	0.706709	0.702226	0.703226	0.726206
7	0.802803	0.789482	0.816482	0.798438	0.782769	0.806304	0.783347	0.784602	0.78194	0.804028
8	0.870351	0.860471	0.883429	0.862337	0.856834	0.876049	0.84794	0.85703	0.845237	0.873456
9	0.945657	0.934585	0.957488	0.9421	0.939112	0.949346	0.923537	0.93408	0.922536	0.950853
10	0.996045	0.986957	1.009112	1.001543	0.991786	0.996196	0.981187	0.98582	0.976247	1.000125
11	1.028023	1.023734	1.040539	1.036414	1.02514	1.027966	1.014068	1.019457	1.012402	1.032682
12	1.057443	1.050165	1.064779	1.063577	1.050643	1.061531	1.041948	1.052347	1.042531	1.063207
13	1.091194	1.077006	1.09178	1.096869	1.080665	1.090887	1.076539	1.090714	1.076226	1.097641
14	1.117176	1.098744	1.118152	1.117134	1.108657	1.11029	1.099926	1.116891	1.10238	1.124557
15	1.130796	1.110777	1.129136	1.12706	1.126214	1.117821	1.111652	1.129127	1.118849	1.136701
16	1.155241	1.135383	1.156218	1.149952	1.150468	1.131733	1.134495	1.149247	1.148612	1.159659
17	1.171545	1.153781	1.173405	1.163333	1.165245	1.149374	1.155569	1.165204	1.162235	1.176075
18	1.181557	1.168241	1.181842	1.173474	1.176394	1.157805	1.167424	1.174062	1.1697	1.1871
19	1.189323	1.17643	1.183697	1.182533	1.188098	1.178818	1.173573	1.190719	1.177091	1.195267
20	1.193405	1.186565	1.18867	1.184258	1.189582	1.186164	1.175391	1.197288	1.179532	1.198374
21	1.198137	1.196662	1.190541	1.199729	1.189876	1.192976	1.18334	1.197942	1.189999	1.200667
22	1.201114	1.199761	1.192573	1.207697	1.194396	1.196518	1.182487	1.206287	1.196563	1.20422
23	1.209923	1.20404	1.196475	1.213097	1.205087	1.210484	1.192624	1.211281	1.201749	1.214422
24	1.216434	1.212683	1.208724	1.219811	1.211989	1.219172	1.203669	1.215818	1.201776	1.219586
25	1.212709	1.210949	1.210623	1.214077	1.210937	1.216588	1.202398	1.21039	1.195028	1.215115
26	1.203268	1.208309	1.209779	1.201946	1.199262	1.2134	1.197819	1.202544	1.182853	1.207551
27	1.194424	1.199209	1.203888	1.191354	1.188744	1.206426	1.194892	1.197267	1.180327	1.198352
28	1.186829	1.185407	1.196169	1.182009	1.179478	1.191721	1.191275	1.188774	1.181039	1.190478
29	1.190848	1.188293	1.202252	1.178588	1.185164	1.184465	1.192936	1.190746	1.184778	1.195277
30	1.193424	1.184323	1.202241	1.181683	1.190186	1.186997	1.194549	1.189952	1.18553	1.197062
31	1.187279	1.185329	1.190886	1.178495	1.185484	1.182856	1.191164	1.185741	1.179379	1.189604
32	1.188888	1.193149	1.189325	1.179989	1.192131	1.185161	1.19677	1.188097	1.177831	1.19265
33	1.181107	1.187063	1.177131	1.182447	1.189557	1.179722	1.197171	1.180891	1.167452	1.183738
34	1.175565	1.180354	1.172655	1.175784	1.180916	1.175399	1.186873	1.173725	1.165986	1.176408
35	1.179256	1.186423	1.177167	1.175655	1.184899	1.181696	1.18587	1.180946	1.173097	1.180227
36	1.170714	1.172202	1.173502	1.164525	1.178714	1.169177	1.175302	1.173752	1.162027	1.174234
37	1.162717	1.156089	1.167353	1.154265	1.167985	1.16045	1.167404	1.162873	1.158789	1.165747
38	1.160067	1.149327	1.166199	1.151733	1.166191	1.159584	1.161318	1.159747	1.160641	1.164585
39	1.160751	1.148843	1.166937	1.153872	1.166111	1.161595	1.163306	1.163377	1.16656	1.166136
40	1.164088	1.156471	1.16698	1.15803	1.173247	1.168455	1.169815	1.162725	1.174231	1.168858
41	1.152162	1.147857	1.158144	1.147289	1.167905	1.158102	1.15736	1.148677	1.162396	1.157623
42	1.135583	1.136551	1.141577	1.130519	1.15279	1.140855	1.13922	1.12982	1.145242	1.140159
43	1.131455	1.1363	1.137011	1.125207	1.147103	1.135568	1.135642	1.12428	1.137942	1.134347
44	1.129843	1.132708	1.132692	1.122422	1.145046	1.128168	1.137834	1.123478	1.131967	1.131332
45	1.134729	1.141335	1.135499	1.133417	1.143604	1.131286	1.142042	1.132459	1.133784	1.134611
46	1.12357	1.131132	1.12929	1.126391	1.132939	1.12379	1.125328	1.124372	1.121323	1.123078
47	1.114306	1.116843	1.125353	1.115102	1.12338	1.117636	1.111945	1.118199	1.114137	1.110604
48	1.110102	1.115555	1.125685	1.111446	1.123539	1.114094	1.109071	1.115963	1.111523	1.103565
49	1.104065	1.112327	1.118205	1.108611	1.118576	1.108486	1.106995	1.108938	1.108249	1.098501
50	1.099283	1.109423	1.104386	1.106966	1.111193	1.100831	1.101851	1.10442	1.100746	1.096774
51	1.093594	1.101031	1.094593	1.104693	1.095433	1.091135	1.093273	1.101197	1.096537	1.091121
52	1.094923	1.095804	1.095844	1.109156	1.094121	1.09294	1.09453	1.09913	1.096349	1.091574
53	1.093671	1.096672	1.09023	1.108436	1.089064	1.086826	1.096963	1.0971	1.098902	1.090769
54	1.092171	1.099535	1.09212	1.100703	1.087222	1.084479	1.092672	1.100738	1.10048	1.089535
55	1.086673	1.098828	1.086151	1.091188	1.086507	1.077419	1.09029	1.093457	1.094304	1.084076
56	1.079095	1.090481	1.080706	1.085134	1.0789	1.072976	1.085024	1.082869	1.085619	1.077479
57	1.07412	1.084808	1.078906	1.073988	1.071214	1.070022	1.084676	1.080185	1.079945	1.07275
58	1.05449	1.064591	1.061507	1.05194	1.049976	1.052101	1.064406	1.063575	1.060525	1.051806
59	1.041106	1.048846	1.047458	1.037771	1.036081	1.03844	1.045004	1.046555	1.044757	1.039126
60	1.035748	1.042657	1.034437	1.030078	1.030718	1.033896	1.040461	1.046666	1.040261	1.035514
61	1.03939	1.043953	1.028321	1.031913	1.037857	1.041106	1.040968	1.046261	1.044859	1.039751
62	1.040098	1.046744	1.02796	1.033346	1.035216	1.039038	1.040437	1.039012	1.044164	1.040428
63	1.052771	1.059802	1.044505	1.047134	1.042335	1.053415	1.056707	1.050557	1.058036	1.052119
64	1.035404	1.039869	1.032102	1.031919	1.030662	1.033322	1.044097	1.029553	1.047271	1.031704
65	1.032435	1.033305	1.025896	1.029036	1.031306	1.031972	1.045162	1.025443	1.047698	1.026577
66	1.032929	1.027828	1.025408	1.030038	1.034013	1.031163	1.042715	1.028309	1.044851	1.027343
67	1.032682	1.025833	1.022682	1.026593	1.034986	1.031542	1.035767	1.027866	1.041101	1.027198
68	1.037077	1.0294	1.028832	1.034258	1.039915	1.030043	1.039227	1.030176	1.046316	1.030967
69	1.038363	1.032993	1.028742	1.036212	1.037741	1.033423	1.038658	1.032532	1.047818	1.032959
70	1.024928	1.023687	1.017112	1.022762	1.0185	1.021403	1.025393	1.022055	1.040045	1.020404
71	1.014296	1.015482	1.009342	1.012999	1.007811	1.002836	1.019572	1.012131	1.031489	1.010885
72	1.006881	1.005431	0.999497	1.006151	1.004232	1.002636	1.014613	1.003945	1.025556	1.003666
73	0.99242	0.990834	0.985573	0.992709	0.99448	0.994986	1.002147	0.993936	1.011739	0.991155
74	0.996507	0.993392	0.985188	0.999694	1.000863	1.002324	0.999184	0.999403	1.013351	0.995484
75	0.99459	0.994045	0.9846	1.000962	0.993548	1.002278	0.992573	1.0036	1.00724	0.993424
76	0.987026	0.984438	0.977445	0.994868	0.988156	0.989517	0.982512	0.996671	0.99664	0.985145
77	0.96811	0.96678	0.960746	0.972695	0.977263	0.966434	0.964145	0.978984	0.972955	0.965726
78	0.96479	0.96567	0.958079	0.96994	0.975023	0.962229	0.961463	0.97346	0.972227	0.962107
79	0.969819	0.969998	0.960466	0.971405	0.975526	0.965845	0.97221	0.972852	0.974096	0.966797
80	0.974389	0.975597	0.964621	0.974732	0.978297	0.971357	0.981549	0.977567	0.978692	0.971574
81	0.97773	0.983982	0.965809	0.980639	0.981008	0.976593	0.987521	0.971873	0.984723	0.974006
82	0.982431	0.991326	0.971292	0.985605	0.988417	0.984078	0.99199	0.97934	0.989514	0.979751
83	0.977884	0.988215	0.967136	0.980878	0.985102	0.97658	0.98789	0.979452	0.987807	0.975877
84	0.968917	0.976846	0.959057	0.969536	0.970592	0.96799	0.977921	0.971404	0.979544	0.967105
85	0.955438	0.963135	0.948877	0.955234	0.956173	0.953122	0.965435	0.958208	0.966427	0.953457
86	0.942656	0.950045	0.940101	0.943403	0.940148	0.944809	0.95127	0.949743	0.952873	0.940756
87	0.933044	0.93937	0.928653	0.930361	0.935622	0.941089	0.938879	0.938504	0.941027	0.931212
88	0.926361	0.932708	0.924411	0.925399	0.929622	0.940997	0.928746	0.933587	0.931869	0.924629
89	0.9251	0.932027	0.921869	0.928157	0.93102	0.936532	0.931241	0.929479	0.929938	0.922991
90	0.912917	0.922679	0.910614	0.919135	0.917669	0.921255	0.922397	0.915282	0.915788	0.909661
91	0.903145	0.91156	0.900078	0.910434	0.905849	0.91291	0.910106	0.907094	0.906068	0.900052
92	0.894234	0.901281	0.894773	0.902908	0.893673	0.903688	0.89814	0.898767	0.898458	0.892143
93	0.879851	0.887439	0.880134	0.894274	0.883523	0.886122	0.889639	0.884612	0.886538	0.875509
94	0.855161	0.867403	0.856295	0.872261	0.860824	0.860227	0.867696	0.861088	0.866883	0.849468
95	0.830428	0.840792	0.833852	0.842798	0.836802	0.835293	0.842826	0.834255	0.842952	0.823828
96	0.79718	0.806297	0.797929	0.808751	0.803781	0.807086	0.811677	0.804594	0.811331	0.788787
97	0.72993	0.739138	0.734926	0.742876	0.737988	0.747741	0.743357	0.738791	0.742573	0.720733
98	0.604278	0.609204	0.609983	0.618355	0.611211	0.627948	0.618812	0.610348	0.613664	0.594533
99	0.399593	0.401041	0.402466	0.411974	0.404027	0.418447	0.412798	0.400764	0.401745	0.391105
100	0.148832	0.148398	0.147859	0.156079	0.149036	0.155467	0.156678	0.15037	0.14865	0.145244

