## htsjdk.samtools.metrics.StringHeader
# picard.analysis.CollectRnaSeqMetrics REF_FLAT=/ref/genomes/hg19/refFlat.txt.gz RIBOSOMAL_INTERVALS=/ref/genomes/hg19/hg19.rRNA.interval_list STRAND_SPECIFICITY=NONE METRIC_ACCUMULATION_LEVEL=[ALL_READS, READ_GROUP] INPUT=/data/parkome/rna/results/bamfiles/SL283577.bam OUTPUT=/data/parkome/rna/results/QC_postAln/SL283577_picardRNAmetrics.txt    MINIMUM_LENGTH=500 RRNA_FRAGMENT_PERCENTAGE=0.8 ASSUME_SORTED=true STOP_AFTER=0 VERBOSITY=INFO QUIET=false VALIDATION_STRINGENCY=STRICT COMPRESSION_LEVEL=5 MAX_RECORDS_IN_RAM=500000 CREATE_INDEX=false CREATE_MD5_FILE=false GA4GH_CLIENT_SECRETS=client_secrets.json
## htsjdk.samtools.metrics.StringHeader
# Started on: Wed Jul 11 22:15:21 CEST 2018

## METRICS CLASS	picard.analysis.RnaSeqMetrics
PF_BASES	PF_ALIGNED_BASES	RIBOSOMAL_BASES	CODING_BASES	UTR_BASES	INTRONIC_BASES	INTERGENIC_BASES	IGNORED_READS	CORRECT_STRAND_READS	INCORRECT_STRAND_READS	PCT_RIBOSOMAL_BASES	PCT_CODING_BASES	PCT_UTR_BASES	PCT_INTRONIC_BASES	PCT_INTERGENIC_BASES	PCT_MRNA_BASES	PCT_USABLE_BASES	PCT_CORRECT_STRAND_READS	MEDIAN_CV_COVERAGE	MEDIAN_5PRIME_BIAS	MEDIAN_3PRIME_BIAS	MEDIAN_5PRIME_TO_3PRIME_BIAS	SAMPLE	LIBRARY	READ_GROUP
13983592576	13496485345	8339	3244932169	3137257521	5175735989	1938551570	0	0	0	0.000001	0.240428	0.23245	0.383488	0.143634	0.472878	0.456406	0	0.460441	0.084058	0.501432	0.235247			
1320565224	1273702965	1229	306606282	295635628	488015483	183444388	0	0	0	0.000001	0.24072	0.232107	0.383147	0.144024	0.472828	0.456049	0	0.482664	0.086671	0.489387	0.229626	SL283577	LIB-SL283577	CBTWNANXX.s1.14
1310150641	1265352426	750	304277972	293685609	485018721	182369374	0	0	0	0.000001	0.240469	0.232098	0.383307	0.144125	0.472567	0.456408	0	0.486131	0.09038	0.490901	0.239303	SL283577	LIB-SL283577	CBTWNANXX.s2.14
1287090546	1242779524	211	298381627	289061708	475849860	179486133	0	0	0	0	0.240092	0.232593	0.382892	0.144423	0.472685	0.456412	0	0.48509	0.087589	0.503015	0.23822	SL283577	LIB-SL283577	CBTWNANXX.s3.14
1304567436	1259826729	1233	303306679	292051411	484178788	180288638	0	0	0	0.000001	0.240753	0.231819	0.384322	0.143106	0.472571	0.456364	0	0.4835	0.089106	0.492069	0.224794	SL283577	LIB-SL283577	CBTWNANXX.s4.14
1259017299	1215541336	720	290512085	282424533	468963230	173640807	0	0	0	0.000001	0.238998	0.232345	0.385806	0.142851	0.471343	0.455067	0	0.482895	0.08534	0.512061	0.224399	SL283577	LIB-SL283577	CBTWNANXX.s5.14
1295594330	1250782652	970	300243077	291077753	479088969	180371897	0	0	0	0.000001	0.240044	0.232716	0.383031	0.144207	0.472761	0.456409	0	0.48945	0.084816	0.49269	0.22488	SL283577	LIB-SL283577	CBTWNANXX.s6.14
1308393273	1263289976	249	303773477	293392018	483878615	182245640	0	0	0	0	0.240462	0.232244	0.383031	0.144263	0.472707	0.456411	0	0.487012	0.084921	0.503029	0.242359	SL283577	LIB-SL283577	CBTWNANXX.s7.14
1314388840	1268552929	749	305495066	294329496	485998174	182729444	0	0	0	0.000001	0.240822	0.23202	0.383112	0.144046	0.472842	0.456352	0	0.485911	0.088256	0.49747	0.218077	SL283577	LIB-SL283577	CBTWNANXX.s8.14
3583824987	3456656808	2228	832335904	805599365	1324744149	493975249	0	0	0	0.000001	0.240792	0.233057	0.383244	0.142905	0.47385	0.457036	0	0.470302	0.085926	0.493271	0.246605	SL283577	LIB-SL283577	CC2NUANXX.s4.14

## HISTOGRAM	java.lang.Integer
normalized_position	All_Reads.normalized_coverage	CBTWNANXX.s1.14.normalized_coverage	CBTWNANXX.s2.14.normalized_coverage	CBTWNANXX.s3.14.normalized_coverage	CBTWNANXX.s4.14.normalized_coverage	CBTWNANXX.s5.14.normalized_coverage	CBTWNANXX.s6.14.normalized_coverage	CBTWNANXX.s7.14.normalized_coverage	CBTWNANXX.s8.14.normalized_coverage	CC2NUANXX.s4.14.normalized_coverage
0	0.050769	0.050389	0.050937	0.053329	0.04978	0.050326	0.049908	0.049958	0.048949	0.051026
1	0.107566	0.107756	0.110297	0.108709	0.108835	0.107961	0.110602	0.108	0.108499	0.1082
2	0.217132	0.217116	0.220545	0.217068	0.217237	0.21604	0.220274	0.217628	0.218968	0.215499
3	0.357087	0.356907	0.361634	0.35801	0.354631	0.363614	0.359283	0.354828	0.360154	0.355552
4	0.473825	0.477271	0.477185	0.47454	0.475977	0.488836	0.477097	0.475256	0.477255	0.471146
5	0.580041	0.588615	0.583895	0.582943	0.581014	0.595503	0.584114	0.584477	0.580515	0.576403
6	0.677808	0.693894	0.67441	0.679599	0.676947	0.68545	0.679966	0.683973	0.679135	0.672835
7	0.757401	0.771465	0.753039	0.756439	0.754174	0.760253	0.754799	0.757703	0.759138	0.748615
8	0.826917	0.834559	0.828419	0.821084	0.824762	0.835517	0.828251	0.825297	0.832595	0.822986
9	0.898217	0.901756	0.896337	0.89442	0.894641	0.908474	0.89521	0.897191	0.904522	0.893762
10	0.948625	0.953025	0.949236	0.944233	0.946639	0.958376	0.942079	0.950002	0.957987	0.943454
11	0.989471	0.991841	0.98652	0.986701	0.988725	0.997983	0.982924	0.992413	0.99639	0.983394
12	1.026945	1.02434	1.022612	1.022045	1.027092	1.025898	1.02742	1.030474	1.031644	1.022646
13	1.064025	1.064616	1.06188	1.057411	1.061953	1.061661	1.063869	1.069422	1.070456	1.065671
14	1.091677	1.088688	1.094143	1.084366	1.090686	1.092588	1.084902	1.098626	1.093523	1.095114
15	1.113374	1.107442	1.116177	1.103405	1.115027	1.118022	1.103018	1.117443	1.113704	1.115899
16	1.142388	1.136669	1.147125	1.132676	1.138755	1.14457	1.133256	1.144755	1.140784	1.141999
17	1.155598	1.15875	1.161972	1.146209	1.155347	1.152617	1.150844	1.160873	1.156351	1.153909
18	1.17174	1.177858	1.177373	1.155361	1.162473	1.16262	1.169537	1.177301	1.171773	1.166326
19	1.178592	1.176373	1.18425	1.15997	1.167053	1.173286	1.175805	1.182195	1.182525	1.170964
20	1.181116	1.177212	1.185925	1.169889	1.164998	1.179022	1.185161	1.183438	1.183881	1.174652
21	1.190918	1.18769	1.197554	1.1831	1.175582	1.186406	1.195776	1.191444	1.192485	1.181917
22	1.193277	1.19006	1.201581	1.190492	1.17893	1.185065	1.19902	1.192558	1.196154	1.188765
23	1.200126	1.191228	1.2032	1.198575	1.189015	1.190052	1.207638	1.2056	1.199515	1.19874
24	1.214574	1.209475	1.218494	1.213995	1.203035	1.205893	1.218087	1.218293	1.206487	1.211646
25	1.216491	1.213741	1.213155	1.214574	1.206391	1.208696	1.214175	1.223684	1.203268	1.213686
26	1.214587	1.215452	1.20877	1.212575	1.205339	1.208658	1.209287	1.221073	1.206817	1.210297
27	1.208815	1.211695	1.20937	1.203733	1.19895	1.202845	1.20218	1.211746	1.203091	1.206762
28	1.207043	1.20504	1.21208	1.204391	1.195792	1.197861	1.201506	1.205162	1.206907	1.203985
29	1.21798	1.209958	1.222431	1.218513	1.208816	1.204098	1.211643	1.214217	1.215156	1.216615
30	1.220551	1.210056	1.21732	1.22079	1.214047	1.209452	1.211351	1.217933	1.216623	1.220522
31	1.215023	1.209952	1.211185	1.214122	1.214996	1.209979	1.209798	1.211842	1.209041	1.214838
32	1.220547	1.220078	1.217077	1.218721	1.221534	1.212956	1.217644	1.219252	1.21783	1.221505
33	1.215132	1.215175	1.210669	1.211004	1.214948	1.203201	1.211664	1.214516	1.21245	1.220055
34	1.203736	1.202138	1.199728	1.207342	1.204037	1.195483	1.200695	1.204073	1.193811	1.207942
35	1.206495	1.204703	1.203541	1.210111	1.207888	1.199867	1.201374	1.210535	1.192615	1.212612
36	1.195781	1.194784	1.198547	1.195361	1.192637	1.189009	1.192722	1.19591	1.18146	1.203585
37	1.191662	1.18785	1.193699	1.19132	1.187864	1.184869	1.188673	1.187222	1.17856	1.197265
38	1.195506	1.18531	1.197535	1.19386	1.191336	1.180355	1.193047	1.187605	1.181171	1.19686
39	1.198185	1.187798	1.199069	1.202189	1.191996	1.190364	1.196474	1.192569	1.185316	1.197761
40	1.19794	1.188857	1.199085	1.202874	1.191492	1.189159	1.196311	1.191143	1.185169	1.193555
41	1.185309	1.179473	1.185569	1.188485	1.182666	1.177035	1.185017	1.178517	1.17552	1.181743
42	1.172912	1.169564	1.175637	1.176387	1.170987	1.165401	1.174531	1.171433	1.162693	1.170248
43	1.165057	1.16408	1.167399	1.167531	1.162559	1.15977	1.171124	1.162504	1.158415	1.164402
44	1.160091	1.157838	1.16377	1.163479	1.161935	1.152059	1.166784	1.151431	1.160007	1.161633
45	1.161346	1.162379	1.164635	1.164792	1.170231	1.152521	1.171137	1.153359	1.162907	1.163463
46	1.151904	1.152764	1.151155	1.156612	1.163174	1.148415	1.160285	1.140343	1.152696	1.152269
47	1.13578	1.136062	1.141286	1.138124	1.145348	1.132562	1.145507	1.129239	1.13428	1.137555
48	1.13495	1.138018	1.137979	1.135435	1.140812	1.124552	1.143327	1.128183	1.126601	1.139149
49	1.135446	1.141299	1.141196	1.140575	1.134881	1.127198	1.139175	1.128401	1.124999	1.140873
50	1.130205	1.138547	1.136513	1.137403	1.126549	1.125356	1.134388	1.128353	1.114568	1.134295
51	1.122509	1.129609	1.12814	1.124963	1.117793	1.117425	1.12353	1.12174	1.105089	1.128687
52	1.119047	1.127061	1.124693	1.116597	1.121652	1.114967	1.118412	1.118474	1.107494	1.127432
53	1.116864	1.125586	1.122345	1.118661	1.114173	1.117058	1.114387	1.111491	1.112635	1.125233
54	1.117545	1.124713	1.119219	1.111944	1.122291	1.1177	1.117859	1.110911	1.11509	1.124841
55	1.112928	1.11739	1.111305	1.106878	1.119784	1.110278	1.120512	1.10585	1.107694	1.12203
56	1.107545	1.11296	1.103194	1.101267	1.11596	1.102934	1.115801	1.099004	1.09706	1.114917
57	1.10266	1.104423	1.098592	1.095547	1.113922	1.098925	1.10544	1.099042	1.097028	1.1081
58	1.080984	1.0849	1.077019	1.077155	1.090867	1.077864	1.083255	1.084839	1.077392	1.085667
59	1.064433	1.06463	1.058548	1.060909	1.077635	1.061652	1.063006	1.068806	1.057119	1.069767
60	1.062136	1.064987	1.060137	1.060345	1.072702	1.057969	1.063187	1.061573	1.059556	1.067098
61	1.074005	1.082667	1.066853	1.075543	1.083898	1.074533	1.070633	1.069096	1.072559	1.081662
62	1.077653	1.085121	1.066944	1.079471	1.081859	1.084759	1.075728	1.074363	1.076444	1.083829
63	1.075901	1.079969	1.064562	1.072201	1.077847	1.081791	1.079442	1.069336	1.075709	1.078919
64	1.066949	1.069532	1.061391	1.060374	1.070488	1.072673	1.068037	1.055591	1.071073	1.066048
65	1.059865	1.055267	1.058965	1.056038	1.065665	1.067438	1.05913	1.046097	1.068844	1.059947
66	1.056371	1.050757	1.055468	1.053843	1.060069	1.062994	1.059456	1.043236	1.064154	1.058682
67	1.051624	1.05075	1.053706	1.043543	1.050719	1.058739	1.049413	1.042438	1.053851	1.052637
68	1.049534	1.052208	1.055268	1.034058	1.049915	1.05333	1.045176	1.039862	1.051598	1.049235
69	1.050967	1.053411	1.053138	1.038683	1.054312	1.043323	1.044403	1.033598	1.057799	1.051885
70	1.042556	1.042664	1.042704	1.02861	1.047014	1.029406	1.029036	1.025469	1.050449	1.043288
71	1.031367	1.034536	1.029881	1.014604	1.036232	1.024731	1.015968	1.011901	1.045535	1.029756
72	1.023189	1.028791	1.0213	1.01205	1.026193	1.021289	1.010757	1.006266	1.037841	1.018438
73	1.01126	1.016255	1.0074	1.005333	1.012586	1.007209	1.002196	0.997819	1.02475	1.005972
74	1.013652	1.016954	1.008166	1.009964	1.010953	1.010255	1.009453	0.998148	1.027566	1.007014
75	1.005992	1.008448	0.998755	1.004255	0.999933	1.003172	1.004178	0.997046	1.020169	1.00127
76	0.992943	0.993868	0.98318	0.992457	0.985384	0.993049	0.989812	0.986384	1.002724	0.990367
77	0.975109	0.97517	0.967777	0.97968	0.970609	0.978038	0.969601	0.974805	0.981511	0.974347
78	0.968948	0.974114	0.966508	0.979855	0.965939	0.968392	0.968228	0.968362	0.974484	0.969704
79	0.967449	0.973259	0.968568	0.978932	0.963955	0.965951	0.963407	0.96863	0.973038	0.968155
80	0.969742	0.977118	0.971727	0.975574	0.967543	0.968989	0.965229	0.973097	0.973126	0.968478
81	0.9729	0.976342	0.972115	0.980588	0.971496	0.973871	0.969079	0.976398	0.973457	0.97148
82	0.972601	0.975238	0.970666	0.981528	0.973341	0.973445	0.971187	0.977572	0.975164	0.973759
83	0.95899	0.958436	0.959494	0.969364	0.960148	0.961812	0.960321	0.967861	0.960446	0.957073
84	0.946613	0.944147	0.945447	0.960289	0.945825	0.950878	0.947018	0.955337	0.945791	0.943638
85	0.933969	0.932344	0.929054	0.949821	0.932839	0.934342	0.937705	0.940542	0.932921	0.933226
86	0.924015	0.92463	0.919348	0.934369	0.921389	0.923873	0.93107	0.935108	0.922074	0.922715
87	0.916164	0.919197	0.912074	0.931538	0.909187	0.916247	0.922709	0.929101	0.914513	0.915489
88	0.908176	0.907193	0.903787	0.92449	0.903599	0.912731	0.914576	0.915962	0.912007	0.907335
89	0.894426	0.893452	0.891742	0.899864	0.895372	0.900118	0.904739	0.901666	0.906236	0.894225
90	0.879458	0.872472	0.880033	0.880008	0.887472	0.887279	0.888979	0.890622	0.890207	0.879712
91	0.868097	0.858185	0.869641	0.87339	0.883492	0.874494	0.875963	0.880974	0.87525	0.866991
92	0.853134	0.841877	0.854599	0.860195	0.870765	0.862992	0.857165	0.864783	0.861632	0.850769
93	0.838243	0.826965	0.837787	0.849082	0.853132	0.85411	0.841948	0.85223	0.847468	0.838834
94	0.80928	0.798388	0.812825	0.822724	0.819529	0.828916	0.816518	0.822275	0.817448	0.81272
95	0.77285	0.764551	0.777851	0.789192	0.781112	0.794127	0.777751	0.788653	0.779835	0.775044
96	0.733368	0.725306	0.738781	0.74552	0.742221	0.754833	0.734735	0.754507	0.738777	0.732562
97	0.66857	0.660161	0.672606	0.675349	0.672524	0.691354	0.671473	0.68653	0.6726	0.668392
98	0.549718	0.545894	0.550111	0.553624	0.551861	0.571203	0.555282	0.565569	0.549975	0.548389
99	0.362604	0.361479	0.356952	0.366656	0.365675	0.382512	0.368038	0.374451	0.360511	0.361066
100	0.143252	0.144429	0.140557	0.146849	0.1475	0.158364	0.147017	0.156944	0.143935	0.143243

