## htsjdk.samtools.metrics.StringHeader
# picard.analysis.CollectRnaSeqMetrics REF_FLAT=/ref/genomes/hg19/refFlat.txt.gz RIBOSOMAL_INTERVALS=/ref/genomes/hg19/hg19.rRNA.interval_list STRAND_SPECIFICITY=SECOND_READ_TRANSCRIPTION_STRAND METRIC_ACCUMULATION_LEVEL=[ALL_READS, READ_GROUP] INPUT=/data/parkome/rna/results/bamfiles/SL283589.bam OUTPUT=/data/parkome/rna/results/QC_postAln/SL283589_picardRNAmetrics.txt QUIET=true    MINIMUM_LENGTH=500 RRNA_FRAGMENT_PERCENTAGE=0.8 ASSUME_SORTED=true STOP_AFTER=0 VERBOSITY=INFO VALIDATION_STRINGENCY=STRICT COMPRESSION_LEVEL=5 MAX_RECORDS_IN_RAM=500000 CREATE_INDEX=false CREATE_MD5_FILE=false GA4GH_CLIENT_SECRETS=client_secrets.json
## htsjdk.samtools.metrics.StringHeader
# Started on: Mon Jul 23 15:35:44 CEST 2018

## METRICS CLASS	picard.analysis.RnaSeqMetrics
PF_BASES	PF_ALIGNED_BASES	RIBOSOMAL_BASES	CODING_BASES	UTR_BASES	INTRONIC_BASES	INTERGENIC_BASES	IGNORED_READS	CORRECT_STRAND_READS	INCORRECT_STRAND_READS	PCT_RIBOSOMAL_BASES	PCT_CODING_BASES	PCT_UTR_BASES	PCT_INTRONIC_BASES	PCT_INTERGENIC_BASES	PCT_MRNA_BASES	PCT_USABLE_BASES	PCT_CORRECT_STRAND_READS	MEDIAN_CV_COVERAGE	MEDIAN_5PRIME_BIAS	MEDIAN_3PRIME_BIAS	MEDIAN_5PRIME_TO_3PRIME_BIAS	SAMPLE	LIBRARY	READ_GROUP
14331052741	13662858641	14348	2767805302	2736330953	6046077227	2112631465	0	42530974	776128	0.000001	0.202579	0.200275	0.442519	0.154626	0.402854	0.384071	0.982079	0.484301	0.082279	0.45918	0.224127			
1223739924	1164804233	1492	235684285	232542735	516089136	180486667	0	3579859	65280	0.000001	0.202338	0.199641	0.443069	0.15495	0.401979	0.38262	0.982091	0.517866	0.084787	0.440345	0.229032	SL283589	LIB-SL283589	CBTWNANXX.s1.27
1217895642	1161756872	1725	234911600	232410916	513868637	180564085	0	3617073	66117	0.000001	0.202204	0.200051	0.44232	0.155423	0.402255	0.383713	0.982049	0.513766	0.080519	0.442693	0.226747	SL283589	LIB-SL283589	CBTWNANXX.s2.27
1192179771	1137332321	1678	230004218	227822634	502940639	176563232	0	3572331	65575	0.000001	0.202231	0.200313	0.442211	0.155243	0.402544	0.384025	0.981975	0.51726	0.080773	0.431154	0.222643	SL283589	LIB-SL283589	CBTWNANXX.s3.27
1212283116	1156339184	1102	233423026	230819125	512571620	179524362	0	3591028	66387	0.000001	0.201864	0.199612	0.443271	0.155252	0.401476	0.382949	0.981849	0.514671	0.081106	0.452375	0.231982	SL283589	LIB-SL283589	CBTWNANXX.s4.27
1170582798	1118451197	1097	224336889	224222297	496895358	172995589	0	3608893	66129	0.000001	0.200578	0.200476	0.444271	0.154674	0.401054	0.383193	0.982006	0.515911	0.079971	0.461497	0.221341	SL283589	LIB-SL283589	CBTWNANXX.s5.27
1206435693	1150733133	1411	232216979	229942038	511010797	177561961	0	3605689	66274	0.000001	0.201799	0.199822	0.444074	0.154303	0.401621	0.383078	0.981951	0.518666	0.07962	0.446426	0.228284	SL283589	LIB-SL283589	CBTWNANXX.s6.27
1213984044	1157368601	464	233767478	231464154	512593933	179542600	0	3595740	65181	0	0.201982	0.199992	0.442896	0.15513	0.401974	0.383227	0.982195	0.516344	0.088889	0.454602	0.239771	SL283589	LIB-SL283589	CBTWNANXX.s7.27
1225381042	1167445219	676	236605753	233501173	515953905	181383742	0	3606101	65962	0.000001	0.20267	0.20001	0.441951	0.155368	0.40268	0.383641	0.982037	0.515069	0.081813	0.422631	0.231459	SL283589	LIB-SL283589	CBTWNANXX.s8.27
4668570711	4448627881	4703	906855074	893605881	1964153202	684009227	0	13754260	249223	0.000001	0.203851	0.200872	0.441519	0.153757	0.404723	0.385656	0.982203	0.491779	0.085354	0.442273	0.243147	SL283589	LIB-SL283589	CC2NUANXX.s3.27

## HISTOGRAM	java.lang.Integer
normalized_position	All_Reads.normalized_coverage	CBTWNANXX.s1.27.normalized_coverage	CBTWNANXX.s2.27.normalized_coverage	CBTWNANXX.s3.27.normalized_coverage	CBTWNANXX.s4.27.normalized_coverage	CBTWNANXX.s5.27.normalized_coverage	CBTWNANXX.s6.27.normalized_coverage	CBTWNANXX.s7.27.normalized_coverage	CBTWNANXX.s8.27.normalized_coverage	CC2NUANXX.s3.27.normalized_coverage
0	0.059084	0.061856	0.05519	0.05815	0.058862	0.059828	0.054429	0.05765	0.055453	0.060314
1	0.115133	0.117944	0.113777	0.114123	0.112253	0.118717	0.106061	0.114252	0.111493	0.117797
2	0.215387	0.219102	0.213222	0.213666	0.212944	0.222852	0.202638	0.218672	0.215683	0.219905
3	0.342006	0.351281	0.337022	0.337801	0.335061	0.344709	0.324839	0.348503	0.338077	0.350155
4	0.453901	0.459251	0.453106	0.453304	0.449243	0.458262	0.441931	0.461036	0.450665	0.459978
5	0.557272	0.560963	0.558655	0.566448	0.555098	0.56049	0.546059	0.562511	0.552038	0.565415
6	0.650903	0.658621	0.644879	0.659487	0.645591	0.643318	0.638635	0.655896	0.63963	0.658867
7	0.725928	0.736258	0.721959	0.742768	0.722074	0.716693	0.724244	0.732842	0.719979	0.73224
8	0.796843	0.80978	0.796037	0.819188	0.791923	0.7937	0.797208	0.804677	0.797083	0.804328
9	0.874155	0.885496	0.866952	0.893427	0.86951	0.868472	0.870388	0.879962	0.869555	0.881597
10	0.925589	0.930464	0.919708	0.945851	0.918031	0.922574	0.929533	0.923527	0.920709	0.933953
11	0.966827	0.971285	0.966163	0.985572	0.962047	0.967949	0.974598	0.961723	0.961951	0.974089
12	0.996432	0.99677	0.994938	1.018461	0.992139	0.994047	1.007201	0.998583	0.989806	1.00277
13	1.034017	1.033513	1.021684	1.05336	1.029639	1.033571	1.046255	1.033871	1.025997	1.03988
14	1.058973	1.065223	1.050202	1.070667	1.059322	1.060537	1.068322	1.066131	1.050841	1.064052
15	1.077832	1.083938	1.076384	1.079842	1.087071	1.079101	1.089128	1.085375	1.068533	1.086828
16	1.101648	1.108032	1.103511	1.098411	1.108295	1.104679	1.119965	1.104862	1.095263	1.11007
17	1.114387	1.116146	1.111804	1.111592	1.112919	1.117284	1.122548	1.115668	1.111393	1.124017
18	1.12482	1.126183	1.114889	1.12983	1.122459	1.130137	1.125579	1.126913	1.130308	1.136699
19	1.139907	1.136476	1.130469	1.148503	1.138176	1.138416	1.143404	1.141614	1.14883	1.15517
20	1.148839	1.143562	1.146547	1.161003	1.147405	1.140432	1.159029	1.151041	1.150675	1.163559
21	1.163358	1.158573	1.15686	1.18231	1.165157	1.154858	1.170229	1.165343	1.159046	1.174652
22	1.167987	1.157564	1.162285	1.189752	1.170634	1.164947	1.179873	1.167484	1.159265	1.176759
23	1.177371	1.170087	1.17588	1.197268	1.17593	1.176001	1.190545	1.180704	1.174393	1.182969
24	1.185365	1.187864	1.180348	1.199522	1.189203	1.184215	1.190474	1.195779	1.184925	1.192015
25	1.1886	1.19299	1.180464	1.203811	1.197287	1.194336	1.1933	1.195851	1.189166	1.196513
26	1.187919	1.192417	1.182553	1.211519	1.198832	1.186971	1.190271	1.193495	1.194748	1.19445
27	1.18705	1.188393	1.190731	1.211346	1.199851	1.184616	1.190262	1.195135	1.193153	1.192493
28	1.183531	1.185614	1.193975	1.204006	1.198358	1.177956	1.185339	1.19643	1.190879	1.188585
29	1.193134	1.196012	1.199698	1.209834	1.208773	1.18482	1.197803	1.209185	1.198558	1.198342
30	1.194762	1.199667	1.201817	1.218859	1.212216	1.1893	1.203515	1.210088	1.201311	1.201481
31	1.195449	1.192886	1.206939	1.211035	1.209117	1.191168	1.205318	1.211621	1.204695	1.203766
32	1.20776	1.207595	1.216552	1.218791	1.221723	1.203631	1.215939	1.224609	1.219774	1.214378
33	1.205119	1.200352	1.21254	1.220723	1.214854	1.201295	1.215764	1.213334	1.21781	1.208982
34	1.199739	1.189026	1.204389	1.218728	1.209165	1.195913	1.207483	1.200636	1.203946	1.196334
35	1.21072	1.206059	1.212003	1.235372	1.218415	1.199376	1.220767	1.207696	1.214435	1.20579
36	1.205729	1.200643	1.206327	1.226209	1.217412	1.19106	1.214703	1.201537	1.207475	1.199878
37	1.201254	1.192552	1.197484	1.219288	1.214225	1.192329	1.203932	1.198901	1.20693	1.197358
38	1.200879	1.189998	1.194249	1.218969	1.215613	1.201426	1.199221	1.197825	1.211506	1.1929
39	1.200562	1.196294	1.193194	1.220958	1.209273	1.202445	1.208693	1.191592	1.214378	1.1933
40	1.195434	1.194168	1.183773	1.215301	1.202398	1.190761	1.202044	1.186236	1.197731	1.188039
41	1.180758	1.18543	1.174189	1.200109	1.182492	1.175099	1.177785	1.175782	1.17695	1.175475
42	1.16642	1.172559	1.163163	1.184857	1.167178	1.161837	1.162158	1.167567	1.16185	1.162344
43	1.160427	1.164507	1.152031	1.18151	1.160695	1.155936	1.158255	1.158196	1.157052	1.158603
44	1.154635	1.153541	1.147556	1.175782	1.155106	1.148206	1.154121	1.157704	1.154136	1.153703
45	1.158341	1.153596	1.155247	1.182465	1.158395	1.139187	1.155382	1.164279	1.164113	1.158844
46	1.151324	1.150861	1.145826	1.177998	1.148494	1.129536	1.151856	1.150806	1.161379	1.151688
47	1.140901	1.140114	1.135531	1.164514	1.137978	1.124894	1.142847	1.134654	1.147986	1.14486
48	1.139966	1.13652	1.136549	1.161271	1.138774	1.12439	1.143624	1.136463	1.149646	1.140223
49	1.141672	1.138477	1.138216	1.157927	1.140068	1.134549	1.146246	1.136633	1.152602	1.144449
50	1.140838	1.137042	1.140927	1.158903	1.137525	1.133983	1.140248	1.1361	1.150495	1.142186
51	1.137317	1.134196	1.144468	1.156639	1.129517	1.127906	1.131739	1.128302	1.137366	1.138155
52	1.139724	1.141934	1.146663	1.154391	1.12968	1.131409	1.132594	1.130207	1.140625	1.135116
53	1.146767	1.156597	1.148785	1.142513	1.143415	1.136197	1.139582	1.145126	1.139126	1.14449
54	1.14543	1.157597	1.146902	1.141597	1.139788	1.139526	1.14155	1.142631	1.135494	1.142323
55	1.145805	1.156775	1.152548	1.136843	1.13891	1.146399	1.14892	1.140253	1.135485	1.139584
56	1.144283	1.154562	1.151454	1.135809	1.135632	1.14343	1.149505	1.134804	1.13356	1.13854
57	1.140033	1.146776	1.142612	1.132711	1.134265	1.139743	1.139158	1.135625	1.136709	1.134839
58	1.125043	1.130182	1.117279	1.113906	1.126263	1.125246	1.125291	1.12526	1.129058	1.121314
59	1.115682	1.113952	1.111908	1.094269	1.117323	1.117757	1.107923	1.116378	1.11981	1.114001
60	1.116905	1.113334	1.116477	1.086672	1.119679	1.119436	1.103018	1.111479	1.111628	1.118184
61	1.123816	1.123259	1.12589	1.095367	1.128216	1.120257	1.106029	1.114568	1.117595	1.12634
62	1.126839	1.120156	1.125433	1.101309	1.127269	1.117579	1.104786	1.1175	1.129209	1.135107
63	1.119138	1.107293	1.121443	1.091365	1.117029	1.0993	1.091969	1.11336	1.124336	1.130708
64	1.101641	1.097305	1.117038	1.080731	1.101674	1.08463	1.076321	1.094614	1.1094	1.109989
65	1.081168	1.080011	1.102893	1.070115	1.082579	1.063898	1.066379	1.073069	1.092328	1.08479
66	1.065986	1.065806	1.076215	1.066123	1.06138	1.05533	1.064398	1.062203	1.078763	1.066286
67	1.057365	1.054461	1.065274	1.061477	1.05397	1.049235	1.055744	1.053715	1.060294	1.058103
68	1.053781	1.044652	1.057568	1.054424	1.048979	1.054419	1.050672	1.054428	1.057538	1.05739
69	1.063738	1.050189	1.063306	1.057656	1.054248	1.072672	1.057687	1.056734	1.067505	1.065853
70	1.063113	1.049936	1.056258	1.049936	1.051085	1.076152	1.057244	1.05013	1.070719	1.060714
71	1.062215	1.048504	1.05768	1.042384	1.045062	1.077693	1.058513	1.054264	1.067554	1.056591
72	1.056463	1.037385	1.054786	1.041317	1.039786	1.074929	1.052821	1.051662	1.056081	1.048174
73	1.039607	1.031536	1.03926	1.030545	1.02724	1.06112	1.036858	1.035637	1.042956	1.032986
74	1.037448	1.038292	1.034791	1.030112	1.027176	1.061929	1.038142	1.03272	1.046085	1.030076
75	1.031389	1.03473	1.028592	1.0127	1.024589	1.048934	1.035416	1.03057	1.031208	1.025747
76	1.025656	1.035469	1.024789	0.996584	1.022761	1.035072	1.024071	1.03132	1.0158	1.023043
77	1.017629	1.025888	1.017351	0.984989	1.017822	1.017995	1.016007	1.016925	1.01503	1.012918
78	1.013973	1.014539	1.016151	0.984075	1.011488	1.002153	1.015576	1.003817	1.017545	1.010158
79	1.013387	1.010116	1.01877	0.98013	1.010677	1.005316	1.01296	1.003674	1.016935	1.009292
80	1.00452	1.004003	1.014206	0.97263	0.998445	1.002209	1.010219	0.995344	1.001675	0.999853
81	0.99752	0.996337	1.005052	0.966558	0.99325	0.999432	1.002182	0.994647	1.000177	0.987905
82	0.992688	0.986691	0.994809	0.964011	0.991691	0.997764	0.99344	0.99145	1.00007	0.982237
83	0.988583	0.984886	0.975032	0.951544	0.994829	0.996385	0.979832	0.986432	0.997849	0.978699
84	0.988236	0.993523	0.969381	0.944219	1.008924	0.994153	0.973873	0.992572	0.981353	0.97591
85	0.969404	0.976036	0.96019	0.925199	0.993762	0.971673	0.957817	0.97957	0.950334	0.959429
86	0.931792	0.932999	0.941558	0.907758	0.948236	0.930656	0.927794	0.937134	0.913504	0.922274
87	0.90658	0.914445	0.923293	0.890416	0.917904	0.904526	0.911427	0.905591	0.898944	0.898979
88	0.899552	0.908584	0.918968	0.878814	0.900002	0.899274	0.909712	0.896796	0.897607	0.892139
89	0.889244	0.886727	0.909869	0.870779	0.886833	0.895485	0.892815	0.885698	0.889871	0.882757
90	0.869027	0.864757	0.882163	0.852044	0.868291	0.881069	0.867409	0.865064	0.873047	0.864307
91	0.851899	0.847527	0.851739	0.841722	0.849436	0.872403	0.849063	0.850366	0.852741	0.847227
92	0.835027	0.830042	0.832618	0.825015	0.82716	0.859499	0.836773	0.838599	0.840118	0.828062
93	0.808999	0.807594	0.808378	0.806646	0.802442	0.83388	0.815645	0.812131	0.806943	0.799444
94	0.777251	0.776647	0.778425	0.775813	0.765175	0.794659	0.787783	0.774296	0.771906	0.766556
95	0.739533	0.734148	0.73975	0.733971	0.730308	0.752294	0.748446	0.736264	0.73149	0.730413
96	0.695169	0.688113	0.695544	0.687245	0.68747	0.710102	0.702297	0.693324	0.686378	0.685852
97	0.630759	0.631587	0.628343	0.616519	0.62439	0.64814	0.633611	0.634736	0.617049	0.623989
98	0.516687	0.522896	0.517404	0.503147	0.51186	0.536061	0.518573	0.523071	0.504457	0.509201
99	0.337268	0.340742	0.339508	0.328706	0.336215	0.348759	0.336217	0.345755	0.332256	0.330261
100	0.135713	0.138674	0.134865	0.133335	0.134859	0.140368	0.133289	0.137255	0.133107	0.1329

