## htsjdk.samtools.metrics.StringHeader
# picard.analysis.CollectRnaSeqMetrics REF_FLAT=/ref/genomes/hg19/refFlat.txt.gz RIBOSOMAL_INTERVALS=/ref/genomes/hg19/hg19.rRNA.interval_list STRAND_SPECIFICITY=NONE METRIC_ACCUMULATION_LEVEL=[ALL_READS, READ_GROUP] INPUT=/data/dumitriu_rna_data/results/bamfiles/SRR2015781.bam OUTPUT=/data/dumitriu_rna_data/results/QC_postAln/SRR2015781_picardRNAmetrics.txt    MINIMUM_LENGTH=500 RRNA_FRAGMENT_PERCENTAGE=0.8 ASSUME_SORTED=true STOP_AFTER=0 VERBOSITY=INFO QUIET=false VALIDATION_STRINGENCY=STRICT COMPRESSION_LEVEL=5 MAX_RECORDS_IN_RAM=500000 CREATE_INDEX=false CREATE_MD5_FILE=false GA4GH_CLIENT_SECRETS=client_secrets.json
## htsjdk.samtools.metrics.StringHeader
# Started on: Wed May 30 10:12:19 CEST 2018

## METRICS CLASS	picard.analysis.RnaSeqMetrics
PF_BASES	PF_ALIGNED_BASES	RIBOSOMAL_BASES	CODING_BASES	UTR_BASES	INTRONIC_BASES	INTERGENIC_BASES	IGNORED_READS	CORRECT_STRAND_READS	INCORRECT_STRAND_READS	PCT_RIBOSOMAL_BASES	PCT_CODING_BASES	PCT_UTR_BASES	PCT_INTRONIC_BASES	PCT_INTERGENIC_BASES	PCT_MRNA_BASES	PCT_USABLE_BASES	PCT_CORRECT_STRAND_READS	MEDIAN_CV_COVERAGE	MEDIAN_5PRIME_BIAS	MEDIAN_3PRIME_BIAS	MEDIAN_5PRIME_TO_3PRIME_BIAS	SAMPLE	LIBRARY	READ_GROUP
7608216063	7427200104	3781	1488071439	3781595483	476602857	1680926594	0	0	0	0.000001	0.200354	0.509155	0.06417	0.22632	0.709509	0.692628	0	0.864598	0.019156	0.729367	0.03138			
7608216063	7427200104	3781	1488071439	3781595483	476602857	1680926594	0	0	0	0.000001	0.200354	0.509155	0.06417	0.22632	0.709509	0.692628	0	0.864598	0.019156	0.729367	0.03138	SRR2015781	LIB-SRR2015781	DUMITRIU.s1.81

## HISTOGRAM	java.lang.Integer
normalized_position	All_Reads.normalized_coverage	DUMITRIU.s1.81.normalized_coverage
0	0.01067	0.01067
1	0.014725	0.014725
2	0.028619	0.028619
3	0.055797	0.055797
4	0.085277	0.085277
5	0.114821	0.114821
6	0.145243	0.145243
7	0.17399	0.17399
8	0.207362	0.207362
9	0.245771	0.245771
10	0.278138	0.278138
11	0.314394	0.314394
12	0.344355	0.344355
13	0.372641	0.372641
14	0.39651	0.39651
15	0.417592	0.417592
16	0.433546	0.433546
17	0.444786	0.444786
18	0.460044	0.460044
19	0.477776	0.477776
20	0.494429	0.494429
21	0.51009	0.51009
22	0.5214	0.5214
23	0.539657	0.539657
24	0.557297	0.557297
25	0.572393	0.572393
26	0.586945	0.586945
27	0.598615	0.598615
28	0.615806	0.615806
29	0.637681	0.637681
30	0.651861	0.651861
31	0.666812	0.666812
32	0.685423	0.685423
33	0.701229	0.701229
34	0.719087	0.719087
35	0.733417	0.733417
36	0.748188	0.748188
37	0.759495	0.759495
38	0.775933	0.775933
39	0.795004	0.795004
40	0.808569	0.808569
41	0.820876	0.820876
42	0.834296	0.834296
43	0.854976	0.854976
44	0.876157	0.876157
45	0.897104	0.897104
46	0.90867	0.90867
47	0.926356	0.926356
48	0.942775	0.942775
49	0.951302	0.951302
50	0.960672	0.960672
51	0.975823	0.975823
52	0.988861	0.988861
53	1.007789	1.007789
54	1.025719	1.025719
55	1.04707	1.04707
56	1.066879	1.066879
57	1.084898	1.084898
58	1.101167	1.101167
59	1.115912	1.115912
60	1.136	1.136
61	1.160678	1.160678
62	1.183485	1.183485
63	1.203205	1.203205
64	1.226414	1.226414
65	1.250519	1.250519
66	1.277926	1.277926
67	1.305839	1.305839
68	1.332507	1.332507
69	1.352427	1.352427
70	1.375425	1.375425
71	1.402018	1.402018
72	1.42774	1.42774
73	1.466432	1.466432
74	1.508878	1.508878
75	1.551644	1.551644
76	1.587755	1.587755
77	1.623217	1.623217
78	1.662831	1.662831
79	1.701396	1.701396
80	1.737149	1.737149
81	1.78248	1.78248
82	1.823432	1.823432
83	1.854184	1.854184
84	1.882825	1.882825
85	1.915717	1.915717
86	1.948979	1.948979
87	1.984132	1.984132
88	2.024726	2.024726
89	2.058569	2.058569
90	2.072998	2.072998
91	2.076426	2.076426
92	2.049202	2.049202
93	2.003322	2.003322
94	1.916774	1.916774
95	1.790452	1.790452
96	1.584216	1.584216
97	1.292557	1.292557
98	0.906431	0.906431
99	0.468784	0.468784
100	0.150759	0.150759

