## htsjdk.samtools.metrics.StringHeader
# picard.analysis.CollectRnaSeqMetrics REF_FLAT=/ref/genomes/hg19/refFlat.txt.gz RIBOSOMAL_INTERVALS=/ref/genomes/hg19/hg19.rRNA.interval_list STRAND_SPECIFICITY=NONE METRIC_ACCUMULATION_LEVEL=[ALL_READS, READ_GROUP] INPUT=/data/dumitriu_rna_data/results/bamfiles/SRR2015776.bam OUTPUT=/data/dumitriu_rna_data/results/QC_postAln/SRR2015776_picardRNAmetrics.txt    MINIMUM_LENGTH=500 RRNA_FRAGMENT_PERCENTAGE=0.8 ASSUME_SORTED=true STOP_AFTER=0 VERBOSITY=INFO QUIET=false VALIDATION_STRINGENCY=STRICT COMPRESSION_LEVEL=5 MAX_RECORDS_IN_RAM=500000 CREATE_INDEX=false CREATE_MD5_FILE=false GA4GH_CLIENT_SECRETS=client_secrets.json
## htsjdk.samtools.metrics.StringHeader
# Started on: Wed May 30 00:53:39 CEST 2018

## METRICS CLASS	picard.analysis.RnaSeqMetrics
PF_BASES	PF_ALIGNED_BASES	RIBOSOMAL_BASES	CODING_BASES	UTR_BASES	INTRONIC_BASES	INTERGENIC_BASES	IGNORED_READS	CORRECT_STRAND_READS	INCORRECT_STRAND_READS	PCT_RIBOSOMAL_BASES	PCT_CODING_BASES	PCT_UTR_BASES	PCT_INTRONIC_BASES	PCT_INTERGENIC_BASES	PCT_MRNA_BASES	PCT_USABLE_BASES	PCT_CORRECT_STRAND_READS	MEDIAN_CV_COVERAGE	MEDIAN_5PRIME_BIAS	MEDIAN_3PRIME_BIAS	MEDIAN_5PRIME_TO_3PRIME_BIAS	SAMPLE	LIBRARY	READ_GROUP
1747808508	1698848015	11802	520919755	719997219	161394611	296525050	0	0	0	0.000007	0.306631	0.423815	0.095002	0.174545	0.730446	0.709985	0	0.616729	0.068003	0.430643	0.179703			
1747808508	1698848015	11802	520919755	719997219	161394611	296525050	0	0	0	0.000007	0.306631	0.423815	0.095002	0.174545	0.730446	0.709985	0	0.616729	0.068003	0.430643	0.179703	SRR2015776	LIB-SRR2015776	DUMITRIU.s1.76

## HISTOGRAM	java.lang.Integer
normalized_position	All_Reads.normalized_coverage	DUMITRIU.s1.76.normalized_coverage
0	0.028079	0.028079
1	0.046154	0.046154
2	0.089061	0.089061
3	0.16251	0.16251
4	0.227967	0.227967
5	0.289097	0.289097
6	0.348029	0.348029
7	0.401743	0.401743
8	0.460266	0.460266
9	0.517666	0.517666
10	0.561075	0.561075
11	0.601664	0.601664
12	0.638773	0.638773
13	0.670081	0.670081
14	0.692148	0.692148
15	0.717285	0.717285
16	0.735405	0.735405
17	0.742564	0.742564
18	0.751375	0.751375
19	0.76574	0.76574
20	0.780516	0.780516
21	0.792796	0.792796
22	0.813908	0.813908
23	0.834402	0.834402
24	0.853196	0.853196
25	0.865772	0.865772
26	0.874301	0.874301
27	0.878783	0.878783
28	0.88862	0.88862
29	0.900195	0.900195
30	0.911063	0.911063
31	0.926658	0.926658
32	0.943312	0.943312
33	0.955965	0.955965
34	0.965947	0.965947
35	0.974599	0.974599
36	0.984705	0.984705
37	0.989637	0.989637
38	0.996187	0.996187
39	1.006895	1.006895
40	1.020983	1.020983
41	1.030685	1.030685
42	1.034327	1.034327
43	1.041148	1.041148
44	1.05645	1.05645
45	1.070496	1.070496
46	1.078774	1.078774
47	1.090968	1.090968
48	1.102959	1.102959
49	1.116948	1.116948
50	1.126117	1.126117
51	1.143399	1.143399
52	1.157692	1.157692
53	1.173724	1.173724
54	1.184837	1.184837
55	1.194566	1.194566
56	1.200841	1.200841
57	1.204828	1.204828
58	1.210743	1.210743
59	1.213451	1.213451
60	1.215861	1.215861
61	1.216886	1.216886
62	1.226362	1.226362
63	1.226573	1.226573
64	1.236619	1.236619
65	1.253624	1.253624
66	1.265041	1.265041
67	1.28	1.28
68	1.290272	1.290272
69	1.296742	1.296742
70	1.30552	1.30552
71	1.310416	1.310416
72	1.31615	1.31615
73	1.333573	1.333573
74	1.351085	1.351085
75	1.368523	1.368523
76	1.382361	1.382361
77	1.38618	1.38618
78	1.386566	1.386566
79	1.389652	1.389652
80	1.407056	1.407056
81	1.419847	1.419847
82	1.420426	1.420426
83	1.417262	1.417262
84	1.409005	1.409005
85	1.399247	1.399247
86	1.397104	1.397104
87	1.408468	1.408468
88	1.427997	1.427997
89	1.409874	1.409874
90	1.379287	1.379287
91	1.340795	1.340795
92	1.282304	1.282304
93	1.223054	1.223054
94	1.159424	1.159424
95	1.069722	1.069722
96	0.937289	0.937289
97	0.745222	0.745222
98	0.490775	0.490775
99	0.226325	0.226325
100	0.068684	0.068684

