## htsjdk.samtools.metrics.StringHeader
# picard.analysis.CollectRnaSeqMetrics REF_FLAT=/ref/genomes/hg19/refFlat.txt.gz RIBOSOMAL_INTERVALS=/ref/genomes/hg19/hg19.rRNA.interval_list STRAND_SPECIFICITY=NONE METRIC_ACCUMULATION_LEVEL=[ALL_READS, READ_GROUP] INPUT=/data/dumitriu_rna_data/results/bamfiles/SRR2015717.bam OUTPUT=/data/dumitriu_rna_data/results/QC_postAln/SRR2015717_picardRNAmetrics.txt    MINIMUM_LENGTH=500 RRNA_FRAGMENT_PERCENTAGE=0.8 ASSUME_SORTED=true STOP_AFTER=0 VERBOSITY=INFO QUIET=false VALIDATION_STRINGENCY=STRICT COMPRESSION_LEVEL=5 MAX_RECORDS_IN_RAM=500000 CREATE_INDEX=false CREATE_MD5_FILE=false GA4GH_CLIENT_SECRETS=client_secrets.json
## htsjdk.samtools.metrics.StringHeader
# Started on: Wed May 30 01:54:14 CEST 2018

## METRICS CLASS	picard.analysis.RnaSeqMetrics
PF_BASES	PF_ALIGNED_BASES	RIBOSOMAL_BASES	CODING_BASES	UTR_BASES	INTRONIC_BASES	INTERGENIC_BASES	IGNORED_READS	CORRECT_STRAND_READS	INCORRECT_STRAND_READS	PCT_RIBOSOMAL_BASES	PCT_CODING_BASES	PCT_UTR_BASES	PCT_INTRONIC_BASES	PCT_INTERGENIC_BASES	PCT_MRNA_BASES	PCT_USABLE_BASES	PCT_CORRECT_STRAND_READS	MEDIAN_CV_COVERAGE	MEDIAN_5PRIME_BIAS	MEDIAN_3PRIME_BIAS	MEDIAN_5PRIME_TO_3PRIME_BIAS	SAMPLE	LIBRARY	READ_GROUP
6235550186	6072952879	16266	1857355794	2591240063	566006102	1058335495	0	0	0	0.000003	0.305841	0.426685	0.093201	0.17427	0.732526	0.713425	0	0.530232	0.063458	0.358907	0.211713			
6235550186	6072952879	16266	1857355794	2591240063	566006102	1058335495	0	0	0	0.000003	0.305841	0.426685	0.093201	0.17427	0.732526	0.713425	0	0.530232	0.063458	0.358907	0.211713	SRR2015717	LIB-SRR2015717	DUMITRIU.s1.17

## HISTOGRAM	java.lang.Integer
normalized_position	All_Reads.normalized_coverage	DUMITRIU.s1.17.normalized_coverage
0	0.02544	0.02544
1	0.042029	0.042029
2	0.084939	0.084939
3	0.151673	0.151673
4	0.218769	0.218769
5	0.290169	0.290169
6	0.352608	0.352608
7	0.413511	0.413511
8	0.478603	0.478603
9	0.536272	0.536272
10	0.581762	0.581762
11	0.627095	0.627095
12	0.667634	0.667634
13	0.701611	0.701611
14	0.730592	0.730592
15	0.758296	0.758296
16	0.784312	0.784312
17	0.810711	0.810711
18	0.832059	0.832059
19	0.852252	0.852252
20	0.865863	0.865863
21	0.874672	0.874672
22	0.885009	0.885009
23	0.901108	0.901108
24	0.919162	0.919162
25	0.936011	0.936011
26	0.954326	0.954326
27	0.961583	0.961583
28	0.971076	0.971076
29	0.985244	0.985244
30	1.001555	1.001555
31	1.013422	1.013422
32	1.025242	1.025242
33	1.029673	1.029673
34	1.038875	1.038875
35	1.050053	1.050053
36	1.054848	1.054848
37	1.061481	1.061481
38	1.071401	1.071401
39	1.079514	1.079514
40	1.088329	1.088329
41	1.093216	1.093216
42	1.100157	1.100157
43	1.109019	1.109019
44	1.120972	1.120972
45	1.131137	1.131137
46	1.136652	1.136652
47	1.149968	1.149968
48	1.164307	1.164307
49	1.173306	1.173306
50	1.180788	1.180788
51	1.184966	1.184966
52	1.1868	1.1868
53	1.203289	1.203289
54	1.213873	1.213873
55	1.223095	1.223095
56	1.232625	1.232625
57	1.232312	1.232312
58	1.234794	1.234794
59	1.240896	1.240896
60	1.246452	1.246452
61	1.251298	1.251298
62	1.254986	1.254986
63	1.260553	1.260553
64	1.270197	1.270197
65	1.280123	1.280123
66	1.287825	1.287825
67	1.297273	1.297273
68	1.306727	1.306727
69	1.314647	1.314647
70	1.320191	1.320191
71	1.321544	1.321544
72	1.319596	1.319596
73	1.325173	1.325173
74	1.325394	1.325394
75	1.334328	1.334328
76	1.345112	1.345112
77	1.344786	1.344786
78	1.337284	1.337284
79	1.337439	1.337439
80	1.338302	1.338302
81	1.337266	1.337266
82	1.331817	1.331817
83	1.31487	1.31487
84	1.293992	1.293992
85	1.276839	1.276839
86	1.25193	1.25193
87	1.238652	1.238652
88	1.24337	1.24337
89	1.221283	1.221283
90	1.182288	1.182288
91	1.149966	1.149966
92	1.096898	1.096898
93	1.029173	1.029173
94	0.941984	0.941984
95	0.842384	0.842384
96	0.726495	0.726495
97	0.572455	0.572455
98	0.377961	0.377961
99	0.174692	0.174692
100	0.058304	0.058304

