## htsjdk.samtools.metrics.StringHeader
# picard.analysis.CollectRnaSeqMetrics REF_FLAT=/ref/genomes/hg19/refFlat.txt.gz RIBOSOMAL_INTERVALS=/ref/genomes/hg19/hg19.rRNA.interval_list STRAND_SPECIFICITY=NONE METRIC_ACCUMULATION_LEVEL=[ALL_READS, READ_GROUP] INPUT=/data/dumitriu_rna_data/results/bamfiles/SRR2015752.bam OUTPUT=/data/dumitriu_rna_data/results/QC_postAln/SRR2015752_picardRNAmetrics.txt    MINIMUM_LENGTH=500 RRNA_FRAGMENT_PERCENTAGE=0.8 ASSUME_SORTED=true STOP_AFTER=0 VERBOSITY=INFO QUIET=false VALIDATION_STRINGENCY=STRICT COMPRESSION_LEVEL=5 MAX_RECORDS_IN_RAM=500000 CREATE_INDEX=false CREATE_MD5_FILE=false GA4GH_CLIENT_SECRETS=client_secrets.json
## htsjdk.samtools.metrics.StringHeader
# Started on: Tue May 29 21:29:47 CEST 2018

## METRICS CLASS	picard.analysis.RnaSeqMetrics
PF_BASES	PF_ALIGNED_BASES	RIBOSOMAL_BASES	CODING_BASES	UTR_BASES	INTRONIC_BASES	INTERGENIC_BASES	IGNORED_READS	CORRECT_STRAND_READS	INCORRECT_STRAND_READS	PCT_RIBOSOMAL_BASES	PCT_CODING_BASES	PCT_UTR_BASES	PCT_INTRONIC_BASES	PCT_INTERGENIC_BASES	PCT_MRNA_BASES	PCT_USABLE_BASES	PCT_CORRECT_STRAND_READS	MEDIAN_CV_COVERAGE	MEDIAN_5PRIME_BIAS	MEDIAN_3PRIME_BIAS	MEDIAN_5PRIME_TO_3PRIME_BIAS	SAMPLE	LIBRARY	READ_GROUP
8409863500	8231002145	1412	2784861255	3765444472	465414198	1215280859	0	0	0	0	0.338338	0.457471	0.056544	0.147647	0.795809	0.778884	0	0.51362	0.04639	0.330331	0.173282			
8409863500	8231002145	1412	2784861255	3765444472	465414198	1215280859	0	0	0	0	0.338338	0.457471	0.056544	0.147647	0.795809	0.778884	0	0.51362	0.04639	0.330331	0.173282	SRR2015752	LIB-SRR2015752	DUMITRIU.s1.52

## HISTOGRAM	java.lang.Integer
normalized_position	All_Reads.normalized_coverage	DUMITRIU.s1.52.normalized_coverage
0	0.023465	0.023465
1	0.038891	0.038891
2	0.078737	0.078737
3	0.141627	0.141627
4	0.207957	0.207957
5	0.279322	0.279322
6	0.337882	0.337882
7	0.39922	0.39922
8	0.460159	0.460159
9	0.517588	0.517588
10	0.568877	0.568877
11	0.620659	0.620659
12	0.667011	0.667011
13	0.70718	0.70718
14	0.741261	0.741261
15	0.775653	0.775653
16	0.804656	0.804656
17	0.834848	0.834848
18	0.863667	0.863667
19	0.887207	0.887207
20	0.903028	0.903028
21	0.920083	0.920083
22	0.935341	0.935341
23	0.95177	0.95177
24	0.966313	0.966313
25	0.978298	0.978298
26	0.994761	0.994761
27	1.001204	1.001204
28	1.015109	1.015109
29	1.032518	1.032518
30	1.049762	1.049762
31	1.066687	1.066687
32	1.083029	1.083029
33	1.091815	1.091815
34	1.101465	1.101465
35	1.112836	1.112836
36	1.113944	1.113944
37	1.119036	1.119036
38	1.128858	1.128858
39	1.135709	1.135709
40	1.145054	1.145054
41	1.153714	1.153714
42	1.161077	1.161077
43	1.168296	1.168296
44	1.174873	1.174873
45	1.178819	1.178819
46	1.183537	1.183537
47	1.195683	1.195683
48	1.207988	1.207988
49	1.213332	1.213332
50	1.215666	1.215666
51	1.2154	1.2154
52	1.222325	1.222325
53	1.230097	1.230097
54	1.237712	1.237712
55	1.239833	1.239833
56	1.245466	1.245466
57	1.250044	1.250044
58	1.251266	1.251266
59	1.25059	1.25059
60	1.254966	1.254966
61	1.258884	1.258884
62	1.2656	1.2656
63	1.271228	1.271228
64	1.271585	1.271585
65	1.273188	1.273188
66	1.273712	1.273712
67	1.278337	1.278337
68	1.2785	1.2785
69	1.278644	1.278644
70	1.281523	1.281523
71	1.282103	1.282103
72	1.278858	1.278858
73	1.277658	1.277658
74	1.277796	1.277796
75	1.27619	1.27619
76	1.278783	1.278783
77	1.27499	1.27499
78	1.273225	1.273225
79	1.274512	1.274512
80	1.27145	1.27145
81	1.267531	1.267531
82	1.25832	1.25832
83	1.241899	1.241899
84	1.22663	1.22663
85	1.211261	1.211261
86	1.197449	1.197449
87	1.179961	1.179961
88	1.163009	1.163009
89	1.139017	1.139017
90	1.108996	1.108996
91	1.0696	1.0696
92	1.021249	1.021249
93	0.964876	0.964876
94	0.883236	0.883236
95	0.78601	0.78601
96	0.670562	0.670562
97	0.530179	0.530179
98	0.366581	0.366581
99	0.192497	0.192497
100	0.076661	0.076661

