## htsjdk.samtools.metrics.StringHeader
# picard.analysis.CollectRnaSeqMetrics REF_FLAT=/ref/genomes/hg19/refFlat.txt.gz RIBOSOMAL_INTERVALS=/ref/genomes/hg19/hg19.rRNA.interval_list STRAND_SPECIFICITY=NONE METRIC_ACCUMULATION_LEVEL=[ALL_READS, READ_GROUP] INPUT=/data/dumitriu_rna_data/results/bamfiles/SRR2015714.bam OUTPUT=/data/dumitriu_rna_data/results/QC_postAln/SRR2015714_picardRNAmetrics.txt    MINIMUM_LENGTH=500 RRNA_FRAGMENT_PERCENTAGE=0.8 ASSUME_SORTED=true STOP_AFTER=0 VERBOSITY=INFO QUIET=false VALIDATION_STRINGENCY=STRICT COMPRESSION_LEVEL=5 MAX_RECORDS_IN_RAM=500000 CREATE_INDEX=false CREATE_MD5_FILE=false GA4GH_CLIENT_SECRETS=client_secrets.json
## htsjdk.samtools.metrics.StringHeader
# Started on: Wed May 30 08:52:53 CEST 2018

## METRICS CLASS	picard.analysis.RnaSeqMetrics
PF_BASES	PF_ALIGNED_BASES	RIBOSOMAL_BASES	CODING_BASES	UTR_BASES	INTRONIC_BASES	INTERGENIC_BASES	IGNORED_READS	CORRECT_STRAND_READS	INCORRECT_STRAND_READS	PCT_RIBOSOMAL_BASES	PCT_CODING_BASES	PCT_UTR_BASES	PCT_INTRONIC_BASES	PCT_INTERGENIC_BASES	PCT_MRNA_BASES	PCT_USABLE_BASES	PCT_CORRECT_STRAND_READS	MEDIAN_CV_COVERAGE	MEDIAN_5PRIME_BIAS	MEDIAN_3PRIME_BIAS	MEDIAN_5PRIME_TO_3PRIME_BIAS	SAMPLE	LIBRARY	READ_GROUP
3555505374	3452721331	17755	976141162	1424971559	441497559	610093629	0	0	0	0.000005	0.282716	0.41271	0.127869	0.176699	0.695426	0.675322	0	0.616963	0.057909	0.430017	0.153117			
3555505374	3452721331	17755	976141162	1424971559	441497559	610093629	0	0	0	0.000005	0.282716	0.41271	0.127869	0.176699	0.695426	0.675322	0	0.616963	0.057909	0.430017	0.153117	SRR2015714	LIB-SRR2015714	DUMITRIU.s1.14

## HISTOGRAM	java.lang.Integer
normalized_position	All_Reads.normalized_coverage	DUMITRIU.s1.14.normalized_coverage
0	0.025759	0.025759
1	0.040709	0.040709
2	0.076352	0.076352
3	0.132927	0.132927
4	0.190235	0.190235
5	0.249961	0.249961
6	0.303495	0.303495
7	0.356562	0.356562
8	0.406817	0.406817
9	0.457281	0.457281
10	0.499324	0.499324
11	0.539957	0.539957
12	0.574169	0.574169
13	0.604745	0.604745
14	0.629375	0.629375
15	0.65312	0.65312
16	0.674628	0.674628
17	0.698015	0.698015
18	0.713389	0.713389
19	0.730415	0.730415
20	0.746705	0.746705
21	0.758559	0.758559
22	0.777725	0.777725
23	0.792061	0.792061
24	0.803944	0.803944
25	0.81601	0.81601
26	0.829311	0.829311
27	0.835683	0.835683
28	0.850191	0.850191
29	0.871116	0.871116
30	0.886015	0.886015
31	0.900161	0.900161
32	0.918141	0.918141
33	0.926339	0.926339
34	0.933711	0.933711
35	0.942242	0.942242
36	0.956585	0.956585
37	0.967882	0.967882
38	0.976092	0.976092
39	0.98975	0.98975
40	1.00157	1.00157
41	1.011129	1.011129
42	1.021477	1.021477
43	1.031307	1.031307
44	1.046111	1.046111
45	1.063495	1.063495
46	1.076403	1.076403
47	1.093274	1.093274
48	1.108168	1.108168
49	1.121261	1.121261
50	1.132584	1.132584
51	1.141434	1.141434
52	1.146702	1.146702
53	1.161641	1.161641
54	1.169523	1.169523
55	1.182689	1.182689
56	1.192247	1.192247
57	1.200102	1.200102
58	1.209853	1.209853
59	1.213748	1.213748
60	1.215151	1.215151
61	1.22687	1.22687
62	1.248137	1.248137
63	1.256496	1.256496
64	1.269096	1.269096
65	1.286671	1.286671
66	1.307323	1.307323
67	1.320513	1.320513
68	1.333881	1.333881
69	1.345963	1.345963
70	1.360723	1.360723
71	1.375085	1.375085
72	1.380506	1.380506
73	1.394434	1.394434
74	1.400356	1.400356
75	1.409383	1.409383
76	1.420422	1.420422
77	1.426994	1.426994
78	1.434641	1.434641
79	1.44262	1.44262
80	1.458966	1.458966
81	1.475892	1.475892
82	1.481498	1.481498
83	1.484661	1.484661
84	1.475021	1.475021
85	1.463782	1.463782
86	1.456492	1.456492
87	1.456333	1.456333
88	1.466684	1.466684
89	1.451951	1.451951
90	1.421866	1.421866
91	1.391071	1.391071
92	1.338668	1.338668
93	1.272082	1.272082
94	1.195897	1.195897
95	1.090286	1.090286
96	0.953163	0.953163
97	0.754795	0.754795
98	0.500772	0.500772
99	0.234442	0.234442
100	0.073123	0.073123

