## htsjdk.samtools.metrics.StringHeader
# picard.analysis.CollectRnaSeqMetrics REF_FLAT=/ref/genomes/hg19/refFlat.txt.gz RIBOSOMAL_INTERVALS=/ref/genomes/hg19/hg19.rRNA.interval_list STRAND_SPECIFICITY=NONE METRIC_ACCUMULATION_LEVEL=[ALL_READS, READ_GROUP] INPUT=/data/dumitriu_rna_data/results/bamfiles/SRR2015767.bam OUTPUT=/data/dumitriu_rna_data/results/QC_postAln/SRR2015767_picardRNAmetrics.txt    MINIMUM_LENGTH=500 RRNA_FRAGMENT_PERCENTAGE=0.8 ASSUME_SORTED=true STOP_AFTER=0 VERBOSITY=INFO QUIET=false VALIDATION_STRINGENCY=STRICT COMPRESSION_LEVEL=5 MAX_RECORDS_IN_RAM=500000 CREATE_INDEX=false CREATE_MD5_FILE=false GA4GH_CLIENT_SECRETS=client_secrets.json
## htsjdk.samtools.metrics.StringHeader
# Started on: Tue May 29 20:07:41 CEST 2018

## METRICS CLASS	picard.analysis.RnaSeqMetrics
PF_BASES	PF_ALIGNED_BASES	RIBOSOMAL_BASES	CODING_BASES	UTR_BASES	INTRONIC_BASES	INTERGENIC_BASES	IGNORED_READS	CORRECT_STRAND_READS	INCORRECT_STRAND_READS	PCT_RIBOSOMAL_BASES	PCT_CODING_BASES	PCT_UTR_BASES	PCT_INTRONIC_BASES	PCT_INTERGENIC_BASES	PCT_MRNA_BASES	PCT_USABLE_BASES	PCT_CORRECT_STRAND_READS	MEDIAN_CV_COVERAGE	MEDIAN_5PRIME_BIAS	MEDIAN_3PRIME_BIAS	MEDIAN_5PRIME_TO_3PRIME_BIAS	SAMPLE	LIBRARY	READ_GROUP
4732228845	4606163938	15221	1518154072	1975090860	561930404	550973499	0	0	0	0.000003	0.329592	0.428793	0.121995	0.119617	0.758385	0.738182	0	0.587725	0.061991	0.41946	0.170757			
4732228845	4606163938	15221	1518154072	1975090860	561930404	550973499	0	0	0	0.000003	0.329592	0.428793	0.121995	0.119617	0.758385	0.738182	0	0.587725	0.061991	0.41946	0.170757	SRR2015767	LIB-SRR2015767	DUMITRIU.s1.67

## HISTOGRAM	java.lang.Integer
normalized_position	All_Reads.normalized_coverage	DUMITRIU.s1.67.normalized_coverage
0	0.02733	0.02733
1	0.041848	0.041848
2	0.080469	0.080469
3	0.149529	0.149529
4	0.217776	0.217776
5	0.286727	0.286727
6	0.34978	0.34978
7	0.407984	0.407984
8	0.465196	0.465196
9	0.522571	0.522571
10	0.570489	0.570489
11	0.614635	0.614635
12	0.648123	0.648123
13	0.679575	0.679575
14	0.702326	0.702326
15	0.726973	0.726973
16	0.747419	0.747419
17	0.757385	0.757385
18	0.768545	0.768545
19	0.790116	0.790116
20	0.807192	0.807192
21	0.815914	0.815914
22	0.839252	0.839252
23	0.858499	0.858499
24	0.87505	0.87505
25	0.888206	0.888206
26	0.902531	0.902531
27	0.911602	0.911602
28	0.92156	0.92156
29	0.931492	0.931492
30	0.944123	0.944123
31	0.960187	0.960187
32	0.9717	0.9717
33	0.97616	0.97616
34	0.983001	0.983001
35	0.993443	0.993443
36	1.003449	1.003449
37	1.01104	1.01104
38	1.028785	1.028785
39	1.049866	1.049866
40	1.059419	1.059419
41	1.068282	1.068282
42	1.080362	1.080362
43	1.091703	1.091703
44	1.102144	1.102144
45	1.113477	1.113477
46	1.122964	1.122964
47	1.135619	1.135619
48	1.14696	1.14696
49	1.155468	1.155468
50	1.163152	1.163152
51	1.166047	1.166047
52	1.16794	1.16794
53	1.168954	1.168954
54	1.171017	1.171017
55	1.178459	1.178459
56	1.187591	1.187591
57	1.191419	1.191419
58	1.194724	1.194724
59	1.200668	1.200668
60	1.206891	1.206891
61	1.214695	1.214695
62	1.227278	1.227278
63	1.232887	1.232887
64	1.24149	1.24149
65	1.25864	1.25864
66	1.273339	1.273339
67	1.277266	1.277266
68	1.282584	1.282584
69	1.282618	1.282618
70	1.290926	1.290926
71	1.296381	1.296381
72	1.299161	1.299161
73	1.312585	1.312585
74	1.325237	1.325237
75	1.338462	1.338462
76	1.347036	1.347036
77	1.347625	1.347625
78	1.365298	1.365298
79	1.376837	1.376837
80	1.385083	1.385083
81	1.391252	1.391252
82	1.388319	1.388319
83	1.398721	1.398721
84	1.401036	1.401036
85	1.39388	1.39388
86	1.387903	1.387903
87	1.374961	1.374961
88	1.360317	1.360317
89	1.337612	1.337612
90	1.307786	1.307786
91	1.274371	1.274371
92	1.232827	1.232827
93	1.179406	1.179406
94	1.10873	1.10873
95	1.006072	1.006072
96	0.866607	0.866607
97	0.679589	0.679589
98	0.452079	0.452079
99	0.219776	0.219776
100	0.080601	0.080601

