## htsjdk.samtools.metrics.StringHeader
# picard.analysis.CollectRnaSeqMetrics REF_FLAT=/ref/genomes/hg19/refFlat.txt.gz RIBOSOMAL_INTERVALS=/ref/genomes/hg19/hg19.rRNA.interval_list STRAND_SPECIFICITY=NONE METRIC_ACCUMULATION_LEVEL=[ALL_READS, READ_GROUP] INPUT=/data/dumitriu_rna_data/results/bamfiles/SRR2015772.bam OUTPUT=/data/dumitriu_rna_data/results/QC_postAln/SRR2015772_picardRNAmetrics.txt    MINIMUM_LENGTH=500 RRNA_FRAGMENT_PERCENTAGE=0.8 ASSUME_SORTED=true STOP_AFTER=0 VERBOSITY=INFO QUIET=false VALIDATION_STRINGENCY=STRICT COMPRESSION_LEVEL=5 MAX_RECORDS_IN_RAM=500000 CREATE_INDEX=false CREATE_MD5_FILE=false GA4GH_CLIENT_SECRETS=client_secrets.json
## htsjdk.samtools.metrics.StringHeader
# Started on: Tue May 29 21:13:40 CEST 2018

## METRICS CLASS	picard.analysis.RnaSeqMetrics
PF_BASES	PF_ALIGNED_BASES	RIBOSOMAL_BASES	CODING_BASES	UTR_BASES	INTRONIC_BASES	INTERGENIC_BASES	IGNORED_READS	CORRECT_STRAND_READS	INCORRECT_STRAND_READS	PCT_RIBOSOMAL_BASES	PCT_CODING_BASES	PCT_UTR_BASES	PCT_INTRONIC_BASES	PCT_INTERGENIC_BASES	PCT_MRNA_BASES	PCT_USABLE_BASES	PCT_CORRECT_STRAND_READS	MEDIAN_CV_COVERAGE	MEDIAN_5PRIME_BIAS	MEDIAN_3PRIME_BIAS	MEDIAN_5PRIME_TO_3PRIME_BIAS	SAMPLE	LIBRARY	READ_GROUP
6469385525	6293375967	30719	1726653571	2662964369	471466088	1432262058	0	0	0	0.000005	0.27436	0.423138	0.074915	0.227582	0.697498	0.678522	0	0.617088	0.060333	0.460245	0.154747			
6469385525	6293375967	30719	1726653571	2662964369	471466088	1432262058	0	0	0	0.000005	0.27436	0.423138	0.074915	0.227582	0.697498	0.678522	0	0.617088	0.060333	0.460245	0.154747	SRR2015772	LIB-SRR2015772	DUMITRIU.s1.72

## HISTOGRAM	java.lang.Integer
normalized_position	All_Reads.normalized_coverage	DUMITRIU.s1.72.normalized_coverage
0	0.022698	0.022698
1	0.036205	0.036205
2	0.072254	0.072254
3	0.131009	0.131009
4	0.191211	0.191211
5	0.254803	0.254803
6	0.31485	0.31485
7	0.371533	0.371533
8	0.428174	0.428174
9	0.483494	0.483494
10	0.528796	0.528796
11	0.567196	0.567196
12	0.600505	0.600505
13	0.631635	0.631635
14	0.659301	0.659301
15	0.685644	0.685644
16	0.710746	0.710746
17	0.733683	0.733683
18	0.752009	0.752009
19	0.773371	0.773371
20	0.796644	0.796644
21	0.808238	0.808238
22	0.817092	0.817092
23	0.829408	0.829408
24	0.841682	0.841682
25	0.857006	0.857006
26	0.870298	0.870298
27	0.874513	0.874513
28	0.883595	0.883595
29	0.90084	0.90084
30	0.91681	0.91681
31	0.930754	0.930754
32	0.943555	0.943555
33	0.948823	0.948823
34	0.961861	0.961861
35	0.97662	0.97662
36	0.982029	0.982029
37	0.984625	0.984625
38	0.989243	0.989243
39	0.996972	0.996972
40	1.003218	1.003218
41	1.009221	1.009221
42	1.017932	1.017932
43	1.03036	1.03036
44	1.044047	1.044047
45	1.054424	1.054424
46	1.060402	1.060402
47	1.077093	1.077093
48	1.095495	1.095495
49	1.109648	1.109648
50	1.115986	1.115986
51	1.124128	1.124128
52	1.133952	1.133952
53	1.158096	1.158096
54	1.172676	1.172676
55	1.186147	1.186147
56	1.194808	1.194808
57	1.197545	1.197545
58	1.202168	1.202168
59	1.20594	1.20594
60	1.214936	1.214936
61	1.221206	1.221206
62	1.230398	1.230398
63	1.230606	1.230606
64	1.240055	1.240055
65	1.253108	1.253108
66	1.269519	1.269519
67	1.289612	1.289612
68	1.302637	1.302637
69	1.311056	1.311056
70	1.315958	1.315958
71	1.33025	1.33025
72	1.338795	1.338795
73	1.351698	1.351698
74	1.357462	1.357462
75	1.369821	1.369821
76	1.383582	1.383582
77	1.389486	1.389486
78	1.393145	1.393145
79	1.403369	1.403369
80	1.418366	1.418366
81	1.443437	1.443437
82	1.454498	1.454498
83	1.447657	1.447657
84	1.438805	1.438805
85	1.433062	1.433062
86	1.424539	1.424539
87	1.422793	1.422793
88	1.443184	1.443184
89	1.440058	1.440058
90	1.426361	1.426361
91	1.408558	1.408558
92	1.36582	1.36582
93	1.296149	1.296149
94	1.201228	1.201228
95	1.091416	1.091416
96	0.950823	0.950823
97	0.754542	0.754542
98	0.500703	0.500703
99	0.2313	0.2313
100	0.070587	0.070587

