## htsjdk.samtools.metrics.StringHeader
# picard.analysis.CollectRnaSeqMetrics REF_FLAT=/ref/genomes/hg19/refFlat.txt.gz RIBOSOMAL_INTERVALS=/ref/genomes/hg19/hg19.rRNA.interval_list STRAND_SPECIFICITY=NONE METRIC_ACCUMULATION_LEVEL=[ALL_READS, READ_GROUP] INPUT=/data/dumitriu_rna_data/results/bamfiles/SRR2015715.bam OUTPUT=/data/dumitriu_rna_data/results/QC_postAln/SRR2015715_picardRNAmetrics.txt    MINIMUM_LENGTH=500 RRNA_FRAGMENT_PERCENTAGE=0.8 ASSUME_SORTED=true STOP_AFTER=0 VERBOSITY=INFO QUIET=false VALIDATION_STRINGENCY=STRICT COMPRESSION_LEVEL=5 MAX_RECORDS_IN_RAM=500000 CREATE_INDEX=false CREATE_MD5_FILE=false GA4GH_CLIENT_SECRETS=client_secrets.json
## htsjdk.samtools.metrics.StringHeader
# Started on: Tue May 29 16:26:03 CEST 2018

## METRICS CLASS	picard.analysis.RnaSeqMetrics
PF_BASES	PF_ALIGNED_BASES	RIBOSOMAL_BASES	CODING_BASES	UTR_BASES	INTRONIC_BASES	INTERGENIC_BASES	IGNORED_READS	CORRECT_STRAND_READS	INCORRECT_STRAND_READS	PCT_RIBOSOMAL_BASES	PCT_CODING_BASES	PCT_UTR_BASES	PCT_INTRONIC_BASES	PCT_INTERGENIC_BASES	PCT_MRNA_BASES	PCT_USABLE_BASES	PCT_CORRECT_STRAND_READS	MEDIAN_CV_COVERAGE	MEDIAN_5PRIME_BIAS	MEDIAN_3PRIME_BIAS	MEDIAN_5PRIME_TO_3PRIME_BIAS	SAMPLE	LIBRARY	READ_GROUP
7440440689	7267639509	12124	2287614931	2991151746	685484077	1303376780	0	0	0	0.000002	0.314767	0.411571	0.09432	0.17934	0.726339	0.70947	0	0.551425	0.054651	0.349345	0.180937			
7440440689	7267639509	12124	2287614931	2991151746	685484077	1303376780	0	0	0	0.000002	0.314767	0.411571	0.09432	0.17934	0.726339	0.70947	0	0.551425	0.054651	0.349345	0.180937	SRR2015715	LIB-SRR2015715	DUMITRIU.s1.15

## HISTOGRAM	java.lang.Integer
normalized_position	All_Reads.normalized_coverage	DUMITRIU.s1.15.normalized_coverage
0	0.026432	0.026432
1	0.040464	0.040464
2	0.079514	0.079514
3	0.141372	0.141372
4	0.206305	0.206305
5	0.276235	0.276235
6	0.338285	0.338285
7	0.400426	0.400426
8	0.462343	0.462343
9	0.519868	0.519868
10	0.566662	0.566662
11	0.612988	0.612988
12	0.653647	0.653647
13	0.688126	0.688126
14	0.717624	0.717624
15	0.746931	0.746931
16	0.775013	0.775013
17	0.803118	0.803118
18	0.828448	0.828448
19	0.850244	0.850244
20	0.868276	0.868276
21	0.87859	0.87859
22	0.888134	0.888134
23	0.904263	0.904263
24	0.920286	0.920286
25	0.937022	0.937022
26	0.955432	0.955432
27	0.959368	0.959368
28	0.965305	0.965305
29	0.980557	0.980557
30	0.999961	0.999961
31	1.014817	1.014817
32	1.026478	1.026478
33	1.031412	1.031412
34	1.043702	1.043702
35	1.054345	1.054345
36	1.049721	1.049721
37	1.052811	1.052811
38	1.05952	1.05952
39	1.06387	1.06387
40	1.071711	1.071711
41	1.07978	1.07978
42	1.088863	1.088863
43	1.100287	1.100287
44	1.110804	1.110804
45	1.119177	1.119177
46	1.123717	1.123717
47	1.140129	1.140129
48	1.155617	1.155617
49	1.166384	1.166384
50	1.171419	1.171419
51	1.173336	1.173336
52	1.174434	1.174434
53	1.192395	1.192395
54	1.20432	1.20432
55	1.216852	1.216852
56	1.229903	1.229903
57	1.237	1.237
58	1.242062	1.242062
59	1.245284	1.245284
60	1.255108	1.255108
61	1.259753	1.259753
62	1.265844	1.265844
63	1.268255	1.268255
64	1.272533	1.272533
65	1.274916	1.274916
66	1.282383	1.282383
67	1.292497	1.292497
68	1.302958	1.302958
69	1.312084	1.312084
70	1.31907	1.31907
71	1.320766	1.320766
72	1.321683	1.321683
73	1.328486	1.328486
74	1.327847	1.327847
75	1.334392	1.334392
76	1.341817	1.341817
77	1.342151	1.342151
78	1.334111	1.334111
79	1.335282	1.335282
80	1.343776	1.343776
81	1.353687	1.353687
82	1.354135	1.354135
83	1.334637	1.334637
84	1.308893	1.308893
85	1.290418	1.290418
86	1.262441	1.262441
87	1.24656	1.24656
88	1.251705	1.251705
89	1.234344	1.234344
90	1.208448	1.208448
91	1.187324	1.187324
92	1.136793	1.136793
93	1.063953	1.063953
94	0.969149	0.969149
95	0.858615	0.858615
96	0.738801	0.738801
97	0.583209	0.583209
98	0.394375	0.394375
99	0.193843	0.193843
100	0.071137	0.071137

