## htsjdk.samtools.metrics.StringHeader
# picard.analysis.CollectRnaSeqMetrics REF_FLAT=/ref/genomes/hg19/refFlat.txt.gz RIBOSOMAL_INTERVALS=/ref/genomes/hg19/hg19.rRNA.interval_list STRAND_SPECIFICITY=NONE METRIC_ACCUMULATION_LEVEL=[ALL_READS, READ_GROUP] INPUT=/data/dumitriu_rna_data/results/bamfiles/SRR2015733.bam OUTPUT=/data/dumitriu_rna_data/results/QC_postAln/SRR2015733_picardRNAmetrics.txt    MINIMUM_LENGTH=500 RRNA_FRAGMENT_PERCENTAGE=0.8 ASSUME_SORTED=true STOP_AFTER=0 VERBOSITY=INFO QUIET=false VALIDATION_STRINGENCY=STRICT COMPRESSION_LEVEL=5 MAX_RECORDS_IN_RAM=500000 CREATE_INDEX=false CREATE_MD5_FILE=false GA4GH_CLIENT_SECRETS=client_secrets.json
## htsjdk.samtools.metrics.StringHeader
# Started on: Tue May 29 19:12:43 CEST 2018

## METRICS CLASS	picard.analysis.RnaSeqMetrics
PF_BASES	PF_ALIGNED_BASES	RIBOSOMAL_BASES	CODING_BASES	UTR_BASES	INTRONIC_BASES	INTERGENIC_BASES	IGNORED_READS	CORRECT_STRAND_READS	INCORRECT_STRAND_READS	PCT_RIBOSOMAL_BASES	PCT_CODING_BASES	PCT_UTR_BASES	PCT_INTRONIC_BASES	PCT_INTERGENIC_BASES	PCT_MRNA_BASES	PCT_USABLE_BASES	PCT_CORRECT_STRAND_READS	MEDIAN_CV_COVERAGE	MEDIAN_5PRIME_BIAS	MEDIAN_3PRIME_BIAS	MEDIAN_5PRIME_TO_3PRIME_BIAS	SAMPLE	LIBRARY	READ_GROUP
8608815418	8376657859	71130	1656214934	3736731991	610003006	2373639711	0	0	0	0.000008	0.197718	0.446089	0.072822	0.283364	0.643807	0.626445	0	0.771447	0.035621	0.618906	0.064361			
8608815418	8376657859	71130	1656214934	3736731991	610003006	2373639711	0	0	0	0.000008	0.197718	0.446089	0.072822	0.283364	0.643807	0.626445	0	0.771447	0.035621	0.618906	0.064361	SRR2015733	LIB-SRR2015733	DUMITRIU.s1.33

## HISTOGRAM	java.lang.Integer
normalized_position	All_Reads.normalized_coverage	DUMITRIU.s1.33.normalized_coverage
0	0.015967	0.015967
1	0.024322	0.024322
2	0.04786	0.04786
3	0.087454	0.087454
4	0.1279	0.1279
5	0.169714	0.169714
6	0.211322	0.211322
7	0.250909	0.250909
8	0.290523	0.290523
9	0.329442	0.329442
10	0.362592	0.362592
11	0.396276	0.396276
12	0.424403	0.424403
13	0.452295	0.452295
14	0.480695	0.480695
15	0.509825	0.509825
16	0.536713	0.536713
17	0.563074	0.563074
18	0.581173	0.581173
19	0.598487	0.598487
20	0.615639	0.615639
21	0.62342	0.62342
22	0.635091	0.635091
23	0.644357	0.644357
24	0.65976	0.65976
25	0.673732	0.673732
26	0.686975	0.686975
27	0.693279	0.693279
28	0.70426	0.70426
29	0.72198	0.72198
30	0.73439	0.73439
31	0.750022	0.750022
32	0.764359	0.764359
33	0.773177	0.773177
34	0.785058	0.785058
35	0.799054	0.799054
36	0.812784	0.812784
37	0.821409	0.821409
38	0.835441	0.835441
39	0.847454	0.847454
40	0.860401	0.860401
41	0.868073	0.868073
42	0.878167	0.878167
43	0.890497	0.890497
44	0.908362	0.908362
45	0.922306	0.922306
46	0.9349	0.9349
47	0.958818	0.958818
48	0.977874	0.977874
49	0.992275	0.992275
50	1.002017	1.002017
51	1.018855	1.018855
52	1.036793	1.036793
53	1.057288	1.057288
54	1.076	1.076
55	1.096397	1.096397
56	1.114902	1.114902
57	1.131082	1.131082
58	1.146061	1.146061
59	1.157478	1.157478
60	1.170471	1.170471
61	1.184656	1.184656
62	1.203132	1.203132
63	1.218403	1.218403
64	1.238112	1.238112
65	1.262307	1.262307
66	1.287104	1.287104
67	1.313455	1.313455
68	1.342815	1.342815
69	1.367097	1.367097
70	1.382986	1.382986
71	1.405998	1.405998
72	1.425999	1.425999
73	1.452719	1.452719
74	1.468413	1.468413
75	1.495163	1.495163
76	1.525334	1.525334
77	1.554371	1.554371
78	1.578114	1.578114
79	1.604959	1.604959
80	1.641915	1.641915
81	1.688943	1.688943
82	1.711194	1.711194
83	1.729556	1.729556
84	1.747642	1.747642
85	1.759449	1.759449
86	1.759703	1.759703
87	1.778219	1.778219
88	1.824981	1.824981
89	1.847414	1.847414
90	1.849202	1.849202
91	1.846896	1.846896
92	1.811461	1.811461
93	1.744256	1.744256
94	1.642998	1.642998
95	1.519927	1.519927
96	1.356616	1.356616
97	1.107086	1.107086
98	0.74938	0.74938
99	0.350894	0.350894
100	0.107478	0.107478

