## htsjdk.samtools.metrics.StringHeader
# picard.analysis.CollectRnaSeqMetrics REF_FLAT=/ref/genomes/hg19/refFlat.txt.gz RIBOSOMAL_INTERVALS=/ref/genomes/hg19/hg19.rRNA.interval_list STRAND_SPECIFICITY=NONE METRIC_ACCUMULATION_LEVEL=[ALL_READS, READ_GROUP] INPUT=/data/dumitriu_rna_data/results/bamfiles/SRR2015784.bam OUTPUT=/data/dumitriu_rna_data/results/QC_postAln/SRR2015784_picardRNAmetrics.txt    MINIMUM_LENGTH=500 RRNA_FRAGMENT_PERCENTAGE=0.8 ASSUME_SORTED=true STOP_AFTER=0 VERBOSITY=INFO QUIET=false VALIDATION_STRINGENCY=STRICT COMPRESSION_LEVEL=5 MAX_RECORDS_IN_RAM=500000 CREATE_INDEX=false CREATE_MD5_FILE=false GA4GH_CLIENT_SECRETS=client_secrets.json
## htsjdk.samtools.metrics.StringHeader
# Started on: Tue May 29 12:36:32 CEST 2018

## METRICS CLASS	picard.analysis.RnaSeqMetrics
PF_BASES	PF_ALIGNED_BASES	RIBOSOMAL_BASES	CODING_BASES	UTR_BASES	INTRONIC_BASES	INTERGENIC_BASES	IGNORED_READS	CORRECT_STRAND_READS	INCORRECT_STRAND_READS	PCT_RIBOSOMAL_BASES	PCT_CODING_BASES	PCT_UTR_BASES	PCT_INTRONIC_BASES	PCT_INTERGENIC_BASES	PCT_MRNA_BASES	PCT_USABLE_BASES	PCT_CORRECT_STRAND_READS	MEDIAN_CV_COVERAGE	MEDIAN_5PRIME_BIAS	MEDIAN_3PRIME_BIAS	MEDIAN_5PRIME_TO_3PRIME_BIAS	SAMPLE	LIBRARY	READ_GROUP
7722124186	7558302347	854	1728479367	3633682430	518642926	1677496770	0	0	0	0	0.228686	0.480754	0.068619	0.221941	0.70944	0.694389	0	0.745853	0.026525	0.553103	0.05174			
7722124186	7558302347	854	1728479367	3633682430	518642926	1677496770	0	0	0	0	0.228686	0.480754	0.068619	0.221941	0.70944	0.694389	0	0.745853	0.026525	0.553103	0.05174	SRR2015784	LIB-SRR2015784	DUMITRIU.s1.84

## HISTOGRAM	java.lang.Integer
normalized_position	All_Reads.normalized_coverage	DUMITRIU.s1.84.normalized_coverage
0	0.013698	0.013698
1	0.021116	0.021116
2	0.0401	0.0401
3	0.073956	0.073956
4	0.109623	0.109623
5	0.147341	0.147341
6	0.184874	0.184874
7	0.221488	0.221488
8	0.2635	0.2635
9	0.308778	0.308778
10	0.346884	0.346884
11	0.388666	0.388666
12	0.423152	0.423152
13	0.452415	0.452415
14	0.478775	0.478775
15	0.50314	0.50314
16	0.523143	0.523143
17	0.538694	0.538694
18	0.555842	0.555842
19	0.576262	0.576262
20	0.594426	0.594426
21	0.612699	0.612699
22	0.622909	0.622909
23	0.638842	0.638842
24	0.656021	0.656021
25	0.671864	0.671864
26	0.687773	0.687773
27	0.698869	0.698869
28	0.715193	0.715193
29	0.737603	0.737603
30	0.75335	0.75335
31	0.776434	0.776434
32	0.797557	0.797557
33	0.812093	0.812093
34	0.828337	0.828337
35	0.841742	0.841742
36	0.857016	0.857016
37	0.871656	0.871656
38	0.88806	0.88806
39	0.905211	0.905211
40	0.918896	0.918896
41	0.93143	0.93143
42	0.939237	0.939237
43	0.954836	0.954836
44	0.973529	0.973529
45	0.991094	0.991094
46	1.00534	1.00534
47	1.023577	1.023577
48	1.041329	1.041329
49	1.055187	1.055187
50	1.06593	1.06593
51	1.078798	1.078798
52	1.088718	1.088718
53	1.10931	1.10931
54	1.124448	1.124448
55	1.146394	1.146394
56	1.163306	1.163306
57	1.175338	1.175338
58	1.18788	1.18788
59	1.199226	1.199226
60	1.216591	1.216591
61	1.237151	1.237151
62	1.257597	1.257597
63	1.269966	1.269966
64	1.28446	1.28446
65	1.300641	1.300641
66	1.318476	1.318476
67	1.338524	1.338524
68	1.358558	1.358558
69	1.378877	1.378877
70	1.396643	1.396643
71	1.415635	1.415635
72	1.434265	1.434265
73	1.46137	1.46137
74	1.49371	1.49371
75	1.523948	1.523948
76	1.545931	1.545931
77	1.569154	1.569154
78	1.585545	1.585545
79	1.611368	1.611368
80	1.640501	1.640501
81	1.671782	1.671782
82	1.688748	1.688748
83	1.695392	1.695392
84	1.700844	1.700844
85	1.712086	1.712086
86	1.719928	1.719928
87	1.722792	1.722792
88	1.73438	1.73438
89	1.743451	1.743451
90	1.734909	1.734909
91	1.711256	1.711256
92	1.664216	1.664216
93	1.592485	1.592485
94	1.496388	1.496388
95	1.363075	1.363075
96	1.183073	1.183073
97	0.945008	0.945008
98	0.654713	0.654713
99	0.334596	0.334596
100	0.104236	0.104236

