## htsjdk.samtools.metrics.StringHeader
# picard.analysis.CollectRnaSeqMetrics REF_FLAT=/ref/genomes/hg19/refFlat.txt.gz RIBOSOMAL_INTERVALS=/ref/genomes/hg19/hg19.rRNA.interval_list STRAND_SPECIFICITY=NONE METRIC_ACCUMULATION_LEVEL=[ALL_READS, READ_GROUP] INPUT=/data/dumitriu_rna_data/results/bamfiles/SRR2015756.bam OUTPUT=/data/dumitriu_rna_data/results/QC_postAln/SRR2015756_picardRNAmetrics.txt    MINIMUM_LENGTH=500 RRNA_FRAGMENT_PERCENTAGE=0.8 ASSUME_SORTED=true STOP_AFTER=0 VERBOSITY=INFO QUIET=false VALIDATION_STRINGENCY=STRICT COMPRESSION_LEVEL=5 MAX_RECORDS_IN_RAM=500000 CREATE_INDEX=false CREATE_MD5_FILE=false GA4GH_CLIENT_SECRETS=client_secrets.json
## htsjdk.samtools.metrics.StringHeader
# Started on: Tue May 29 23:58:19 CEST 2018

## METRICS CLASS	picard.analysis.RnaSeqMetrics
PF_BASES	PF_ALIGNED_BASES	RIBOSOMAL_BASES	CODING_BASES	UTR_BASES	INTRONIC_BASES	INTERGENIC_BASES	IGNORED_READS	CORRECT_STRAND_READS	INCORRECT_STRAND_READS	PCT_RIBOSOMAL_BASES	PCT_CODING_BASES	PCT_UTR_BASES	PCT_INTRONIC_BASES	PCT_INTERGENIC_BASES	PCT_MRNA_BASES	PCT_USABLE_BASES	PCT_CORRECT_STRAND_READS	MEDIAN_CV_COVERAGE	MEDIAN_5PRIME_BIAS	MEDIAN_3PRIME_BIAS	MEDIAN_5PRIME_TO_3PRIME_BIAS	SAMPLE	LIBRARY	READ_GROUP
7522439593	7355478831	708	2327279183	3277379005	585450161	1165369774	0	0	0	0	0.316401	0.44557	0.079594	0.158436	0.761971	0.745059	0	0.52567	0.047785	0.35518	0.176969			
7522439593	7355478831	708	2327279183	3277379005	585450161	1165369774	0	0	0	0	0.316401	0.44557	0.079594	0.158436	0.761971	0.745059	0	0.52567	0.047785	0.35518	0.176969	SRR2015756	LIB-SRR2015756	DUMITRIU.s1.56

## HISTOGRAM	java.lang.Integer
normalized_position	All_Reads.normalized_coverage	DUMITRIU.s1.56.normalized_coverage
0	0.02036	0.02036
1	0.035446	0.035446
2	0.076474	0.076474
3	0.141676	0.141676
4	0.206512	0.206512
5	0.278014	0.278014
6	0.337421	0.337421
7	0.396211	0.396211
8	0.457044	0.457044
9	0.515355	0.515355
10	0.56766	0.56766
11	0.61829	0.61829
12	0.661013	0.661013
13	0.699712	0.699712
14	0.732401	0.732401
15	0.765016	0.765016
16	0.795038	0.795038
17	0.823025	0.823025
18	0.850246	0.850246
19	0.871841	0.871841
20	0.887821	0.887821
21	0.902282	0.902282
22	0.916185	0.916185
23	0.931904	0.931904
24	0.947221	0.947221
25	0.96115	0.96115
26	0.977222	0.977222
27	0.988613	0.988613
28	1.001702	1.001702
29	1.017568	1.017568
30	1.03129	1.03129
31	1.045413	1.045413
32	1.061453	1.061453
33	1.070676	1.070676
34	1.079128	1.079128
35	1.089917	1.089917
36	1.092108	1.092108
37	1.096363	1.096363
38	1.106354	1.106354
39	1.113961	1.113961
40	1.125584	1.125584
41	1.132609	1.132609
42	1.137702	1.137702
43	1.145098	1.145098
44	1.15006	1.15006
45	1.156426	1.156426
46	1.163276	1.163276
47	1.176928	1.176928
48	1.188469	1.188469
49	1.195429	1.195429
50	1.204145	1.204145
51	1.204635	1.204635
52	1.210637	1.210637
53	1.220102	1.220102
54	1.226117	1.226117
55	1.229891	1.229891
56	1.234942	1.234942
57	1.23752	1.23752
58	1.242527	1.242527
59	1.240264	1.240264
60	1.243441	1.243441
61	1.246085	1.246085
62	1.250847	1.250847
63	1.254508	1.254508
64	1.256545	1.256545
65	1.257312	1.257312
66	1.260291	1.260291
67	1.265478	1.265478
68	1.273753	1.273753
69	1.279604	1.279604
70	1.2825	1.2825
71	1.28571	1.28571
72	1.289499	1.289499
73	1.292066	1.292066
74	1.295744	1.295744
75	1.296821	1.296821
76	1.303564	1.303564
77	1.302123	1.302123
78	1.303124	1.303124
79	1.307885	1.307885
80	1.308009	1.308009
81	1.304115	1.304115
82	1.296092	1.296092
83	1.282316	1.282316
84	1.269018	1.269018
85	1.254162	1.254162
86	1.238617	1.238617
87	1.218948	1.218948
88	1.204355	1.204355
89	1.183096	1.183096
90	1.153916	1.153916
91	1.115794	1.115794
92	1.068114	1.068114
93	1.008116	1.008116
94	0.923017	0.923017
95	0.824743	0.824743
96	0.702198	0.702198
97	0.555308	0.555308
98	0.384066	0.384066
99	0.200882	0.200882
100	0.073673	0.073673

