## htsjdk.samtools.metrics.StringHeader
# picard.analysis.CollectRnaSeqMetrics REF_FLAT=/ref/genomes/hg19/refFlat.txt.gz RIBOSOMAL_INTERVALS=/ref/genomes/hg19/hg19.rRNA.interval_list STRAND_SPECIFICITY=NONE METRIC_ACCUMULATION_LEVEL=[ALL_READS, READ_GROUP] INPUT=/data/dumitriu_rna_data/results/bamfiles/SRR2015718.bam OUTPUT=/data/dumitriu_rna_data/results/QC_postAln/SRR2015718_picardRNAmetrics.txt    MINIMUM_LENGTH=500 RRNA_FRAGMENT_PERCENTAGE=0.8 ASSUME_SORTED=true STOP_AFTER=0 VERBOSITY=INFO QUIET=false VALIDATION_STRINGENCY=STRICT COMPRESSION_LEVEL=5 MAX_RECORDS_IN_RAM=500000 CREATE_INDEX=false CREATE_MD5_FILE=false GA4GH_CLIENT_SECRETS=client_secrets.json
## htsjdk.samtools.metrics.StringHeader
# Started on: Tue May 29 10:05:55 CEST 2018

## METRICS CLASS	picard.analysis.RnaSeqMetrics
PF_BASES	PF_ALIGNED_BASES	RIBOSOMAL_BASES	CODING_BASES	UTR_BASES	INTRONIC_BASES	INTERGENIC_BASES	IGNORED_READS	CORRECT_STRAND_READS	INCORRECT_STRAND_READS	PCT_RIBOSOMAL_BASES	PCT_CODING_BASES	PCT_UTR_BASES	PCT_INTRONIC_BASES	PCT_INTERGENIC_BASES	PCT_MRNA_BASES	PCT_USABLE_BASES	PCT_CORRECT_STRAND_READS	MEDIAN_CV_COVERAGE	MEDIAN_5PRIME_BIAS	MEDIAN_3PRIME_BIAS	MEDIAN_5PRIME_TO_3PRIME_BIAS	SAMPLE	LIBRARY	READ_GROUP
6478144735	6324369872	11140	2080584193	2562990698	603301649	1077482412	0	0	0	0.000002	0.328979	0.405256	0.095393	0.17037	0.734235	0.716806	0	0.521833	0.068002	0.32014	0.267825			
6478144735	6324369872	11140	2080584193	2562990698	603301649	1077482412	0	0	0	0.000002	0.328979	0.405256	0.095393	0.17037	0.734235	0.716806	0	0.521833	0.068002	0.32014	0.267825	SRR2015718	LIB-SRR2015718	DUMITRIU.s1.18

## HISTOGRAM	java.lang.Integer
normalized_position	All_Reads.normalized_coverage	DUMITRIU.s1.18.normalized_coverage
0	0.024478	0.024478
1	0.041712	0.041712
2	0.088034	0.088034
3	0.163067	0.163067
4	0.239564	0.239564
5	0.318344	0.318344
6	0.388246	0.388246
7	0.454452	0.454452
8	0.521302	0.521302
9	0.581935	0.581935
10	0.632221	0.632221
11	0.679189	0.679189
12	0.719693	0.719693
13	0.755294	0.755294
14	0.7844	0.7844
15	0.812243	0.812243
16	0.839714	0.839714
17	0.867423	0.867423
18	0.890447	0.890447
19	0.90851	0.90851
20	0.923534	0.923534
21	0.932206	0.932206
22	0.94175	0.94175
23	0.957035	0.957035
24	0.97198	0.97198
25	0.985911	0.985911
26	1.000888	1.000888
27	1.008093	1.008093
28	1.015358	1.015358
29	1.03034	1.03034
30	1.044706	1.044706
31	1.054139	1.054139
32	1.066734	1.066734
33	1.073187	1.073187
34	1.08128	1.08128
35	1.092243	1.092243
36	1.092629	1.092629
37	1.095866	1.095866
38	1.104752	1.104752
39	1.111229	1.111229
40	1.118845	1.118845
41	1.12416	1.12416
42	1.130011	1.130011
43	1.139476	1.139476
44	1.14724	1.14724
45	1.150813	1.150813
46	1.1514	1.1514
47	1.162037	1.162037
48	1.172712	1.172712
49	1.177608	1.177608
50	1.18295	1.18295
51	1.186638	1.186638
52	1.192269	1.192269
53	1.2129	1.2129
54	1.223834	1.223834
55	1.232911	1.232911
56	1.241318	1.241318
57	1.239241	1.239241
58	1.241018	1.241018
59	1.244993	1.244993
60	1.252007	1.252007
61	1.249648	1.249648
62	1.248453	1.248453
63	1.246484	1.246484
64	1.249796	1.249796
65	1.256904	1.256904
66	1.265564	1.265564
67	1.27218	1.27218
68	1.274163	1.274163
69	1.276063	1.276063
70	1.281113	1.281113
71	1.282769	1.282769
72	1.283225	1.283225
73	1.288725	1.288725
74	1.282519	1.282519
75	1.283641	1.283641
76	1.2854	1.2854
77	1.279708	1.279708
78	1.269828	1.269828
79	1.269359	1.269359
80	1.274581	1.274581
81	1.278891	1.278891
82	1.270559	1.270559
83	1.251985	1.251985
84	1.230529	1.230529
85	1.208673	1.208673
86	1.178083	1.178083
87	1.160395	1.160395
88	1.163532	1.163532
89	1.146895	1.146895
90	1.115806	1.115806
91	1.084648	1.084648
92	1.032817	1.032817
93	0.966493	0.966493
94	0.881878	0.881878
95	0.777076	0.777076
96	0.658849	0.658849
97	0.510221	0.510221
98	0.334138	0.334138
99	0.156291	0.156291
100	0.052223	0.052223

