## htsjdk.samtools.metrics.StringHeader
# picard.analysis.CollectRnaSeqMetrics REF_FLAT=/ref/genomes/hg19/refFlat.txt.gz RIBOSOMAL_INTERVALS=/ref/genomes/hg19/hg19.rRNA.interval_list STRAND_SPECIFICITY=NONE METRIC_ACCUMULATION_LEVEL=[ALL_READS, READ_GROUP] INPUT=/data/dumitriu_rna_data/results/bamfiles/SRR2015736.bam OUTPUT=/data/dumitriu_rna_data/results/QC_postAln/SRR2015736_picardRNAmetrics.txt    MINIMUM_LENGTH=500 RRNA_FRAGMENT_PERCENTAGE=0.8 ASSUME_SORTED=true STOP_AFTER=0 VERBOSITY=INFO QUIET=false VALIDATION_STRINGENCY=STRICT COMPRESSION_LEVEL=5 MAX_RECORDS_IN_RAM=500000 CREATE_INDEX=false CREATE_MD5_FILE=false GA4GH_CLIENT_SECRETS=client_secrets.json
## htsjdk.samtools.metrics.StringHeader
# Started on: Wed May 30 09:18:22 CEST 2018

## METRICS CLASS	picard.analysis.RnaSeqMetrics
PF_BASES	PF_ALIGNED_BASES	RIBOSOMAL_BASES	CODING_BASES	UTR_BASES	INTRONIC_BASES	INTERGENIC_BASES	IGNORED_READS	CORRECT_STRAND_READS	INCORRECT_STRAND_READS	PCT_RIBOSOMAL_BASES	PCT_CODING_BASES	PCT_UTR_BASES	PCT_INTRONIC_BASES	PCT_INTERGENIC_BASES	PCT_MRNA_BASES	PCT_USABLE_BASES	PCT_CORRECT_STRAND_READS	MEDIAN_CV_COVERAGE	MEDIAN_5PRIME_BIAS	MEDIAN_3PRIME_BIAS	MEDIAN_5PRIME_TO_3PRIME_BIAS	SAMPLE	LIBRARY	READ_GROUP
6782679285	6588145587	26140	1836647839	2714907129	499082399	1537482772	0	0	0	0.000004	0.278781	0.41209	0.075755	0.233371	0.69087	0.671056	0	0.597543	0.06706	0.437449	0.184973			
6782679285	6588145587	26140	1836647839	2714907129	499082399	1537482772	0	0	0	0.000004	0.278781	0.41209	0.075755	0.233371	0.69087	0.671056	0	0.597543	0.06706	0.437449	0.184973	SRR2015736	LIB-SRR2015736	DUMITRIU.s1.36

## HISTOGRAM	java.lang.Integer
normalized_position	All_Reads.normalized_coverage	DUMITRIU.s1.36.normalized_coverage
0	0.024834	0.024834
1	0.0396	0.0396
2	0.079504	0.079504
3	0.142472	0.142472
4	0.206982	0.206982
5	0.277614	0.277614
6	0.338919	0.338919
7	0.396184	0.396184
8	0.453623	0.453623
9	0.504232	0.504232
10	0.546725	0.546725
11	0.588429	0.588429
12	0.625189	0.625189
13	0.658389	0.658389
14	0.685762	0.685762
15	0.711242	0.711242
16	0.737492	0.737492
17	0.761312	0.761312
18	0.779613	0.779613
19	0.797766	0.797766
20	0.811031	0.811031
21	0.823739	0.823739
22	0.832798	0.832798
23	0.847642	0.847642
24	0.86281	0.86281
25	0.87823	0.87823
26	0.891477	0.891477
27	0.893441	0.893441
28	0.903853	0.903853
29	0.920976	0.920976
30	0.936024	0.936024
31	0.945528	0.945528
32	0.955926	0.955926
33	0.961275	0.961275
34	0.973053	0.973053
35	0.987775	0.987775
36	0.987121	0.987121
37	0.991029	0.991029
38	0.998936	0.998936
39	1.008474	1.008474
40	1.013717	1.013717
41	1.017215	1.017215
42	1.027263	1.027263
43	1.038655	1.038655
44	1.054796	1.054796
45	1.063155	1.063155
46	1.067502	1.067502
47	1.084586	1.084586
48	1.101468	1.101468
49	1.116385	1.116385
50	1.122442	1.122442
51	1.12659	1.12659
52	1.13377	1.13377
53	1.158672	1.158672
54	1.175708	1.175708
55	1.189278	1.189278
56	1.196407	1.196407
57	1.199163	1.199163
58	1.202268	1.202268
59	1.205536	1.205536
60	1.213081	1.213081
61	1.223033	1.223033
62	1.232047	1.232047
63	1.234798	1.234798
64	1.245448	1.245448
65	1.257771	1.257771
66	1.269928	1.269928
67	1.282828	1.282828
68	1.294147	1.294147
69	1.304602	1.304602
70	1.314491	1.314491
71	1.324172	1.324172
72	1.327313	1.327313
73	1.337226	1.337226
74	1.339937	1.339937
75	1.35275	1.35275
76	1.367706	1.367706
77	1.373109	1.373109
78	1.378476	1.378476
79	1.387662	1.387662
80	1.399849	1.399849
81	1.419711	1.419711
82	1.420177	1.420177
83	1.411859	1.411859
84	1.405287	1.405287
85	1.401368	1.401368
86	1.385141	1.385141
87	1.3852	1.3852
88	1.405179	1.405179
89	1.400645	1.400645
90	1.384098	1.384098
91	1.368939	1.368939
92	1.325499	1.325499
93	1.262016	1.262016
94	1.165027	1.165027
95	1.043808	1.043808
96	0.904945	0.904945
97	0.724944	0.724944
98	0.483067	0.483067
99	0.22341	0.22341
100	0.069996	0.069996

