## htsjdk.samtools.metrics.StringHeader
# picard.analysis.CollectRnaSeqMetrics REF_FLAT=/ref/genomes/hg19/refFlat.txt.gz RIBOSOMAL_INTERVALS=/ref/genomes/hg19/hg19.rRNA.interval_list STRAND_SPECIFICITY=NONE METRIC_ACCUMULATION_LEVEL=[ALL_READS, READ_GROUP] INPUT=/data/dumitriu_rna_data/results/bamfiles/SRR2015730.bam OUTPUT=/data/dumitriu_rna_data/results/QC_postAln/SRR2015730_picardRNAmetrics.txt    MINIMUM_LENGTH=500 RRNA_FRAGMENT_PERCENTAGE=0.8 ASSUME_SORTED=true STOP_AFTER=0 VERBOSITY=INFO QUIET=false VALIDATION_STRINGENCY=STRICT COMPRESSION_LEVEL=5 MAX_RECORDS_IN_RAM=500000 CREATE_INDEX=false CREATE_MD5_FILE=false GA4GH_CLIENT_SECRETS=client_secrets.json
## htsjdk.samtools.metrics.StringHeader
# Started on: Tue May 29 20:21:21 CEST 2018

## METRICS CLASS	picard.analysis.RnaSeqMetrics
PF_BASES	PF_ALIGNED_BASES	RIBOSOMAL_BASES	CODING_BASES	UTR_BASES	INTRONIC_BASES	INTERGENIC_BASES	IGNORED_READS	CORRECT_STRAND_READS	INCORRECT_STRAND_READS	PCT_RIBOSOMAL_BASES	PCT_CODING_BASES	PCT_UTR_BASES	PCT_INTRONIC_BASES	PCT_INTERGENIC_BASES	PCT_MRNA_BASES	PCT_USABLE_BASES	PCT_CORRECT_STRAND_READS	MEDIAN_CV_COVERAGE	MEDIAN_5PRIME_BIAS	MEDIAN_3PRIME_BIAS	MEDIAN_5PRIME_TO_3PRIME_BIAS	SAMPLE	LIBRARY	READ_GROUP
8194935087	8001376896	17397	2896779652	3228184556	567799152	1308596236	0	0	0	0.000002	0.362035	0.403454	0.070963	0.163546	0.765489	0.747409	0	0.48034	0.085045	0.28923	0.35168			
8194935087	8001376896	17397	2896779652	3228184556	567799152	1308596236	0	0	0	0.000002	0.362035	0.403454	0.070963	0.163546	0.765489	0.747409	0	0.48034	0.085045	0.28923	0.35168	SRR2015730	LIB-SRR2015730	DUMITRIU.s1.30

## HISTOGRAM	java.lang.Integer
normalized_position	All_Reads.normalized_coverage	DUMITRIU.s1.30.normalized_coverage
0	0.036463	0.036463
1	0.059888	0.059888
2	0.11887	0.11887
3	0.20266	0.20266
4	0.288613	0.288613
5	0.375527	0.375527
6	0.449784	0.449784
7	0.520333	0.520333
8	0.589799	0.589799
9	0.652126	0.652126
10	0.705091	0.705091
11	0.752113	0.752113
12	0.792598	0.792598
13	0.828413	0.828413
14	0.857525	0.857525
15	0.887093	0.887093
16	0.915658	0.915658
17	0.942583	0.942583
18	0.966037	0.966037
19	0.987102	0.987102
20	1.001365	1.001365
21	1.011275	1.011275
22	1.018538	1.018538
23	1.031674	1.031674
24	1.046439	1.046439
25	1.057267	1.057267
26	1.070961	1.070961
27	1.075374	1.075374
28	1.084345	1.084345
29	1.098356	1.098356
30	1.116065	1.116065
31	1.128369	1.128369
32	1.13681	1.13681
33	1.135823	1.135823
34	1.139859	1.139859
35	1.148185	1.148185
36	1.144061	1.144061
37	1.145779	1.145779
38	1.146561	1.146561
39	1.143664	1.143664
40	1.145161	1.145161
41	1.151551	1.151551
42	1.15309	1.15309
43	1.15726	1.15726
44	1.162465	1.162465
45	1.165321	1.165321
46	1.166497	1.166497
47	1.177474	1.177474
48	1.186809	1.186809
49	1.191966	1.191966
50	1.198896	1.198896
51	1.198541	1.198541
52	1.197634	1.197634
53	1.212833	1.212833
54	1.222531	1.222531
55	1.232353	1.232353
56	1.238343	1.238343
57	1.233922	1.233922
58	1.236143	1.236143
59	1.233302	1.233302
60	1.232243	1.232243
61	1.232274	1.232274
62	1.234963	1.234963
63	1.236853	1.236853
64	1.23712	1.23712
65	1.24006	1.24006
66	1.23974	1.23974
67	1.243299	1.243299
68	1.246239	1.246239
69	1.243527	1.243527
70	1.240938	1.240938
71	1.236362	1.236362
72	1.229548	1.229548
73	1.227341	1.227341
74	1.217785	1.217785
75	1.213279	1.213279
76	1.211288	1.211288
77	1.207819	1.207819
78	1.194793	1.194793
79	1.182512	1.182512
80	1.177964	1.177964
81	1.180625	1.180625
82	1.177395	1.177395
83	1.150432	1.150432
84	1.117004	1.117004
85	1.092669	1.092669
86	1.062903	1.062903
87	1.041452	1.041452
88	1.048175	1.048175
89	1.029728	1.029728
90	0.998372	0.998372
91	0.968157	0.968157
92	0.916921	0.916921
93	0.858553	0.858553
94	0.781611	0.781611
95	0.697395	0.697395
96	0.601916	0.601916
97	0.470984	0.470984
98	0.310039	0.310039
99	0.147535	0.147535
100	0.054623	0.054623

