## htsjdk.samtools.metrics.StringHeader
# picard.analysis.CollectRnaSeqMetrics REF_FLAT=/ref/genomes/hg19/refFlat.txt.gz RIBOSOMAL_INTERVALS=/ref/genomes/hg19/hg19.rRNA.interval_list STRAND_SPECIFICITY=NONE METRIC_ACCUMULATION_LEVEL=[ALL_READS, READ_GROUP] INPUT=/data/dumitriu_rna_data/results/bamfiles/SRR2015750.bam OUTPUT=/data/dumitriu_rna_data/results/QC_postAln/SRR2015750_picardRNAmetrics.txt    MINIMUM_LENGTH=500 RRNA_FRAGMENT_PERCENTAGE=0.8 ASSUME_SORTED=true STOP_AFTER=0 VERBOSITY=INFO QUIET=false VALIDATION_STRINGENCY=STRICT COMPRESSION_LEVEL=5 MAX_RECORDS_IN_RAM=500000 CREATE_INDEX=false CREATE_MD5_FILE=false GA4GH_CLIENT_SECRETS=client_secrets.json
## htsjdk.samtools.metrics.StringHeader
# Started on: Tue May 29 13:23:32 CEST 2018

## METRICS CLASS	picard.analysis.RnaSeqMetrics
PF_BASES	PF_ALIGNED_BASES	RIBOSOMAL_BASES	CODING_BASES	UTR_BASES	INTRONIC_BASES	INTERGENIC_BASES	IGNORED_READS	CORRECT_STRAND_READS	INCORRECT_STRAND_READS	PCT_RIBOSOMAL_BASES	PCT_CODING_BASES	PCT_UTR_BASES	PCT_INTRONIC_BASES	PCT_INTERGENIC_BASES	PCT_MRNA_BASES	PCT_USABLE_BASES	PCT_CORRECT_STRAND_READS	MEDIAN_CV_COVERAGE	MEDIAN_5PRIME_BIAS	MEDIAN_3PRIME_BIAS	MEDIAN_5PRIME_TO_3PRIME_BIAS	SAMPLE	LIBRARY	READ_GROUP
13264330362	12896388665	661	2815525248	5576514024	725067330	3779281472	0	0	0	0	0.218319	0.432409	0.056223	0.29305	0.650728	0.632677	0	0.790644	0.02384	0.394089	0.065857			
13264330362	12896388665	661	2815525248	5576514024	725067330	3779281472	0	0	0	0	0.218319	0.432409	0.056223	0.29305	0.650728	0.632677	0	0.790644	0.02384	0.394089	0.065857	SRR2015750	LIB-SRR2015750	DUMITRIU.s1.50

## HISTOGRAM	java.lang.Integer
normalized_position	All_Reads.normalized_coverage	DUMITRIU.s1.50.normalized_coverage
0	0.014163	0.014163
1	0.022319	0.022319
2	0.041013	0.041013
3	0.073573	0.073573
4	0.108504	0.108504
5	0.148523	0.148523
6	0.185212	0.185212
7	0.227645	0.227645
8	0.274079	0.274079
9	0.316075	0.316075
10	0.352185	0.352185
11	0.39043	0.39043
12	0.423648	0.423648
13	0.450539	0.450539
14	0.478478	0.478478
15	0.504377	0.504377
16	0.52672	0.52672
17	0.543646	0.543646
18	0.563439	0.563439
19	0.582824	0.582824
20	0.604001	0.604001
21	0.622636	0.622636
22	0.63558	0.63558
23	0.655755	0.655755
24	0.674611	0.674611
25	0.686751	0.686751
26	0.702843	0.702843
27	0.719232	0.719232
28	0.737849	0.737849
29	0.762696	0.762696
30	0.783598	0.783598
31	0.796844	0.796844
32	0.811484	0.811484
33	0.824677	0.824677
34	0.844877	0.844877
35	0.865517	0.865517
36	0.874503	0.874503
37	0.887922	0.887922
38	0.905228	0.905228
39	0.921679	0.921679
40	0.931258	0.931258
41	0.945822	0.945822
42	0.953225	0.953225
43	0.973547	0.973547
44	1.000541	1.000541
45	1.019021	1.019021
46	1.02644	1.02644
47	1.047373	1.047373
48	1.064832	1.064832
49	1.080268	1.080268
50	1.091488	1.091488
51	1.105522	1.105522
52	1.116662	1.116662
53	1.13663	1.13663
54	1.153904	1.153904
55	1.175491	1.175491
56	1.190088	1.190088
57	1.204976	1.204976
58	1.22207	1.22207
59	1.24584	1.24584
60	1.264257	1.264257
61	1.282096	1.282096
62	1.302786	1.302786
63	1.309848	1.309848
64	1.324681	1.324681
65	1.345795	1.345795
66	1.370302	1.370302
67	1.389112	1.389112
68	1.410974	1.410974
69	1.416867	1.416867
70	1.428459	1.428459
71	1.446167	1.446167
72	1.467026	1.467026
73	1.493438	1.493438
74	1.519692	1.519692
75	1.554414	1.554414
76	1.569509	1.569509
77	1.575951	1.575951
78	1.585977	1.585977
79	1.607588	1.607588
80	1.621163	1.621163
81	1.638085	1.638085
82	1.653032	1.653032
83	1.65606	1.65606
84	1.653286	1.653286
85	1.654046	1.654046
86	1.662174	1.662174
87	1.664878	1.664878
88	1.697058	1.697058
89	1.693846	1.693846
90	1.66467	1.66467
91	1.622775	1.622775
92	1.544621	1.544621
93	1.445487	1.445487
94	1.346132	1.346132
95	1.216423	1.216423
96	1.045363	1.045363
97	0.821049	0.821049
98	0.545183	0.545183
99	0.281011	0.281011
100	0.104489	0.104489

