## htsjdk.samtools.metrics.StringHeader
# picard.analysis.CollectRnaSeqMetrics REF_FLAT=/ref/genomes/hg19/refFlat.txt.gz RIBOSOMAL_INTERVALS=/ref/genomes/hg19/hg19.rRNA.interval_list STRAND_SPECIFICITY=NONE METRIC_ACCUMULATION_LEVEL=[ALL_READS, READ_GROUP] INPUT=/data/dumitriu_rna_data/results/bamfiles/SRR2015747.bam OUTPUT=/data/dumitriu_rna_data/results/QC_postAln/SRR2015747_picardRNAmetrics.txt    MINIMUM_LENGTH=500 RRNA_FRAGMENT_PERCENTAGE=0.8 ASSUME_SORTED=true STOP_AFTER=0 VERBOSITY=INFO QUIET=false VALIDATION_STRINGENCY=STRICT COMPRESSION_LEVEL=5 MAX_RECORDS_IN_RAM=500000 CREATE_INDEX=false CREATE_MD5_FILE=false GA4GH_CLIENT_SECRETS=client_secrets.json
## htsjdk.samtools.metrics.StringHeader
# Started on: Wed May 30 01:34:18 CEST 2018

## METRICS CLASS	picard.analysis.RnaSeqMetrics
PF_BASES	PF_ALIGNED_BASES	RIBOSOMAL_BASES	CODING_BASES	UTR_BASES	INTRONIC_BASES	INTERGENIC_BASES	IGNORED_READS	CORRECT_STRAND_READS	INCORRECT_STRAND_READS	PCT_RIBOSOMAL_BASES	PCT_CODING_BASES	PCT_UTR_BASES	PCT_INTRONIC_BASES	PCT_INTERGENIC_BASES	PCT_MRNA_BASES	PCT_USABLE_BASES	PCT_CORRECT_STRAND_READS	MEDIAN_CV_COVERAGE	MEDIAN_5PRIME_BIAS	MEDIAN_3PRIME_BIAS	MEDIAN_5PRIME_TO_3PRIME_BIAS	SAMPLE	LIBRARY	READ_GROUP
8165058691	7986730097	4137	2219286540	3822379475	627737856	1317322494	0	0	0	0.000001	0.277872	0.478591	0.078598	0.164939	0.756463	0.739942	0	0.59081	0.034832	0.411788	0.102516			
8165058691	7986730097	4137	2219286540	3822379475	627737856	1317322494	0	0	0	0.000001	0.277872	0.478591	0.078598	0.164939	0.756463	0.739942	0	0.59081	0.034832	0.411788	0.102516	SRR2015747	LIB-SRR2015747	DUMITRIU.s1.47

## HISTOGRAM	java.lang.Integer
normalized_position	All_Reads.normalized_coverage	DUMITRIU.s1.47.normalized_coverage
0	0.016895	0.016895
1	0.026855	0.026855
2	0.054517	0.054517
3	0.10182	0.10182
4	0.150056	0.150056
5	0.203393	0.203393
6	0.250236	0.250236
7	0.29905	0.29905
8	0.348431	0.348431
9	0.397023	0.397023
10	0.44132	0.44132
11	0.48597	0.48597
12	0.526803	0.526803
13	0.563776	0.563776
14	0.595368	0.595368
15	0.626806	0.626806
16	0.655628	0.655628
17	0.683895	0.683895
18	0.711651	0.711651
19	0.735296	0.735296
20	0.752845	0.752845
21	0.771138	0.771138
22	0.786367	0.786367
23	0.804693	0.804693
24	0.820936	0.820936
25	0.837526	0.837526
26	0.856628	0.856628
27	0.871255	0.871255
28	0.886458	0.886458
29	0.907213	0.907213
30	0.926142	0.926142
31	0.945273	0.945273
32	0.963562	0.963562
33	0.975903	0.975903
34	0.98947	0.98947
35	1.003407	1.003407
36	1.012123	1.012123
37	1.020872	1.020872
38	1.034867	1.034867
39	1.04596	1.04596
40	1.055721	1.055721
41	1.063501	1.063501
42	1.075868	1.075868
43	1.088712	1.088712
44	1.097321	1.097321
45	1.10619	1.10619
46	1.114794	1.114794
47	1.131571	1.131571
48	1.146677	1.146677
49	1.157599	1.157599
50	1.16776	1.16776
51	1.172562	1.172562
52	1.183947	1.183947
53	1.205947	1.205947
54	1.219912	1.219912
55	1.230905	1.230905
56	1.240041	1.240041
57	1.246428	1.246428
58	1.255338	1.255338
59	1.260642	1.260642
60	1.27219	1.27219
61	1.278013	1.278013
62	1.291198	1.291198
63	1.301283	1.301283
64	1.311602	1.311602
65	1.323297	1.323297
66	1.333751	1.333751
67	1.348661	1.348661
68	1.363136	1.363136
69	1.376668	1.376668
70	1.388419	1.388419
71	1.397923	1.397923
72	1.40069	1.40069
73	1.409413	1.409413
74	1.415604	1.415604
75	1.420097	1.420097
76	1.432978	1.432978
77	1.435312	1.435312
78	1.433593	1.433593
79	1.447375	1.447375
80	1.459807	1.459807
81	1.466091	1.466091
82	1.466452	1.466452
83	1.445385	1.445385
84	1.421657	1.421657
85	1.41085	1.41085
86	1.394219	1.394219
87	1.375851	1.375851
88	1.365321	1.365321
89	1.351097	1.351097
90	1.323395	1.323395
91	1.285632	1.285632
92	1.233255	1.233255
93	1.161969	1.161969
94	1.069824	1.069824
95	0.960987	0.960987
96	0.822646	0.822646
97	0.650589	0.650589
98	0.446329	0.446329
99	0.22858	0.22858
100	0.078542	0.078542

