## htsjdk.samtools.metrics.StringHeader
# picard.analysis.CollectRnaSeqMetrics REF_FLAT=/ref/genomes/hg19/refFlat.txt.gz RIBOSOMAL_INTERVALS=/ref/genomes/hg19/hg19.rRNA.interval_list STRAND_SPECIFICITY=NONE METRIC_ACCUMULATION_LEVEL=[ALL_READS, READ_GROUP] INPUT=/data/dumitriu_rna_data/results/bamfiles/SRR2015783.bam OUTPUT=/data/dumitriu_rna_data/results/QC_postAln/SRR2015783_picardRNAmetrics.txt    MINIMUM_LENGTH=500 RRNA_FRAGMENT_PERCENTAGE=0.8 ASSUME_SORTED=true STOP_AFTER=0 VERBOSITY=INFO QUIET=false VALIDATION_STRINGENCY=STRICT COMPRESSION_LEVEL=5 MAX_RECORDS_IN_RAM=500000 CREATE_INDEX=false CREATE_MD5_FILE=false GA4GH_CLIENT_SECRETS=client_secrets.json
## htsjdk.samtools.metrics.StringHeader
# Started on: Tue May 29 22:43:52 CEST 2018

## METRICS CLASS	picard.analysis.RnaSeqMetrics
PF_BASES	PF_ALIGNED_BASES	RIBOSOMAL_BASES	CODING_BASES	UTR_BASES	INTRONIC_BASES	INTERGENIC_BASES	IGNORED_READS	CORRECT_STRAND_READS	INCORRECT_STRAND_READS	PCT_RIBOSOMAL_BASES	PCT_CODING_BASES	PCT_UTR_BASES	PCT_INTRONIC_BASES	PCT_INTERGENIC_BASES	PCT_MRNA_BASES	PCT_USABLE_BASES	PCT_CORRECT_STRAND_READS	MEDIAN_CV_COVERAGE	MEDIAN_5PRIME_BIAS	MEDIAN_3PRIME_BIAS	MEDIAN_5PRIME_TO_3PRIME_BIAS	SAMPLE	LIBRARY	READ_GROUP
11692815666	11425873679	183	3487837040	5364451489	756010737	1817574230	0	0	0	0	0.305258	0.4695	0.066167	0.159075	0.774758	0.757071	0	0.576104	0.044268	0.402334	0.123898			
11692815666	11425873679	183	3487837040	5364451489	756010737	1817574230	0	0	0	0	0.305258	0.4695	0.066167	0.159075	0.774758	0.757071	0	0.576104	0.044268	0.402334	0.123898	SRR2015783	LIB-SRR2015783	DUMITRIU.s1.83

## HISTOGRAM	java.lang.Integer
normalized_position	All_Reads.normalized_coverage	DUMITRIU.s1.83.normalized_coverage
0	0.020152	0.020152
1	0.033302	0.033302
2	0.066078	0.066078
3	0.114798	0.114798
4	0.166109	0.166109
5	0.223845	0.223845
6	0.274434	0.274434
7	0.324856	0.324856
8	0.376469	0.376469
9	0.426824	0.426824
10	0.471717	0.471717
11	0.517802	0.517802
12	0.5576	0.5576
13	0.594741	0.594741
14	0.627068	0.627068
15	0.658537	0.658537
16	0.685679	0.685679
17	0.712751	0.712751
18	0.738848	0.738848
19	0.761665	0.761665
20	0.779904	0.779904
21	0.796711	0.796711
22	0.810601	0.810601
23	0.828572	0.828572
24	0.843194	0.843194
25	0.8602	0.8602
26	0.880837	0.880837
27	0.890642	0.890642
28	0.905316	0.905316
29	0.922591	0.922591
30	0.93971	0.93971
31	0.954429	0.954429
32	0.974327	0.974327
33	0.991185	0.991185
34	1.007446	1.007446
35	1.022688	1.022688
36	1.028938	1.028938
37	1.03763	1.03763
38	1.05146	1.05146
39	1.062203	1.062203
40	1.067724	1.067724
41	1.077749	1.077749
42	1.087775	1.087775
43	1.100805	1.100805
44	1.11504	1.11504
45	1.124283	1.124283
46	1.132953	1.132953
47	1.150637	1.150637
48	1.166192	1.166192
49	1.175129	1.175129
50	1.18407	1.18407
51	1.186722	1.186722
52	1.188617	1.188617
53	1.208544	1.208544
54	1.22376	1.22376
55	1.23531	1.23531
56	1.243873	1.243873
57	1.248727	1.248727
58	1.259156	1.259156
59	1.263516	1.263516
60	1.271065	1.271065
61	1.278828	1.278828
62	1.287802	1.287802
63	1.29292	1.29292
64	1.299193	1.299193
65	1.303246	1.303246
66	1.310715	1.310715
67	1.324113	1.324113
68	1.336764	1.336764
69	1.347579	1.347579
70	1.357527	1.357527
71	1.365489	1.365489
72	1.373091	1.373091
73	1.384584	1.384584
74	1.38943	1.38943
75	1.395927	1.395927
76	1.407555	1.407555
77	1.413256	1.413256
78	1.410242	1.410242
79	1.425888	1.425888
80	1.433193	1.433193
81	1.432102	1.432102
82	1.433065	1.433065
83	1.411523	1.411523
84	1.381819	1.381819
85	1.370206	1.370206
86	1.354009	1.354009
87	1.335572	1.335572
88	1.326269	1.326269
89	1.306259	1.306259
90	1.272862	1.272862
91	1.236914	1.236914
92	1.188444	1.188444
93	1.119072	1.119072
94	1.031414	1.031414
95	0.930957	0.930957
96	0.794617	0.794617
97	0.633957	0.633957
98	0.446075	0.446075
99	0.23316	0.23316
100	0.080514	0.080514

