## htsjdk.samtools.metrics.StringHeader
# picard.analysis.CollectRnaSeqMetrics REF_FLAT=/ref/genomes/hg19/refFlat.txt.gz RIBOSOMAL_INTERVALS=/ref/genomes/hg19/hg19.rRNA.interval_list STRAND_SPECIFICITY=NONE METRIC_ACCUMULATION_LEVEL=[ALL_READS, READ_GROUP] INPUT=/data/dumitriu_rna_data/results/bamfiles/SRR2015754.bam OUTPUT=/data/dumitriu_rna_data/results/QC_postAln/SRR2015754_picardRNAmetrics.txt    MINIMUM_LENGTH=500 RRNA_FRAGMENT_PERCENTAGE=0.8 ASSUME_SORTED=true STOP_AFTER=0 VERBOSITY=INFO QUIET=false VALIDATION_STRINGENCY=STRICT COMPRESSION_LEVEL=5 MAX_RECORDS_IN_RAM=500000 CREATE_INDEX=false CREATE_MD5_FILE=false GA4GH_CLIENT_SECRETS=client_secrets.json
## htsjdk.samtools.metrics.StringHeader
# Started on: Tue May 29 12:54:04 CEST 2018

## METRICS CLASS	picard.analysis.RnaSeqMetrics
PF_BASES	PF_ALIGNED_BASES	RIBOSOMAL_BASES	CODING_BASES	UTR_BASES	INTRONIC_BASES	INTERGENIC_BASES	IGNORED_READS	CORRECT_STRAND_READS	INCORRECT_STRAND_READS	PCT_RIBOSOMAL_BASES	PCT_CODING_BASES	PCT_UTR_BASES	PCT_INTRONIC_BASES	PCT_INTERGENIC_BASES	PCT_MRNA_BASES	PCT_USABLE_BASES	PCT_CORRECT_STRAND_READS	MEDIAN_CV_COVERAGE	MEDIAN_5PRIME_BIAS	MEDIAN_3PRIME_BIAS	MEDIAN_5PRIME_TO_3PRIME_BIAS	SAMPLE	LIBRARY	READ_GROUP
11562862721	11306297997	14480	3132192851	6135865920	571793744	1466432523	0	0	0	0.000001	0.277031	0.542695	0.050573	0.129701	0.819725	0.801537	0	0.682726	0.025141	0.511461	0.057246			
11562862721	11306297997	14480	3132192851	6135865920	571793744	1466432523	0	0	0	0.000001	0.277031	0.542695	0.050573	0.129701	0.819725	0.801537	0	0.682726	0.025141	0.511461	0.057246	SRR2015754	LIB-SRR2015754	DUMITRIU.s1.54

## HISTOGRAM	java.lang.Integer
normalized_position	All_Reads.normalized_coverage	DUMITRIU.s1.54.normalized_coverage
0	0.011734	0.011734
1	0.018795	0.018795
2	0.038809	0.038809
3	0.073405	0.073405
4	0.109411	0.109411
5	0.151403	0.151403
6	0.190946	0.190946
7	0.230212	0.230212
8	0.272393	0.272393
9	0.316512	0.316512
10	0.355273	0.355273
11	0.39549	0.39549
12	0.430792	0.430792
13	0.465229	0.465229
14	0.495943	0.495943
15	0.526701	0.526701
16	0.55403	0.55403
17	0.581545	0.581545
18	0.607706	0.607706
19	0.628629	0.628629
20	0.646877	0.646877
21	0.665757	0.665757
22	0.68279	0.68279
23	0.701812	0.701812
24	0.71769	0.71769
25	0.733328	0.733328
26	0.753915	0.753915
27	0.765866	0.765866
28	0.781988	0.781988
29	0.803778	0.803778
30	0.821048	0.821048
31	0.841797	0.841797
32	0.864424	0.864424
33	0.877549	0.877549
34	0.893143	0.893143
35	0.91118	0.91118
36	0.922722	0.922722
37	0.938061	0.938061
38	0.95625	0.95625
39	0.972721	0.972721
40	0.985734	0.985734
41	0.997774	0.997774
42	1.011471	1.011471
43	1.028269	1.028269
44	1.040634	1.040634
45	1.054686	1.054686
46	1.071449	1.071449
47	1.092505	1.092505
48	1.110789	1.110789
49	1.123286	1.123286
50	1.138386	1.138386
51	1.142935	1.142935
52	1.159181	1.159181
53	1.171295	1.171295
54	1.1821	1.1821
55	1.192066	1.192066
56	1.20537	1.20537
57	1.218584	1.218584
58	1.233064	1.233064
59	1.243981	1.243981
60	1.260707	1.260707
61	1.277484	1.277484
62	1.298556	1.298556
63	1.312602	1.312602
64	1.326269	1.326269
65	1.345754	1.345754
66	1.360001	1.360001
67	1.378482	1.378482
68	1.394866	1.394866
69	1.410393	1.410393
70	1.426295	1.426295
71	1.440476	1.440476
72	1.454561	1.454561
73	1.473624	1.473624
74	1.482831	1.482831
75	1.493523	1.493523
76	1.506838	1.506838
77	1.519551	1.519551
78	1.533141	1.533141
79	1.548566	1.548566
80	1.560883	1.560883
81	1.571393	1.571393
82	1.574474	1.574474
83	1.575186	1.575186
84	1.57854	1.57854
85	1.582781	1.582781
86	1.579751	1.579751
87	1.56897	1.56897
88	1.570404	1.570404
89	1.567214	1.567214
90	1.54632	1.54632
91	1.510744	1.510744
92	1.456627	1.456627
93	1.38547	1.38547
94	1.282641	1.282641
95	1.155478	1.155478
96	0.991217	0.991217
97	0.784511	0.784511
98	0.537244	0.537244
99	0.284045	0.284045
100	0.101526	0.101526

