## htsjdk.samtools.metrics.StringHeader
# picard.analysis.CollectRnaSeqMetrics REF_FLAT=/ref/genomes/hg19/refFlat.txt.gz RIBOSOMAL_INTERVALS=/ref/genomes/hg19/hg19.rRNA.interval_list STRAND_SPECIFICITY=NONE METRIC_ACCUMULATION_LEVEL=[ALL_READS, READ_GROUP] INPUT=/data/dumitriu_rna_data/results/bamfiles/SRR2015727.bam OUTPUT=/data/dumitriu_rna_data/results/QC_postAln/SRR2015727_picardRNAmetrics.txt    MINIMUM_LENGTH=500 RRNA_FRAGMENT_PERCENTAGE=0.8 ASSUME_SORTED=true STOP_AFTER=0 VERBOSITY=INFO QUIET=false VALIDATION_STRINGENCY=STRICT COMPRESSION_LEVEL=5 MAX_RECORDS_IN_RAM=500000 CREATE_INDEX=false CREATE_MD5_FILE=false GA4GH_CLIENT_SECRETS=client_secrets.json
## htsjdk.samtools.metrics.StringHeader
# Started on: Wed May 30 02:48:46 CEST 2018

## METRICS CLASS	picard.analysis.RnaSeqMetrics
PF_BASES	PF_ALIGNED_BASES	RIBOSOMAL_BASES	CODING_BASES	UTR_BASES	INTRONIC_BASES	INTERGENIC_BASES	IGNORED_READS	CORRECT_STRAND_READS	INCORRECT_STRAND_READS	PCT_RIBOSOMAL_BASES	PCT_CODING_BASES	PCT_UTR_BASES	PCT_INTRONIC_BASES	PCT_INTERGENIC_BASES	PCT_MRNA_BASES	PCT_USABLE_BASES	PCT_CORRECT_STRAND_READS	MEDIAN_CV_COVERAGE	MEDIAN_5PRIME_BIAS	MEDIAN_3PRIME_BIAS	MEDIAN_5PRIME_TO_3PRIME_BIAS	SAMPLE	LIBRARY	READ_GROUP
7058256968	6859171888	21012	2447827783	2766218013	687060045	958045257	0	0	0	0.000003	0.356869	0.403287	0.100167	0.139674	0.760157	0.738716	0	0.513394	0.086378	0.325694	0.325573			
7058256968	6859171888	21012	2447827783	2766218013	687060045	958045257	0	0	0	0.000003	0.356869	0.403287	0.100167	0.139674	0.760157	0.738716	0	0.513394	0.086378	0.325694	0.325573	SRR2015727	LIB-SRR2015727	DUMITRIU.s1.27

## HISTOGRAM	java.lang.Integer
normalized_position	All_Reads.normalized_coverage	DUMITRIU.s1.27.normalized_coverage
0	0.029785	0.029785
1	0.050653	0.050653
2	0.10511	0.10511
3	0.184782	0.184782
4	0.263248	0.263248
5	0.348185	0.348185
6	0.418034	0.418034
7	0.487098	0.487098
8	0.556547	0.556547
9	0.618391	0.618391
10	0.667875	0.667875
11	0.715699	0.715699
12	0.756278	0.756278
13	0.792522	0.792522
14	0.819982	0.819982
15	0.849409	0.849409
16	0.875983	0.875983
17	0.904106	0.904106
18	0.927456	0.927456
19	0.949866	0.949866
20	0.965678	0.965678
21	0.975248	0.975248
22	0.983111	0.983111
23	0.995114	0.995114
24	1.007962	1.007962
25	1.022071	1.022071
26	1.032108	1.032108
27	1.034517	1.034517
28	1.040726	1.040726
29	1.053985	1.053985
30	1.067295	1.067295
31	1.078328	1.078328
32	1.087354	1.087354
33	1.090239	1.090239
34	1.097724	1.097724
35	1.105777	1.105777
36	1.106267	1.106267
37	1.106743	1.106743
38	1.110891	1.110891
39	1.116094	1.116094
40	1.123927	1.123927
41	1.125196	1.125196
42	1.131162	1.131162
43	1.135473	1.135473
44	1.140298	1.140298
45	1.144341	1.144341
46	1.149984	1.149984
47	1.162711	1.162711
48	1.16859	1.16859
49	1.169745	1.169745
50	1.17301	1.17301
51	1.176771	1.176771
52	1.181385	1.181385
53	1.203348	1.203348
54	1.213696	1.213696
55	1.22542	1.22542
56	1.230252	1.230252
57	1.22545	1.22545
58	1.224853	1.224853
59	1.225049	1.225049
60	1.224254	1.224254
61	1.218778	1.218778
62	1.217506	1.217506
63	1.21212	1.21212
64	1.220806	1.220806
65	1.229203	1.229203
66	1.236656	1.236656
67	1.243363	1.243363
68	1.247959	1.247959
69	1.251311	1.251311
70	1.255488	1.255488
71	1.25631	1.25631
72	1.253394	1.253394
73	1.261633	1.261633
74	1.259452	1.259452
75	1.263856	1.263856
76	1.270185	1.270185
77	1.265202	1.265202
78	1.254511	1.254511
79	1.245025	1.245025
80	1.244657	1.244657
81	1.25033	1.25033
82	1.245233	1.245233
83	1.223613	1.223613
84	1.20106	1.20106
85	1.177356	1.177356
86	1.149337	1.149337
87	1.130659	1.130659
88	1.129209	1.129209
89	1.112127	1.112127
90	1.083102	1.083102
91	1.05429	1.05429
92	1.005727	1.005727
93	0.943509	0.943509
94	0.8658	0.8658
95	0.767843	0.767843
96	0.658161	0.658161
97	0.513156	0.513156
98	0.33352	0.33352
99	0.150253	0.150253
100	0.045705	0.045705

