## htsjdk.samtools.metrics.StringHeader
# picard.analysis.CollectRnaSeqMetrics REF_FLAT=/ref/genomes/hg19/refFlat.txt.gz RIBOSOMAL_INTERVALS=/ref/genomes/hg19/hg19.rRNA.interval_list STRAND_SPECIFICITY=NONE METRIC_ACCUMULATION_LEVEL=[ALL_READS, READ_GROUP] INPUT=/data/dumitriu_rna_data/results/bamfiles/SRR2015751.bam OUTPUT=/data/dumitriu_rna_data/results/QC_postAln/SRR2015751_picardRNAmetrics.txt    MINIMUM_LENGTH=500 RRNA_FRAGMENT_PERCENTAGE=0.8 ASSUME_SORTED=true STOP_AFTER=0 VERBOSITY=INFO QUIET=false VALIDATION_STRINGENCY=STRICT COMPRESSION_LEVEL=5 MAX_RECORDS_IN_RAM=500000 CREATE_INDEX=false CREATE_MD5_FILE=false GA4GH_CLIENT_SECRETS=client_secrets.json
## htsjdk.samtools.metrics.StringHeader
# Started on: Wed May 30 04:15:39 CEST 2018

## METRICS CLASS	picard.analysis.RnaSeqMetrics
PF_BASES	PF_ALIGNED_BASES	RIBOSOMAL_BASES	CODING_BASES	UTR_BASES	INTRONIC_BASES	INTERGENIC_BASES	IGNORED_READS	CORRECT_STRAND_READS	INCORRECT_STRAND_READS	PCT_RIBOSOMAL_BASES	PCT_CODING_BASES	PCT_UTR_BASES	PCT_INTRONIC_BASES	PCT_INTERGENIC_BASES	PCT_MRNA_BASES	PCT_USABLE_BASES	PCT_CORRECT_STRAND_READS	MEDIAN_CV_COVERAGE	MEDIAN_5PRIME_BIAS	MEDIAN_3PRIME_BIAS	MEDIAN_5PRIME_TO_3PRIME_BIAS	SAMPLE	LIBRARY	READ_GROUP
9461172346	9255740724	10113	1980441339	4405457814	629557040	2240275597	0	0	0	0.000001	0.213969	0.47597	0.068018	0.242042	0.689939	0.674959	0	0.743235	0.025767	0.576518	0.047523			
9461172346	9255740724	10113	1980441339	4405457814	629557040	2240275597	0	0	0	0.000001	0.213969	0.47597	0.068018	0.242042	0.689939	0.674959	0	0.743235	0.025767	0.576518	0.047523	SRR2015751	LIB-SRR2015751	DUMITRIU.s1.51

## HISTOGRAM	java.lang.Integer
normalized_position	All_Reads.normalized_coverage	DUMITRIU.s1.51.normalized_coverage
0	0.012619	0.012619
1	0.020006	0.020006
2	0.039561	0.039561
3	0.074064	0.074064
4	0.110019	0.110019
5	0.148535	0.148535
6	0.184889	0.184889
7	0.220872	0.220872
8	0.258965	0.258965
9	0.297964	0.297964
10	0.330887	0.330887
11	0.366698	0.366698
12	0.398456	0.398456
13	0.427326	0.427326
14	0.453958	0.453958
15	0.481261	0.481261
16	0.505286	0.505286
17	0.528243	0.528243
18	0.549157	0.549157
19	0.566502	0.566502
20	0.582749	0.582749
21	0.597729	0.597729
22	0.609756	0.609756
23	0.628366	0.628366
24	0.645513	0.645513
25	0.665104	0.665104
26	0.682849	0.682849
27	0.692892	0.692892
28	0.704542	0.704542
29	0.719552	0.719552
30	0.734407	0.734407
31	0.750001	0.750001
32	0.767464	0.767464
33	0.781956	0.781956
34	0.799173	0.799173
35	0.818998	0.818998
36	0.834796	0.834796
37	0.851868	0.851868
38	0.868856	0.868856
39	0.886463	0.886463
40	0.900085	0.900085
41	0.909538	0.909538
42	0.919501	0.919501
43	0.935133	0.935133
44	0.95281	0.95281
45	0.96732	0.96732
46	0.97618	0.97618
47	0.995936	0.995936
48	1.016853	1.016853
49	1.031991	1.031991
50	1.045239	1.045239
51	1.05709	1.05709
52	1.068368	1.068368
53	1.088934	1.088934
54	1.104682	1.104682
55	1.126477	1.126477
56	1.143926	1.143926
57	1.158244	1.158244
58	1.17189	1.17189
59	1.184406	1.184406
60	1.204329	1.204329
61	1.224757	1.224757
62	1.243846	1.243846
63	1.256299	1.256299
64	1.267488	1.267488
65	1.280328	1.280328
66	1.297328	1.297328
67	1.318676	1.318676
68	1.339682	1.339682
69	1.362223	1.362223
70	1.384639	1.384639
71	1.404501	1.404501
72	1.426306	1.426306
73	1.454412	1.454412
74	1.483862	1.483862
75	1.511806	1.511806
76	1.541687	1.541687
77	1.570937	1.570937
78	1.593543	1.593543
79	1.625186	1.625186
80	1.657931	1.657931
81	1.691988	1.691988
82	1.717369	1.717369
83	1.721096	1.721096
84	1.72624	1.72624
85	1.738384	1.738384
86	1.752192	1.752192
87	1.76165	1.76165
88	1.78595	1.78595
89	1.799743	1.799743
90	1.798065	1.798065
91	1.787383	1.787383
92	1.752455	1.752455
93	1.688292	1.688292
94	1.591624	1.591624
95	1.47257	1.47257
96	1.288368	1.288368
97	1.032575	1.032575
98	0.724542	0.724542
99	0.377501	0.377501
100	0.119397	0.119397

