## htsjdk.samtools.metrics.StringHeader
# picard.analysis.CollectRnaSeqMetrics REF_FLAT=/ref/genomes/hg19/refFlat.txt.gz RIBOSOMAL_INTERVALS=/ref/genomes/hg19/hg19.rRNA.interval_list STRAND_SPECIFICITY=NONE METRIC_ACCUMULATION_LEVEL=[ALL_READS, READ_GROUP] INPUT=/data/dumitriu_rna_data/results/bamfiles/SRR2015742.bam OUTPUT=/data/dumitriu_rna_data/results/QC_postAln/SRR2015742_picardRNAmetrics.txt    MINIMUM_LENGTH=500 RRNA_FRAGMENT_PERCENTAGE=0.8 ASSUME_SORTED=true STOP_AFTER=0 VERBOSITY=INFO QUIET=false VALIDATION_STRINGENCY=STRICT COMPRESSION_LEVEL=5 MAX_RECORDS_IN_RAM=500000 CREATE_INDEX=false CREATE_MD5_FILE=false GA4GH_CLIENT_SECRETS=client_secrets.json
## htsjdk.samtools.metrics.StringHeader
# Started on: Tue May 29 10:42:34 CEST 2018

## METRICS CLASS	picard.analysis.RnaSeqMetrics
PF_BASES	PF_ALIGNED_BASES	RIBOSOMAL_BASES	CODING_BASES	UTR_BASES	INTRONIC_BASES	INTERGENIC_BASES	IGNORED_READS	CORRECT_STRAND_READS	INCORRECT_STRAND_READS	PCT_RIBOSOMAL_BASES	PCT_CODING_BASES	PCT_UTR_BASES	PCT_INTRONIC_BASES	PCT_INTERGENIC_BASES	PCT_MRNA_BASES	PCT_USABLE_BASES	PCT_CORRECT_STRAND_READS	MEDIAN_CV_COVERAGE	MEDIAN_5PRIME_BIAS	MEDIAN_3PRIME_BIAS	MEDIAN_5PRIME_TO_3PRIME_BIAS	SAMPLE	LIBRARY	READ_GROUP
6998933412	6835325927	730	1492922116	3558372140	444680314	1339350627	0	0	0	0	0.218413	0.520586	0.065056	0.195945	0.738998	0.721723	0	0.797247	0.025135	0.619236	0.043055			
6998933412	6835325927	730	1492922116	3558372140	444680314	1339350627	0	0	0	0	0.218413	0.520586	0.065056	0.195945	0.738998	0.721723	0	0.797247	0.025135	0.619236	0.043055	SRR2015742	LIB-SRR2015742	DUMITRIU.s1.42

## HISTOGRAM	java.lang.Integer
normalized_position	All_Reads.normalized_coverage	DUMITRIU.s1.42.normalized_coverage
0	0.012238	0.012238
1	0.01786	0.01786
2	0.035965	0.035965
3	0.064354	0.064354
4	0.095163	0.095163
5	0.129344	0.129344
6	0.161623	0.161623
7	0.196318	0.196318
8	0.231234	0.231234
9	0.265794	0.265794
10	0.29734	0.29734
11	0.330131	0.330131
12	0.358222	0.358222
13	0.38622	0.38622
14	0.412271	0.412271
15	0.435776	0.435776
16	0.458498	0.458498
17	0.482231	0.482231
18	0.502345	0.502345
19	0.516034	0.516034
20	0.530246	0.530246
21	0.543479	0.543479
22	0.554919	0.554919
23	0.57271	0.57271
24	0.59045	0.59045
25	0.607718	0.607718
26	0.624741	0.624741
27	0.63583	0.63583
28	0.653742	0.653742
29	0.674953	0.674953
30	0.689976	0.689976
31	0.704273	0.704273
32	0.725135	0.725135
33	0.741586	0.741586
34	0.76659	0.76659
35	0.788323	0.788323
36	0.801502	0.801502
37	0.822704	0.822704
38	0.842726	0.842726
39	0.861853	0.861853
40	0.875218	0.875218
41	0.889152	0.889152
42	0.903995	0.903995
43	0.922806	0.922806
44	0.942848	0.942848
45	0.961045	0.961045
46	0.977827	0.977827
47	1.003788	1.003788
48	1.021013	1.021013
49	1.032829	1.032829
50	1.040842	1.040842
51	1.050145	1.050145
52	1.060368	1.060368
53	1.079455	1.079455
54	1.097952	1.097952
55	1.110907	1.110907
56	1.127603	1.127603
57	1.146823	1.146823
58	1.167271	1.167271
59	1.18191	1.18191
60	1.207719	1.207719
61	1.229944	1.229944
62	1.249575	1.249575
63	1.262906	1.262906
64	1.279499	1.279499
65	1.296853	1.296853
66	1.317214	1.317214
67	1.339142	1.339142
68	1.361044	1.361044
69	1.383253	1.383253
70	1.406064	1.406064
71	1.432653	1.432653
72	1.458026	1.458026
73	1.489704	1.489704
74	1.514423	1.514423
75	1.543857	1.543857
76	1.56993	1.56993
77	1.591194	1.591194
78	1.617185	1.617185
79	1.6521	1.6521
80	1.678555	1.678555
81	1.711775	1.711775
82	1.747795	1.747795
83	1.765618	1.765618
84	1.78813	1.78813
85	1.81314	1.81314
86	1.829806	1.829806
87	1.843549	1.843549
88	1.874715	1.874715
89	1.879368	1.879368
90	1.876085	1.876085
91	1.870269	1.870269
92	1.834642	1.834642
93	1.763665	1.763665
94	1.661983	1.661983
95	1.527612	1.527612
96	1.331897	1.331897
97	1.083131	1.083131
98	0.772657	0.772657
99	0.421511	0.421511
100	0.153952	0.153952

