## htsjdk.samtools.metrics.StringHeader
# picard.analysis.CollectRnaSeqMetrics REF_FLAT=/ref/genomes/hg19/refFlat.txt.gz RIBOSOMAL_INTERVALS=/ref/genomes/hg19/hg19.rRNA.interval_list STRAND_SPECIFICITY=NONE METRIC_ACCUMULATION_LEVEL=[ALL_READS, READ_GROUP] INPUT=/data/dumitriu_rna_data/results/bamfiles/SRR2015771.bam OUTPUT=/data/dumitriu_rna_data/results/QC_postAln/SRR2015771_picardRNAmetrics.txt    MINIMUM_LENGTH=500 RRNA_FRAGMENT_PERCENTAGE=0.8 ASSUME_SORTED=true STOP_AFTER=0 VERBOSITY=INFO QUIET=false VALIDATION_STRINGENCY=STRICT COMPRESSION_LEVEL=5 MAX_RECORDS_IN_RAM=500000 CREATE_INDEX=false CREATE_MD5_FILE=false GA4GH_CLIENT_SECRETS=client_secrets.json
## htsjdk.samtools.metrics.StringHeader
# Started on: Tue May 29 15:17:48 CEST 2018

## METRICS CLASS	picard.analysis.RnaSeqMetrics
PF_BASES	PF_ALIGNED_BASES	RIBOSOMAL_BASES	CODING_BASES	UTR_BASES	INTRONIC_BASES	INTERGENIC_BASES	IGNORED_READS	CORRECT_STRAND_READS	INCORRECT_STRAND_READS	PCT_RIBOSOMAL_BASES	PCT_CODING_BASES	PCT_UTR_BASES	PCT_INTRONIC_BASES	PCT_INTERGENIC_BASES	PCT_MRNA_BASES	PCT_USABLE_BASES	PCT_CORRECT_STRAND_READS	MEDIAN_CV_COVERAGE	MEDIAN_5PRIME_BIAS	MEDIAN_3PRIME_BIAS	MEDIAN_5PRIME_TO_3PRIME_BIAS	SAMPLE	LIBRARY	READ_GROUP
9366328799	9120096977	11156	3151165586	3802183072	761727154	1405010168	0	0	0	0.000001	0.345519	0.416902	0.083522	0.154056	0.76242	0.742377	0	0.542177	0.066853	0.3507	0.230746			
9366328799	9120096977	11156	3151165586	3802183072	761727154	1405010168	0	0	0	0.000001	0.345519	0.416902	0.083522	0.154056	0.76242	0.742377	0	0.542177	0.066853	0.3507	0.230746	SRR2015771	LIB-SRR2015771	DUMITRIU.s1.71

## HISTOGRAM	java.lang.Integer
normalized_position	All_Reads.normalized_coverage	DUMITRIU.s1.71.normalized_coverage
0	0.028385	0.028385
1	0.044949	0.044949
2	0.089046	0.089046
3	0.157089	0.157089
4	0.224977	0.224977
5	0.297703	0.297703
6	0.364575	0.364575
7	0.428051	0.428051
8	0.49095	0.49095
9	0.549416	0.549416
10	0.597875	0.597875
11	0.641544	0.641544
12	0.680614	0.680614
13	0.71323	0.71323
14	0.741488	0.741488
15	0.768877	0.768877
16	0.795179	0.795179
17	0.822048	0.822048
18	0.844876	0.844876
19	0.864456	0.864456
20	0.879119	0.879119
21	0.891922	0.891922
22	0.90299	0.90299
23	0.919521	0.919521
24	0.934099	0.934099
25	0.950431	0.950431
26	0.966772	0.966772
27	0.970677	0.970677
28	0.980023	0.980023
29	0.995224	0.995224
30	1.013644	1.013644
31	1.028529	1.028529
32	1.037513	1.037513
33	1.041907	1.041907
34	1.051019	1.051019
35	1.061579	1.061579
36	1.063884	1.063884
37	1.066015	1.066015
38	1.071431	1.071431
39	1.077898	1.077898
40	1.081974	1.081974
41	1.087464	1.087464
42	1.095122	1.095122
43	1.104618	1.104618
44	1.114563	1.114563
45	1.119185	1.119185
46	1.121839	1.121839
47	1.135037	1.135037
48	1.150374	1.150374
49	1.159317	1.159317
50	1.167566	1.167566
51	1.171562	1.171562
52	1.176991	1.176991
53	1.200837	1.200837
54	1.213466	1.213466
55	1.224373	1.224373
56	1.233771	1.233771
57	1.237159	1.237159
58	1.238411	1.238411
59	1.237593	1.237593
60	1.244382	1.244382
61	1.251223	1.251223
62	1.256504	1.256504
63	1.257652	1.257652
64	1.261924	1.261924
65	1.269606	1.269606
66	1.27876	1.27876
67	1.290791	1.290791
68	1.303813	1.303813
69	1.312494	1.312494
70	1.31581	1.31581
71	1.317584	1.317584
72	1.317804	1.317804
73	1.320883	1.320883
74	1.314246	1.314246
75	1.315725	1.315725
76	1.327122	1.327122
77	1.326038	1.326038
78	1.31655	1.31655
79	1.315816	1.315816
80	1.322088	1.322088
81	1.33096	1.33096
82	1.326671	1.326671
83	1.305664	1.305664
84	1.285275	1.285275
85	1.263528	1.263528
86	1.23425	1.23425
87	1.220335	1.220335
88	1.229994	1.229994
89	1.215698	1.215698
90	1.184246	1.184246
91	1.157587	1.157587
92	1.105394	1.105394
93	1.03659	1.03659
94	0.94172	0.94172
95	0.832859	0.832859
96	0.719105	0.719105
97	0.56504	0.56504
98	0.371135	0.371135
99	0.168773	0.168773
100	0.049768	0.049768

