## htsjdk.samtools.metrics.StringHeader
# picard.analysis.CollectRnaSeqMetrics REF_FLAT=/ref/genomes/hg19/refFlat.txt.gz RIBOSOMAL_INTERVALS=/ref/genomes/hg19/hg19.rRNA.interval_list STRAND_SPECIFICITY=NONE METRIC_ACCUMULATION_LEVEL=[ALL_READS, READ_GROUP] INPUT=/data/dumitriu_rna_data/results/bamfiles/SRR2015775.bam OUTPUT=/data/dumitriu_rna_data/results/QC_postAln/SRR2015775_picardRNAmetrics.txt    MINIMUM_LENGTH=500 RRNA_FRAGMENT_PERCENTAGE=0.8 ASSUME_SORTED=true STOP_AFTER=0 VERBOSITY=INFO QUIET=false VALIDATION_STRINGENCY=STRICT COMPRESSION_LEVEL=5 MAX_RECORDS_IN_RAM=500000 CREATE_INDEX=false CREATE_MD5_FILE=false GA4GH_CLIENT_SECRETS=client_secrets.json
## htsjdk.samtools.metrics.StringHeader
# Started on: Tue May 29 15:03:46 CEST 2018

## METRICS CLASS	picard.analysis.RnaSeqMetrics
PF_BASES	PF_ALIGNED_BASES	RIBOSOMAL_BASES	CODING_BASES	UTR_BASES	INTRONIC_BASES	INTERGENIC_BASES	IGNORED_READS	CORRECT_STRAND_READS	INCORRECT_STRAND_READS	PCT_RIBOSOMAL_BASES	PCT_CODING_BASES	PCT_UTR_BASES	PCT_INTRONIC_BASES	PCT_INTERGENIC_BASES	PCT_MRNA_BASES	PCT_USABLE_BASES	PCT_CORRECT_STRAND_READS	MEDIAN_CV_COVERAGE	MEDIAN_5PRIME_BIAS	MEDIAN_3PRIME_BIAS	MEDIAN_5PRIME_TO_3PRIME_BIAS	SAMPLE	LIBRARY	READ_GROUP
6446499729	6289018758	12524	2006377248	2644472358	544952705	1093204117	0	0	0	0.000002	0.319029	0.42049	0.086651	0.173827	0.739519	0.721453	0	0.561646	0.059103	0.403259	0.17358			
6446499729	6289018758	12524	2006377248	2644472358	544952705	1093204117	0	0	0	0.000002	0.319029	0.42049	0.086651	0.173827	0.739519	0.721453	0	0.561646	0.059103	0.403259	0.17358	SRR2015775	LIB-SRR2015775	DUMITRIU.s1.75

## HISTOGRAM	java.lang.Integer
normalized_position	All_Reads.normalized_coverage	DUMITRIU.s1.75.normalized_coverage
0	0.025524	0.025524
1	0.038904	0.038904
2	0.075713	0.075713
3	0.135672	0.135672
4	0.1988	0.1988
5	0.267918	0.267918
6	0.330152	0.330152
7	0.392648	0.392648
8	0.456346	0.456346
9	0.513993	0.513993
10	0.559823	0.559823
11	0.603312	0.603312
12	0.641263	0.641263
13	0.677471	0.677471
14	0.706013	0.706013
15	0.729404	0.729404
16	0.75082	0.75082
17	0.771353	0.771353
18	0.793872	0.793872
19	0.812745	0.812745
20	0.829562	0.829562
21	0.839836	0.839836
22	0.848722	0.848722
23	0.86872	0.86872
24	0.886618	0.886618
25	0.903007	0.903007
26	0.916833	0.916833
27	0.92372	0.92372
28	0.933825	0.933825
29	0.952531	0.952531
30	0.969748	0.969748
31	0.978788	0.978788
32	0.988751	0.988751
33	0.998094	0.998094
34	1.008518	1.008518
35	1.021082	1.021082
36	1.025922	1.025922
37	1.033337	1.033337
38	1.043635	1.043635
39	1.051241	1.051241
40	1.056047	1.056047
41	1.063299	1.063299
42	1.073214	1.073214
43	1.084107	1.084107
44	1.097342	1.097342
45	1.10431	1.10431
46	1.108012	1.108012
47	1.123156	1.123156
48	1.134306	1.134306
49	1.145688	1.145688
50	1.153106	1.153106
51	1.161359	1.161359
52	1.16866	1.16866
53	1.19117	1.19117
54	1.205154	1.205154
55	1.215822	1.215822
56	1.226463	1.226463
57	1.229186	1.229186
58	1.232791	1.232791
59	1.233781	1.233781
60	1.242418	1.242418
61	1.247889	1.247889
62	1.251256	1.251256
63	1.252682	1.252682
64	1.259355	1.259355
65	1.2722	1.2722
66	1.286781	1.286781
67	1.301566	1.301566
68	1.312483	1.312483
69	1.321494	1.321494
70	1.328477	1.328477
71	1.335735	1.335735
72	1.337048	1.337048
73	1.343692	1.343692
74	1.346016	1.346016
75	1.354381	1.354381
76	1.36227	1.36227
77	1.360855	1.360855
78	1.354667	1.354667
79	1.35943	1.35943
80	1.372748	1.372748
81	1.392203	1.392203
82	1.386954	1.386954
83	1.367887	1.367887
84	1.348682	1.348682
85	1.333784	1.333784
86	1.31051	1.31051
87	1.298442	1.298442
88	1.307884	1.307884
89	1.299694	1.299694
90	1.275067	1.275067
91	1.252282	1.252282
92	1.205525	1.205525
93	1.134448	1.134448
94	1.036708	1.036708
95	0.927807	0.927807
96	0.802085	0.802085
97	0.631429	0.631429
98	0.420407	0.420407
99	0.199356	0.199356
100	0.0636	0.0636

