## htsjdk.samtools.metrics.StringHeader
# picard.analysis.CollectRnaSeqMetrics REF_FLAT=/ref/genomes/hg19/refFlat.txt.gz RIBOSOMAL_INTERVALS=/ref/genomes/hg19/hg19.rRNA.interval_list STRAND_SPECIFICITY=NONE METRIC_ACCUMULATION_LEVEL=[ALL_READS, READ_GROUP] INPUT=/data/dumitriu_rna_data/results/bamfiles/SRR2015760.bam OUTPUT=/data/dumitriu_rna_data/results/QC_postAln/SRR2015760_picardRNAmetrics.txt    MINIMUM_LENGTH=500 RRNA_FRAGMENT_PERCENTAGE=0.8 ASSUME_SORTED=true STOP_AFTER=0 VERBOSITY=INFO QUIET=false VALIDATION_STRINGENCY=STRICT COMPRESSION_LEVEL=5 MAX_RECORDS_IN_RAM=500000 CREATE_INDEX=false CREATE_MD5_FILE=false GA4GH_CLIENT_SECRETS=client_secrets.json
## htsjdk.samtools.metrics.StringHeader
# Started on: Wed May 30 05:39:43 CEST 2018

## METRICS CLASS	picard.analysis.RnaSeqMetrics
PF_BASES	PF_ALIGNED_BASES	RIBOSOMAL_BASES	CODING_BASES	UTR_BASES	INTRONIC_BASES	INTERGENIC_BASES	IGNORED_READS	CORRECT_STRAND_READS	INCORRECT_STRAND_READS	PCT_RIBOSOMAL_BASES	PCT_CODING_BASES	PCT_UTR_BASES	PCT_INTRONIC_BASES	PCT_INTERGENIC_BASES	PCT_MRNA_BASES	PCT_USABLE_BASES	PCT_CORRECT_STRAND_READS	MEDIAN_CV_COVERAGE	MEDIAN_5PRIME_BIAS	MEDIAN_3PRIME_BIAS	MEDIAN_5PRIME_TO_3PRIME_BIAS	SAMPLE	LIBRARY	READ_GROUP
6833941845	6660166719	20045	2140065037	2875808933	627410757	1016862157	0	0	0	0.000003	0.321323	0.431792	0.094203	0.152678	0.753115	0.733965	0	0.574398	0.065785	0.411857	0.185288			
6833941845	6660166719	20045	2140065037	2875808933	627410757	1016862157	0	0	0	0.000003	0.321323	0.431792	0.094203	0.152678	0.753115	0.733965	0	0.574398	0.065785	0.411857	0.185288	SRR2015760	LIB-SRR2015760	DUMITRIU.s1.60

## HISTOGRAM	java.lang.Integer
normalized_position	All_Reads.normalized_coverage	DUMITRIU.s1.60.normalized_coverage
0	0.023537	0.023537
1	0.038576	0.038576
2	0.077322	0.077322
3	0.135374	0.135374
4	0.196359	0.196359
5	0.261639	0.261639
6	0.319774	0.319774
7	0.37654	0.37654
8	0.43412	0.43412
9	0.488232	0.488232
10	0.534543	0.534543
11	0.578098	0.578098
12	0.61719	0.61719
13	0.651427	0.651427
14	0.681482	0.681482
15	0.710107	0.710107
16	0.740631	0.740631
17	0.76855	0.76855
18	0.790545	0.790545
19	0.809244	0.809244
20	0.822984	0.822984
21	0.833401	0.833401
22	0.844798	0.844798
23	0.861664	0.861664
24	0.876233	0.876233
25	0.88929	0.88929
26	0.90448	0.90448
27	0.910212	0.910212
28	0.91958	0.91958
29	0.935599	0.935599
30	0.953003	0.953003
31	0.967624	0.967624
32	0.978481	0.978481
33	0.985881	0.985881
34	0.996289	0.996289
35	1.010267	1.010267
36	1.013414	1.013414
37	1.018547	1.018547
38	1.025132	1.025132
39	1.031021	1.031021
40	1.037796	1.037796
41	1.043761	1.043761
42	1.051892	1.051892
43	1.063603	1.063603
44	1.079228	1.079228
45	1.089117	1.089117
46	1.096115	1.096115
47	1.114797	1.114797
48	1.130807	1.130807
49	1.14082	1.14082
50	1.150034	1.150034
51	1.155382	1.155382
52	1.161975	1.161975
53	1.18236	1.18236
54	1.194975	1.194975
55	1.208495	1.208495
56	1.222243	1.222243
57	1.227404	1.227404
58	1.232193	1.232193
59	1.236605	1.236605
60	1.24683	1.24683
61	1.254413	1.254413
62	1.262356	1.262356
63	1.267022	1.267022
64	1.274484	1.274484
65	1.286741	1.286741
66	1.297371	1.297371
67	1.311653	1.311653
68	1.321634	1.321634
69	1.328101	1.328101
70	1.334192	1.334192
71	1.338831	1.338831
72	1.338875	1.338875
73	1.348093	1.348093
74	1.349701	1.349701
75	1.360737	1.360737
76	1.374352	1.374352
77	1.37912	1.37912
78	1.377842	1.377842
79	1.381466	1.381466
80	1.390281	1.390281
81	1.403236	1.403236
82	1.403078	1.403078
83	1.392814	1.392814
84	1.379537	1.379537
85	1.364242	1.364242
86	1.340942	1.340942
87	1.330998	1.330998
88	1.346276	1.346276
89	1.334154	1.334154
90	1.304948	1.304948
91	1.27928	1.27928
92	1.231335	1.231335
93	1.157136	1.157136
94	1.060033	1.060033
95	0.946681	0.946681
96	0.82242	0.82242
97	0.6527	0.6527
98	0.435228	0.435228
99	0.203969	0.203969
100	0.064946	0.064946

