GeneSymbol	EnsemblID	log2FoldChange_PW	direction_PW	pvalue_PW	padj_PW	log2FoldChange_NBB	direction_NBB	pvalue_NBB	padj_NBB
C7orf61	ENSG00000185955	1.9275312648646603	1	1.5685129659272774e-8	1.6055298719231612e-4	1.465773477690522	1	0.002832815934336893	0.9999622842667168
PIK3IP1	ENSG00000100100	-1.0509287460638388	-1	1.1546552957847695e-5	0.011080360882174595	-0.5749728590439893	-1	0.0073770571728589435	0.9999622842667168
hsa-mir-6723	ENSG00000237973	-1.000686162227028	-1	0.0041096123271496705	0.13235366878585947	-3.427289586799055	-1	2.7641854476991e-5	0.2714929711490567
PLK4	ENSG00000142731	-1.359236106642725	-1	6.8129684109858415e-6	0.008717193081856384	-0.6755188081786324	-1	0.030775249545729404	0.9999622842667168
COL6A4P2	ENSG00000228252	-1.3230048559374183	-1	2.7984000330476394e-5	0.014775762704116843	-1.4359796973653771	-1	0.01148592337739431	0.9999622842667168
NUP210L	ENSG00000143552	1.4217354233988129	1	0.00019979565941317546	0.03858695037270309	1.2032719262629252	1	0.0020695043741198378	0.9999622842667168
RP11-760D2.11	ENSG00000261275	-1.917654253062892	-1	0.0018482170513275456	0.09857813023064234	-2.344503358709678	-1	2.850607235546496e-4	0.9084600198963128
CCNA2	ENSG00000145386	1.282249214856496	1	2.0485701989391185e-5	0.014306951058674217	0.9502618589204017	1	0.03206768225021539	0.9999622842667168
DSC2	ENSG00000134755	-0.7238056704780674	-1	4.538541635540608e-5	0.01689779385116012	-0.6026624058728723	-1	0.01801353958208105	0.9999622842667168
CD109	ENSG00000156535	-1.0871274710942451	-1	2.9911059836570207e-5	0.014775762704116843	-0.467706225680647	-1	0.03424805723850515	0.9999622842667168
RBM14	ENSG00000239306	0.7899421929533945	1	1.813652534387249e-4	0.03712909468397576	0.4755157001096804	1	0.01712439063886497	0.9999622842667168
SLC2A3P2	ENSG00000185031	-1.6070639271576186	-1	9.461078609617797e-4	0.07311391368123343	-1.1946809552970126	-1	0.005249228733820851	0.9999622842667168
RP11-678G14.3	ENSG00000268555	-1.4709304772304745	-1	2.776702884765684e-4	0.04417978869709049	-1.6958933532766929	-1	0.019708932911655926	0.9999622842667168
RP3-437I16.1	ENSG00000230523	1.5155292632315185	1	2.4031107358773066e-4	0.04099706915406685	1.8926395425716371	1	0.023980051028817645	0.9999622842667168
MAMDC4	ENSG00000177943	0.9591948216671188	1	0.0027677708538173876	0.11377872473764972	0.7806626591235674	1	0.0020932311064259584	0.9999622842667168
LCN10	ENSG00000187922	1.5453384912955483	1	0.0013795917882011533	0.08593205807724344	1.6670969257014376	1	0.004244524962643815	0.9999622842667168
HLA-A	ENSG00000206503	-0.9376901092570151	-1	0.0031198968631534927	0.11894380619263453	-0.8265404627745294	-1	0.001895232357589702	0.9999622842667168
MDK	ENSG00000110492	-0.5923983321124542	-1	0.00716668381424119	0.16497340822167803	-0.8417918144732366	-1	8.732713023066646e-4	0.9999622842667168
CTAGE7P	ENSG00000233122	0.8394236343472536	1	3.061928502005937e-4	0.046077434929162005	0.8825435905166743	1	0.021951536835198262	0.9999622842667168
TLR9	ENSG00000239732	1.76073136126955	1	2.7000344350754346e-4	0.04379140942038684	1.4502306933446134	1	0.03139749307678832	0.9999622842667168
VWF	ENSG00000110799	-0.9207875035748381	-1	2.2040536151779735e-4	0.03932752635686829	-0.6330050128738773	-1	0.04038506056178948	0.9999622842667168
JMJD6	ENSG00000070495	0.92959831964375	1	2.3165068117254797e-4	0.03996364672722811	0.5313501120496356	1	0.04166139450368359	0.9999622842667168
ALB	ENSG00000163631	-2.620220506705006	-1	3.168609505876451e-4	0.04723381587691944	-1.4515999846422147	-1	0.03847805220889456	0.9999622842667168
ZNF572	ENSG00000180938	-0.8406101319837603	-1	3.657532381377766e-4	0.050365697025716784	-0.6351851794818915	-1	0.03335805443942905	0.9999622842667168
CCDC15	ENSG00000149548	-0.9789095805536839	-1	4.03486207054536e-4	0.0531770577091446	-0.6620873436184007	-1	0.03211651047227992	0.9999622842667168
MST1L	ENSG00000186715	0.92092612167433	1	0.004750657595333254	0.140938044736566	1.1991818371077514	1	0.002956433560816492	0.9999622842667168
SLC44A2	ENSG00000129353	-0.6828218864722305	-1	6.158278225099935e-4	0.06282274031329119	-0.5069651379785942	-1	0.022816118709839957	0.9999622842667168
RCC1	ENSG00000180198	0.8775960020152574	1	3.50239705122768e-4	0.048887094840499815	0.48817646007275817	1	0.046157452085784464	0.9999622842667168
CTA-299D3.8	ENSG00000219016	1.2954841777174202	1	3.333323133822019e-4	0.04828287112896536	0.8779824260522331	1	0.04934748324188603	0.9999622842667168
SPINK7	ENSG00000145879	0.8863994978927352	1	5.587346737798884e-4	0.06162536196512783	1.133772087793161	1	0.029579371171343734	0.9999622842667168
CTD-2173L22.4	ENSG00000198416	-0.9381749857877587	-1	3.392778987292603e-4	0.0483953641410079	-0.49580087824466895	-1	0.04916529177985824	0.9999622842667168
ZNF730	ENSG00000183850	-0.9703373979567809	-1	6.206143827233422e-4	0.06282274031329119	-0.7932852194149399	-1	0.03301932641853076	0.9999622842667168
RP5-1057J7.6	ENSG00000261326	0.57415513864855094	1	0.0012281608862158716	0.08280397237885506	0.6758159528265124	1	0.018028800667863464	0.9999622842667168
MASP1	ENSG00000127241	-0.7574048365125525	-1	8.90375046377763e-4	0.07193673610564122	-0.47477175398448396	-1	0.029188916715833457	0.9999622842667168
ZNF852	ENSG00000178917	0.6060587782767364	1	7.525812109432581e-4	0.06817186969216982	0.5819253866371639	1	0.03454585599506501	0.9999622842667168
FAM86JP	ENSG00000171084	-1.093778328683154	-1	0.0012112100031950283	0.08246430316162776	-1.1778826687581319	-1	0.021741961656661524	0.9999622842667168
RP11-345J13.1	ENSG00000226080	0.9919877871890755	1	0.001398659085033666	0.08624502647231691	1.5388946836360944	1	0.01983491008641436	0.9999622842667168
F5	ENSG00000198734	-0.972776055485085	-1	0.0034878337670388067	0.12381977387212736	-0.7899067211338183	-1	0.008027131453332722	0.9999622842667168
AL031666.2	ENSG00000267882	0.753483004176588	1	5.920737915309971e-4	0.061841503368482514	0.6504760842385795	1	0.047567296197192174	0.9999622842667168
AC067959.1	ENSG00000233005	-2.4999234503691334	-1	0.0020942388936578673	0.10491009452927536	-2.4290380421041213	-1	0.014197243628411042	0.9999622842667168
HSPA8P11	ENSG00000248159	1.5516520990564864	1	7.21256206474891e-4	0.06711616844979076	1.4527352788278354	1	0.04514529223240643	0.9999622842667168
NOS2P3	ENSG00000230528	0.9767953391432571	1	0.0014073431441090738	0.08643338653860287	0.990816180849138	1	0.02504107665665744	0.9999622842667168
ABCA17P	ENSG00000238098	0.7341335878848233	1	7.466383208712945e-4	0.0678336377435376	0.49988684632784186	1	0.047595483879229974	0.9999622842667168
BANP	ENSG00000172530	0.6221972703528617	1	0.001230605024580201	0.08280397237885506	0.5052383297391169	1	0.03115879798574371	0.9999622842667168
RP4-625H18.2	ENSG00000228412	-1.5391299851770965	-1	0.0019554666758151863	0.10126217652771119	-1.783304164182886	-1	0.020654395345208573	0.9999622842667168
FOLH1	ENSG00000086205	-0.67027672083439	-1	0.0015644545749841808	0.09098725584964815	-0.37127833274885874	-1	0.02631016250635695	0.9999622842667168
CD22	ENSG00000012124	0.7534155254764289	1	0.014065079147852386	0.22102270448851608	0.9895814242212027	1	0.002978221568462272	0.9999622842667168
MPO	ENSG00000005381	-1.5092812876336144	-1	0.003312826954588366	0.1225666146042163	-1.1315758811248715	-1	0.012661741565027185	0.9999622842667168
RP11-754B17.1	ENSG00000255158	0.8585158551566693	1	0.0011842252340748358	0.08117229573207603	0.8916258135650496	1	0.03737368650478131	0.9999622842667168
FAM225B	ENSG00000225684	-1.1558579531036925	-1	0.0035512390793087374	0.12461838860493192	-1.4010929053989634	-1	0.013243267711774845	0.9999622842667168
DNAJB1	ENSG00000132002	1.6772767718404331	1	0.007734608340827594	0.17089580971298005	0.8372507201318076	1	0.00633988953739292	0.9999622842667168
CHORDC1	ENSG00000110172	1.2080498243470108	1	0.006644927222723178	0.1609884922481173	0.8312667658049316	1	0.007864458932993984	0.9999622842667168
FAM83D	ENSG00000101447	0.62366281991734	1	0.0013553484264210265	0.08593205807724344	0.5098013824836718	1	0.04084111294296513	0.9999622842667168
RP11-222A5.1	ENSG00000224718	1.4780122545085004	1	0.0025768263072331755	0.11161412416543928	2.4048137802755742	1	0.02366435251028518	0.9999622842667168
CTNNBIP1	ENSG00000178585	-0.5218618252458814	-1	0.0023502944766230142	0.10947352341555439	-0.4209620548835829	-1	0.025951312896941567	0.9999622842667168
METTL21C	ENSG00000139780	1.1205112885574722	1	0.001304361373436114	0.08414775011654661	0.817464725134369	1	0.04694700659564371	0.9999622842667168
HSPE1-MOB4	ENSG00000270757	1.5502728892577178	1	0.007053211065364656	0.1635876173679893	2.469700364497144	1	0.009146860148510357	0.9999622842667168
AP001055.1	ENSG00000267913	-1.304257118062937	-1	0.0016604972018988149	0.09338928219030918	-1.4894515014428418	-1	0.04360951696383389	0.9999622842667168
HSPH1	ENSG00000120694	1.1129678068752595	1	0.002179059490521096	0.10645228384769384	0.4251273256369354	1	0.0342855398496394	0.9999622842667168
CTD-2165H16.4	ENSG00000261360	0.7827947744468524	1	0.0048686006157505415	0.14201862073515614	0.9742746814736533	1	0.01577357839921319	0.9999622842667168
RP11-210N13.1	ENSG00000257896	0.7056760379670202	1	0.0016846926409531525	0.0936499558572937	0.6877948961088867	1	0.04616228721777358	0.9999622842667168
CLEC18A	ENSG00000157322	1.2556280995692477	1	0.0021354005584322076	0.1062785743084866	0.7741724124919184	1	0.03669169337736218	0.9999622842667168
TDRD1	ENSG00000095627	0.5855351711143933	1	0.012853620876717771	0.21186741271188902	1.1178704410924702	1	0.006484721486952806	0.9999622842667168
BMS1P10	ENSG00000237238	-0.7537450615781186	-1	0.006760936034992285	0.16194283460390166	-0.6224793821816266	-1	0.01295825114021606	0.9999622842667168
PRLR	ENSG00000113494	1.2005325381388074	1	0.001924910219005644	0.10018668305970393	0.4776713219122651	1	0.045971423288192835	0.9999622842667168
ALDH1L1-AS2	ENSG00000246022	-0.8749727485486393	-1	0.002398054994655124	0.1100725048845444	-0.7503923791005488	-1	0.03690279382824885	0.9999622842667168
LYZ	ENSG00000090382	-0.96828966431445	-1	0.006030125757349113	0.15548987165486916	-0.7146823464101818	-1	0.015767761019701374	0.9999622842667168
DNASE1L2	ENSG00000167968	0.8557826767486164	1	0.005323752036377567	0.147695841568487	0.9134232118452394	1	0.01786398626096582	0.9999622842667168
MIR421	ENSG00000202566	0.9396825610044718	1	0.0030054219876956643	0.11668949965785066	0.9471761124061538	1	0.03952388889230706	0.9999622842667168
ZNF605	ENSG00000196458	0.3085054185870808	1	0.006587856908132358	0.1605678305065132	0.42034745626327463	1	0.01819116758457855	0.9999622842667168
RAB39A	ENSG00000179331	0.8577082222236638	1	0.005088057981635594	0.1444030355823159	0.5590391548482682	1	0.024612918516683534	0.9999622842667168
CCDC154	ENSG00000197599	0.9026225027330419	1	0.003434822713097752	0.1237282851151178	0.8191346202248612	1	0.03753006432638188	0.9999622842667168
CELSR1	ENSG00000075275	0.7302284017771496	1	0.005852663314842428	0.1539491991393007	0.8192624330290722	1	0.022173354760479023	0.9999622842667168
HSD11B1	ENSG00000117594	1.044778152811523	1	0.009423563069297139	0.1850388322030008	0.603805622865865	1	0.014055698060537572	0.9999622842667168
H6PD	ENSG00000049239	-0.48597385974725815	-1	0.005139121399448904	0.14505792768724354	-0.426400546015171	-1	0.025855213160123763	0.9999622842667168
MIR1302-9	ENSG00000227518	0.2978610981211447	1	0.014658557040318565	0.22467182660042845	0.7021037285822318	1	0.010099791439549605	0.9999622842667168
AC139100.2	ENSG00000267270	1.0695720622474685	1	0.003362825508066749	0.12308455807900331	0.5867592886170876	1	0.04519225529586128	0.9999622842667168
ARAP3	ENSG00000120318	-0.5150667541011019	-1	0.008038376952368972	0.17369357684274936	-0.5529378379757166	-1	0.02218099741535631	0.9999622842667168
CTC-498M16.3	ENSG00000250306	1.0607663370863414	1	0.006082572365589741	0.15615089346686595	1.7032039523810867	1	0.03104103441119283	0.9999622842667168
FAM167A	ENSG00000154319	-0.6322099864759069	-1	0.008504671860975449	0.17670705323096556	-0.4119223618636329	-1	0.022478900357969685	0.9999622842667168
P4HA1	ENSG00000122884	0.7598913266984529	1	0.009997303337226785	0.19044490749352364	0.6448288711181691	1	0.019272299893281483	0.9999622842667168
SEC23IP	ENSG00000107651	-0.5067322524345649	-1	0.004471375697853875	0.1366447405487021	-0.4233467490493229	-1	0.04328216805833906	0.9999622842667168
HLA-B	ENSG00000234745	-0.9253237237374745	-1	0.012238223407221496	0.20751593837049018	-0.5817831829224207	-1	0.016975714244435173	0.9999622842667168
DCAF13P2	ENSG00000250816	0.761997621705801	1	0.014538839481962303	0.22421826002050896	1.7861488149383853	1	0.01433818716394421	0.9999622842667168
SLCO2B1	ENSG00000137491	-0.5579719312211083	-1	0.018757626296793433	0.24221507492234748	-0.5354018357400399	-1	0.012056760985498474	0.9999622842667168
RP11-530N7.3	ENSG00000263316	0.701866262141021	1	0.009559659612682727	0.1861345397865948	0.8572451461457544	1	0.02497309033965096	0.9999622842667168
GMPR	ENSG00000137198	-0.8946296946830964	-1	0.008179005137373989	0.17502501028465536	-0.6818604581782343	-1	0.030227857266941886	0.9999622842667168
XPA	ENSG00000136936	-0.4536051507400842	-1	0.006882833695141244	0.16285780436378647	-0.39513622214409766	-1	0.03924690825594489	0.9999622842667168
CTD-2574D22.4	ENSG00000260114	0.3202501262759671	1	0.026295739328010735	0.2763482420549465	0.5921000963577634	1	0.010813069296553778	0.9999622842667168
CNP	ENSG00000173786	-0.5364595590088741	-1	0.009253982157175704	0.18345467016304162	-0.37734671968178735	-1	0.03273226561875051	0.9999622842667168
ZGLP1	ENSG00000220201	0.7757101468021638	1	0.0102885239866635	0.1938506480790026	0.6859486734067943	1	0.03127066340579662	0.9999622842667168
MYO5C	ENSG00000128833	-0.4955626754240754	-1	0.023731367802498723	0.2661588175599455	-0.4208939306104187	-1	0.01601383914505695	0.9999622842667168
CAPG	ENSG00000042493	-0.6765933272695261	-1	0.011730765147541502	0.20296089057025246	-0.6169301870047258	-1	0.03242777643638512	0.9999622842667168
ITPR1-AS1	ENSG00000231249	0.7928393724536195	1	0.008261495239788847	0.1753661060635694	0.8746549588906202	1	0.048135659071525554	0.9999622842667168
SRRT	ENSG00000087087	0.21301664116015226	1	0.012460249952098672	0.20885881852022165	0.3379161341477687	1	0.03289328794217298	0.9999622842667168
AL035706.1	ENSG00000223231	0.9299884429302623	1	0.01697296266386266	0.23577022699603326	2.652087157622436	1	0.02554222898151884	0.9999622842667168
STYXL1	ENSG00000127952	0.42058077642796504	1	0.013795969333713564	0.21985119158724517	0.5439333163680383	1	0.03273085856518918	0.9999622842667168
RP11-446H18.5	ENSG00000239828	0.7904602008807253	1	0.010409474996995726	0.1938925209607683	0.6392646428252949	1	0.04503464465862859	0.9999622842667168
RP5-1180C10.2	ENSG00000230124	0.6293217496315874	1	0.02564547314048204	0.2738851735304496	0.6163123462148778	1	0.01831472517985363	0.9999622842667168
PEBP4	ENSG00000134020	-0.8163413929673078	-1	0.03956779617692533	0.32638741950470523	-0.9458036750496593	-1	0.01232566534715525	0.9999622842667168
SCUBE3	ENSG00000146197	0.4522410926210781	1	0.013821642944622224	0.21985119158724517	0.408953232182886	1	0.035358652975138696	0.9999622842667168
LINC00323	ENSG00000226496	-1.6207561829536512	-1	0.014155687405596775	0.22168954949889022	-1.5596924500500018	-1	0.03569064245047664	0.9999622842667168
BCRP2	ENSG00000169668	0.7754644570490894	1	0.0326357583193134	0.30218413585073844	0.8894279984520527	1	0.015562122687798646	0.9999622842667168
C1orf54	ENSG00000118292	-0.43515321039765453	-1	0.022374390190344255	0.260847674246428	-0.5967768454184562	-1	0.022991567217698704	0.9999622842667168
ATP6V1C2	ENSG00000143882	0.4455873916144131	1	0.040227747929478405	0.32855192057050175	0.7911519404489352	1	0.013698327638737982	0.9999622842667168
CDKL4	ENSG00000205111	-0.4711257702974393	-1	0.027467682257089166	0.28109456138253786	-0.7796800509195024	-1	0.020097212379776727	0.9999622842667168
H1F0	ENSG00000189060	-0.5253714716435662	-1	0.012817244692110423	0.2114079505828758	-0.40466207695284634	-1	0.04640774936720553	0.9999622842667168
AC005329.7	ENSG00000248015	0.9148770147145271	1	0.014716376760477205	0.2250550286657042	1.1126232711486554	1	0.04094461418501929	0.9999622842667168
MANF	ENSG00000145050	0.7061581059750663	1	0.038182461161468804	0.3214371814914074	0.6915658907005771	1	0.015785607148703404	0.9999622842667168
NCOA5	ENSG00000124160	0.22589232224855138	1	0.015473509271706352	0.22801084667058427	0.31245968182454503	1	0.04003996611180113	0.9999622842667168
RP11-150O12.1	ENSG00000253161	-0.6114380267234995	-1	0.02713555339494521	0.2799995207163903	-0.892432992154475	-1	0.023087003829435175	0.9999622842667168
ALOX12	ENSG00000108839	0.5287365118533589	1	0.017247748680597984	0.23714915207681353	0.586758351866957	1	0.037022106492857185	0.9999622842667168
RP11-67L2.2	ENSG00000273033	-0.38239809265074387	-1	0.02007651978580991	0.2487932887742739	-0.3885847415475561	-1	0.03189333182650737	0.9999622842667168
CDH4	ENSG00000179242	-0.4050722519397566	-1	0.015530607193167456	0.22829769539865308	-0.4567452064603729	-1	0.04258375649880007	0.9999622842667168
ERMN	ENSG00000136541	-0.552132570159664	-1	0.017771487749456208	0.2381002414883184	-0.3635652270154247	-1	0.03864550894222552	0.9999622842667168
RP11-244H3.1	ENSG00000241014	-0.41859346305676065	-1	0.03813773105660137	0.3213137403397369	-0.7081576961812315	-1	0.018239027228785735	0.9999622842667168
BPIFB9P	ENSG00000125997	0.6174568909438272	1	0.0266953113878325	0.27745124448835484	0.76819696651057	1	0.02938673202250419	0.9999622842667168
RN7SL525P	ENSG00000264910	0.5216577514286745	1	0.024090892762173553	0.26774633910272366	0.975568803440927	1	0.03303875946900421	0.9999622842667168
CRYL1	ENSG00000165475	-0.5516176261020717	-1	0.02056458998415206	0.2519941856477819	-0.40967184902510373	-1	0.0411900876414885	0.9999622842667168
HKDC1	ENSG00000156510	-0.8189582703251089	-1	0.01963674982112002	0.24674588247904025	-1.0428362043657191	-1	0.04601108222091654	0.9999622842667168
SSPN	ENSG00000123096	-0.6996143440349686	-1	0.03195731984091391	0.3011881128343185	-0.4400379510729263	-1	0.029394670253135673	0.9999622842667168
PAN2	ENSG00000135473	0.31491035667929546	1	0.02940953290022374	0.2899222909470532	0.3851534047908795	1	0.03497010024695063	0.9999622842667168
SLC7A11	ENSG00000151012	-0.5031181599382443	-1	0.040504071686775514	0.32930871944863715	-0.4695232323319959	-1	0.025397754941657875	0.9999622842667168
ANKRD18EP	ENSG00000217165	-0.7030999610012679	-1	0.030303386834989607	0.2938893605420368	-0.5137513686701065	-1	0.03416183188099842	0.9999622842667168
RP11-295H24.3	ENSG00000259531	1.1973148644618796	1	0.025206061355231343	0.2719436974235124	1.892322628062114	1	0.04513142999645559	0.9999622842667168
CTD-2325P2.4	ENSG00000259038	-0.8347780419368425	-1	0.0317794866713115	0.30064216780734243	-0.8602912717443638	-1	0.04115263152543921	0.9999622842667168
SNORD13	ENSG00000239039	-0.950703934019166	-1	0.03961603604460191	0.3264973791888447	-0.8788588263934212	-1	0.0346110519130283	0.9999622842667168
AC007318.5	ENSG00000172974	0.6752703237402095	1	0.042663835229657596	0.3343629858452197	1.5425246143729114	1	0.032943060161687424	0.9999622842667168
PMF1	ENSG00000160783	-0.3995660731409852	-1	0.04058920373527619	0.3294846378966037	-0.5386283760414359	-1	0.03912126547240805	0.9999622842667168
XX-C2158C12.2	ENSG00000213863	0.7942214529751925	1	0.03845412634516688	0.32214194593920153	1.9979217775382963	1	0.04403884726512978	0.9999622842667168
TPPP3	ENSG00000159713	-0.5916855489781276	-1	0.040503090836672535	0.32930871944863715	-0.5795369550697053	-1	0.04546095430859098	0.9999622842667168
RP11-766F14.2	ENSG00000248713	-0.6909228502365349	-1	0.04528037408435658	0.34101226723400796	-0.6226341260071797	-1	0.04158308191221846	0.9999622842667168
CDK2AP2	ENSG00000167797	0.3605526846592733	1	0.0497810651173029	0.35164125018033127	0.47277344516415915	1	0.04574926202858725	0.9999622842667168
ALAS2	ENSG00000158578	-1.8823706367639907	-1	0.049644006156678286	0.3516093849688744	-1.2632197138255448	-1	0.0494781252922306	0.9999622842667168
