Name	padj_before	padj_after	Delta
activation of innate immune response	1.125e-9	0.88706596	-8.89680339163347
regulation of leukocyte proliferation	6.11e-10	0.0735655	-8.08063298082862
regulation of lymphocyte proliferation	7.128e-10	0.08126125	-8.056915807541529
regulation of mononuclear cell proliferation	1.069e-9	0.07262599	-7.832114360308117
innate immune response-activating signal transduction	4.65e-8	0.9976952	-7.3315449299041635
response to interferon-gamma	4.459e-8	0.65837636	-7.16923675613366
regulation of adaptive immune response	5.974e-8	0.62428453	-7.019117354819709
adaptive immune response based on somatic recombination of immune receptors built from immunoglobulin superfamily domains	4.433e-8	0.37904647	-6.931994725179072
blood microparticle	5.144e-8	0.25466212	-6.694663390236179
positive regulation of mononuclear cell proliferation	1.008e-7	0.37479533	-6.5703336387725475
positive regulation of leukocyte proliferation	1.191e-7	0.41682582	-6.54404285172666
regulation of T cell proliferation	8.611e-8	0.28947139	-6.526552057315535
negative regulation of leukocyte activation	8.712e-8	0.28105404	-6.5086719656746785
serine-type endopeptidase activity	8.846e-8	0.26367875	-6.474328196164455
negative regulation of cell activation	8.579e-8	0.20991383	-6.388604384833397
negative regulation of lymphocyte activation	3.957e-8	0.07736893	-6.2912005404094735
regulation of adaptive immune response based on somatic recombination of immune receptors built from immunoglobulin superfamily domains	3.472e-7	0.64484339	-6.268874535933352
positive regulation of lymphocyte proliferation	2.741e-7	0.41210815	-6.177102167834951
regulation of leukocyte mediated immunity	8.555e-7	1	-6.067779986122881
positive regulation of lymphocyte differentiation	4.049e-7	0.43801898	-6.034145152755493
positive regulation of T cell proliferation	6.78e-7	0.73235538	-6.033492182436959
serine-type peptidase activity	4.368e-7	0.30714736	-5.847064157117099
positive regulation of leukocyte cell-cell adhesion	2.154e-6	0.98205583	-5.6588904792238655
positive regulation of T cell activation	2.615e-6	0.96892347	-5.568817782640813
cellular response to interferon-gamma	2.116e-6	0.63151119	-5.47486538703445
lymphocyte mediated immunity	1.469e-6	0.41252134	-5.448424624015745
serine hydrolase activity	1.49e-6	0.35095015	-5.372059163958292
regulation of humoral immune response	4.246e-6	1	-5.37202001017002
regulation of alpha-beta T cell activation	4.725e-6	0.63650011	-5.129396670199206
regulation of lymphocyte mediated immunity	5.044e-6	0.65828931	-5.115641724713886
negative regulation of T cell activation	8.949e-7	0.10667783	-5.076299664772157
positive regulation of leukocyte differentiation	7.664e-6	0.57830156	-4.877698867767739
regulation of cytokine secretion	1.177e-5	0.68071477	-4.762188711089952
regulation of leukocyte mediated cytotoxicity	5.295e-6	0.2614348	-4.693497432274771
positive regulation of adaptive immune response based on somatic recombination of immune receptors built from immunoglobulin superfamily domains	5.113e-6	0.24841257	-4.686497775201181
negative regulation of multi-organism process	1.972e-6	0.0847667	-4.633318365631191
interferon-gamma-mediated signaling pathway	1.649e-5	0.57806124	-4.544753194515141
peptidase regulator activity	1.32e-5	0.46065544	-4.542802273019768
positive regulation of adaptive immune response	9.351e-6	0.30609282	-4.514995085502002
regulation of cytokine biosynthetic process	7.172e-6	0.22071826	-4.488197982897688
negative regulation of leukocyte cell-cell adhesion	4.865e-6	0.13463218	-4.442066033456394
regulation of leukocyte migration	4.337e-5	0.98597318	-4.3566756794695065
positive regulation of hemopoiesis	3.007e-5	0.67192073	-4.34918461198569
regulation of acute inflammatory response	4.674e-5	1	-4.330311291943792
positive regulation of interferon-gamma production	7.025e-5	0.90642738	-4.110686686993272
innate immune response activating cell surface receptor signaling pathway	4.853e-5	0.58773546	-4.083171602594197
negative regulation of cell-cell adhesion	5.15e-6	0.06129756	-4.075635958370761
regulation of leukocyte chemotaxis	8.284e-5	0.94787069	-4.058509004026035
regulation of cell killing	2.298e-5	0.2463973	-4.030285920205357
defense response to bacterium	9.824e-5	1	-4.007711646202908
regulation of protein activation cascade	1.068e-4	1	-3.9714287473074625
regulation of complement activation	1.081e-4	1	-3.96617430604669
positive regulation of alpha-beta T cell activation	6.875e-5	0.58094932	-3.9268655451989516
positive regulation of T cell differentiation	8.367e-5	0.6836534	-3.9122662090237466
stimulatory C-type lectin receptor signaling pathway	7.098e-5	0.5339454	-3.876360854355818
regulation of T cell differentiation	2.278e-5	0.16731765	-3.8659880364810766
negative regulation of peptidase activity	9.907e-5	0.57285134	-3.7620997703287853
negative regulation of mononuclear cell proliferation	4.587e-5	0.26190452	-3.7566142534979803
negative regulation of lymphocyte proliferation	4.587e-5	0.26190452	-3.7566142534979803
negative regulation of endopeptidase activity	9.316e-5	0.51846853	-3.7454929208583194
basement membrane	1.377e-5	0.07247084	-3.721229354940899
B cell mediated immunity	1.933e-4	1	-3.713768145971447
negative regulation of immune response	1.991e-4	1	-3.7009287399725905
cellular defense response	1.704e-4	0.85093913	-3.698428904494573
regulation of CD4-positive, alpha-beta T cell activation	1.001e-4	0.4640954	-3.6661731863404494
peptidase inhibitor activity	1.074e-4	0.46456787	-3.6360448888784997
endopeptidase inhibitor activity	1.074e-4	0.42656733	-3.5989833092153174
regulation of CD4-positive, alpha-beta T cell differentiation	1.387e-4	0.50987571	-3.5653878620057124
pattern recognition receptor signaling pathway	2.914e-4	1	-3.5355104525660286
antigen receptor-mediated signaling pathway	1.547e-4	0.51322186	-3.520814832591182
regulation of interleukin-1 beta secretion	1.834e-4	0.59192819	-3.5088696919794895
regulation of B cell activation	7.151e-5	0.22856831	-3.504649239155038
cytokine binding	3.428e-4	1	-3.4649591867488394
antigen binding	1.269e-4	0.36424729	-3.457934707208204
regulation of tumor necrosis factor production	3.792e-4	1	-3.4211316713339714
B cell activation	1.228e-4	0.30592037	-3.396410029055178
B cell receptor signaling pathway	1.094e-4	0.25948427	-3.375093713947148
regulation of tumor necrosis factor superfamily cytokine production	4.299e-4	1	-3.366632554882993
negative regulation of leukocyte proliferation	1.738e-4	0.37979784	-3.3395027183601034
immunoglobulin mediated immune response	5.213e-4	1	-3.282912275072981
regulation of interferon-gamma production	5.19e-4	0.83614718	-3.207115371547391
endopeptidase regulator activity	3.193e-4	0.50355481	-3.1978478302032936
positive regulation of chemotaxis	1.062e-4	0.16520715	-3.191904322475896
positive regulation of leukocyte chemotaxis	6.694e-4	1	-3.1743142919782414
leukocyte chemotaxis	6.567e-4	0.97346704	-3.170954235317351
positive regulation of angiogenesis	5.774e-4	0.83917353	-3.162374996932221
integrin binding	1.441e-4	0.19500624	-3.1313845277495957
regulation of interleukin-1 beta production	2.84e-4	0.37868702	-3.124962079309373
regulation of T cell mediated immunity	3.846e-4	0.50784994	-3.1207261255757732
cytokine receptor binding	1.817e-4	0.23882949	-3.1187330239329283
regulation of alpha-beta T cell differentiation	6.327e-4	0.81009375	-3.1073374470758734
response to interleukin-7	2.673e-4	0.34054313	-3.1051731646429284
cellular response to interleukin-7	2.673e-4	0.34054313	-3.1051731646429284
positive regulation of lymphocyte mediated immunity	2.5e-4	0.30520689	-3.086654324854596
negative regulation of cytokine secretion	3.844e-4	0.41651676	-3.0348491024463495
protein-DNA complex	6.687e-4	0.6749927	-3.00406775279133
regulation of interleukin-6 production	0.001004	1	-2.9982662871909995
response to chemokine	3.849e-4	0.38206377	-2.996787945659288
cellular response to chemokine	3.849e-4	0.38206377	-2.996787945659288
positive regulation of tumor necrosis factor superfamily cytokine production	0.001042	1	-2.9821322810364945
positive regulation of immune effector process	0.001043	1	-2.981715691573469
B cell differentiation	6.187e-4	0.57776448	-2.97027072260591
cytokine activity	2.331e-4	0.18997653	-2.911157677321267
positive regulation of interleukin-1 beta production	7.036e-4	0.5618998	-2.9023330467287467
serine-type endopeptidase inhibitor activity	1.083e-4	0.08490637	-2.894311817270836
regulation of interleukin-1 secretion	8.375e-4	0.63552835	-2.8801501128616196
neutrophil chemotaxis	0.001321	0.98806677	-2.8738834760244667
regulation of interleukin-1 production	7.008e-4	0.51704067	-2.8679306125294532
Golgi lumen	4.264e-4	0.30255763	-2.8509909135722378
regulation of protein processing	0.00146	1	-2.835647144215563
humoral immune response	0.001474	1	-2.8315025164769674
positive regulation of leukocyte mediated immunity	0.001418	0.95962191	-2.830423924333979
chemokine-mediated signaling pathway	4.98e-4	0.32482608	-2.814421548330918
positive regulation of vasculature development	3.845e-4	0.23836261	-2.7923417880373163
scavenger receptor activity	3.541e-4	0.21502802	-2.783369129150472
nucleosomal DNA binding	0.001219	0.73747073	-2.7817410823514854
granulocyte chemotaxis	0.001316	0.79437048	-2.7807672074740974
positive regulation of alpha-beta T cell differentiation	0.001465	0.8115005	-2.743451167059521
cell chemotaxis	0.001703	0.93433411	-2.739287556086129
neutrophil migration	0.001778	0.96972196	-2.7367154739752726
negative regulation of viral process	7.01e-4	0.38034662	-2.734461543226795
response to type I interferon	1.427e-4	0.07545725	-2.7232770004035505
positive regulation of response to cytokine stimulus	0.00195	0.88236914	-2.6556156993093314
positive regulation of interleukin-1 production	0.001498	0.61807573	-2.615529877107497
granulocyte migration	0.002043	0.81993211	-2.603509527857386
regulation of protein maturation	0.002536	1	-2.595850750790305
negative regulation of adaptive immune response	0.002685	1	-2.571055709964426
defense response to virus	0.002789	1	-2.55455148573395
positive regulation of cytokine-mediated signaling pathway	0.002263	0.80936517	-2.5534599571926475
positive regulation of tumor necrosis factor production	0.002945	1	-2.5309147008768793
cytokine receptor activity	0.002954	0.99994136	-2.529564041248928
positive regulation of leukocyte migration	0.003064	1	-2.513711239039434
positive regulation of inflammatory response	0.003068	1	-2.5131446447230568
regulation of hemostasis	0.003133	0.94544374	-2.4796752957456674
positive regulation of T cell mediated immunity	6.169e-4	0.17477003	-2.4522521905398156
regulation of macrophage migration	0.001305	0.3537215	-2.433050946352448
regulation of blood coagulation	0.003535	0.94789233	-2.4283695909957586
detection of chemical stimulus	0.00137	0.36305351	-2.423250072714559
collagen metabolic process	2.248e-4	0.05218178	-2.3657225825661587
positive regulation of interleukin-6 production	0.004331	1	-2.363411816270158
regulation of coagulation	0.004103	0.93997527	-2.3600149108414903
regulation of leukocyte apoptotic process	0.001175	0.26254679	-2.3491688461931566
regulation of interleukin-12 production	0.0017	0.35811165	-2.323569528224569
regulation of B cell proliferation	0.001614	0.33654769	-2.3191430836013613
collagen binding	0.002341	0.47634839	-2.3085232879965947
positive regulation of cytokine biosynthetic process	0.005282	1	-2.277201603129095
positive regulation of cytokine secretion	0.005416	1	-2.266321344322912
regulation of chemotaxis	0.002618	0.45605031	-2.2410431130597086
positive regulation of NIK/NF-kappaB signaling	0.005555	0.83325197	-2.1760922858293004
lymphocyte migration	0.002294	0.30968791	-2.130330837568822
interleukin-7-mediated signaling pathway	0.002836	0.37425779	-2.120464622233665
cell-substrate adhesion	7.482e-4	0.09725532	-2.11389566329186
negative regulation of coagulation	0.001996	0.25010856	-2.0979680188221224
negative regulation of T cell proliferation	0.001493	0.17292201	-2.0637904672908522
tumor necrosis factor-mediated signaling pathway	0.00571	0.61350968	-2.0311853112009066
positive regulation of JAK-STAT cascade	0.00788	0.83173628	-2.023459428156581
lymphocyte activation involved in immune response	0.01002617	1	-1.9988649359252388
regulation of T cell mediated cytotoxicity	0.002291	0.22583856	-1.9937730067941
myeloid cell differentiation	0.01058537	1	-1.9752939570919081
MHC protein complex	0.0106925	1	-1.9709207410711513
keratinocyte differentiation	0.003322	0.30967668	-1.9695088742106068
leukocyte cell-cell adhesion	0.01063144	0.96544169	-1.958133956196674
positive regulation of leukocyte mediated cytotoxicity	0.002969	0.26031509	-1.9428891465169589
regulation of B cell differentiation	0.003135	0.26890267	-1.9333575692934941
positive regulation of STAT cascade	0.009907	0.84217151	-1.9294583824993516
T cell differentiation	0.01018374	0.84889089	-1.9209445700503216
negative regulation of immune effector process	0.01222711	1	-1.9126761806881671
peptide antigen binding	0.008827	0.70664915	-1.903390714311428
regulation of lymphocyte apoptotic process	0.001414	0.11291872	-1.9023165370589221
positive regulation of B cell activation	0.008085	0.64390921	-1.9011446127204492
positive regulation of CD4-positive, alpha-beta T cell activation	0.008112	0.63248633	-1.8919232015033007
protein activation cascade	0.01310244	1	-1.8826478203854207
regulation of B cell mediated immunity	0.01406926	1	-1.8517287445246151
regulation of immunoglobulin mediated immune response	0.01406926	1	-1.8517287445246151
integrin-mediated signaling pathway	0.01340365	0.93947732	-1.8456632213362385
cytokine production	0.013675	0.94735852	-1.8405870302614051
chromatin assembly	0.00177	0.1219545	-1.8382245636189125
T cell receptor signaling pathway	0.01297202	0.88062954	-1.8317856398342285
positive regulation of cell killing	0.002606	0.17342957	-1.8231487359330032
cell-matrix adhesion	0.001063	0.0705933	-1.8222302196572966
negative regulation of hemostasis	0.004838	0.30523907	-1.7999742576535536
regulation of interleukin-8 production	0.01614531	1	-1.7919536118424295
protein complex involved in cell adhesion	0.01337859	0.8082982	-1.781161267107531
negative regulation of adaptive immune response based on somatic recombination of immune receptors built from immunoglobulin superfamily domains	0.01715194	1	-1.765686751210417
nucleosome assembly	0.002937	0.1706756	-1.7642674917402212
negative regulation of blood coagulation	0.005293	0.30397853	-1.7591410164865438
negative regulation of leukocyte apoptotic process	0.001916	0.10809364	-1.7514046369983727
keratinization	0.003935	0.22021455	-1.7479012735625994
positive regulation of interleukin-1 beta secretion	0.0161525	0.88867343	-1.7405024458978493
positive regulation of CD4-positive, alpha-beta T cell differentiation	0.009216	0.50376072	-1.7376818349306937
positive regulation of ERK1 and ERK2 cascade	0.002291	0.12425893	-1.7343025203718097
proteoglycan binding	0.007009	0.37448687	-1.7277805353856899
regulation of wound healing	0.01687101	0.88598216	-1.7202838942446277
negative regulation of B cell activation	0.008169	0.42810349	-1.7193798722595313
sensory perception of taste	0.003357	0.17445411	-1.715729864289023
lymphocyte chemotaxis	0.005038	0.25893816	-1.7109378944423517
T cell activation involved in immune response	0.01956839	1	-1.7084449046884058
negative regulation of leukocyte mediated immunity	0.01958239	1	-1.708134304337363
integrin complex	0.01917676	0.97610055	-1.706719324460003
regulation of T-helper cell differentiation	0.005447	0.27380341	-1.7012814773450045
positive regulation of interleukin-8 production	0.02010323	1	-1.6967341585756106
positive regulation of tyrosine phosphorylation of STAT protein	0.01964528	0.92778038	-1.6741869610486977
detection of chemical stimulus involved in sensory perception	0.002965	0.13038759	-1.6432115604824522
regulation of NIK/NF-kappaB signaling	0.0237105	1	-1.6250592876518681
antigen processing and presentation of exogenous peptide antigen via MHC class I	0.01989796	0.83468575	-1.6227144456744937
peptide cross-linking	0.003672	0.14713233	-1.6028054400207026
alpha-beta T cell activation	0.02164455	0.85176734	-1.5949724224904485
positive regulation of interleukin-1 secretion	0.02206605	0.85256145	-1.5870010934773895
sensory perception of chemical stimulus	0.009517	0.36518888	-1.5840174754868237
regulation of defense response to virus by host	0.02793296	0.97641866	-1.5435191110177027
regulation of alpha-beta T cell proliferation	0.02240333	0.78261785	-1.5432371730314944
cellular response to interleukin-1	0.008936	0.30619497	-1.5348548919660328
positive regulation of protein kinase B signaling	0.006124	0.2010299	-1.5162254745946377
virus receptor activity	0.01575025	0.5164927	-1.5157767360373584
hijacked molecular function	0.01575025	0.5164927	-1.5157767360373584
digestive system process	0.01770456	0.57811345	-1.5139279355090896
complement activation	0.03191743	1	-1.4959720854213427
myeloid leukocyte migration	0.03117912	0.9736658	-1.4945460621943976
negative regulation of viral transcription	0.008054	0.24429218	-1.4818979397895997
chemokine receptor binding	0.01839069	0.55718077	-1.481398095358081
monocyte chemotaxis	0.0106925	0.31699294	-1.471970330881376
digestion	0.02633149	0.73190643	-1.4439801276788606
nuclear chromosome segregation	0.01081302	0.29873674	-1.4413416311233296
negative regulation of viral genome replication	0.01863519	0.50345637	-1.431628015077775
response to mechanical stimulus	0.03244151	0.84737596	-1.4169750785549862
negative regulation of tumor necrosis factor production	0.03851447	0.98855714	-1.4093778513249724
regulation of symbiosis, encompassing mutualism through parasitism	0.03916892	1	-1.4070584030374484
positive regulation of NF-kappaB transcription factor activity	0.03940259	1	-1.4044752303130286
regulation of cell division	0.0035	0.08486716	-1.3846716248115831
myeloid leukocyte differentiation	0.04202188	1	-1.3765245217691486
epidermal cell differentiation	0.02134937	0.49803533	-1.36787508823196
regulation of tyrosine phosphorylation of STAT protein	0.0434912	1	-1.361598609207774
microvillus	0.04079761	0.93684565	-1.3610333225411821
regulation of macrophage chemotaxis	0.02546152	0.5812601	-1.3584861857103316
cornification	0.0113085	0.25364989	-1.3508296759456515
response to interleukin-1	0.02793913	0.62434919	-1.3492146741819784
regulation of antigen receptor-mediated signaling pathway	0.0398802	0.87215103	-1.3398343703837812
phagocytosis	0.04605104	1	-1.3367605574071755
branching morphogenesis of an epithelial tube	0.003453	0.0728611	-1.3242991452449404
antigen processing and presentation of exogenous peptide antigen via MHC class I, TAP-dependent	0.03757309	0.79185842	-1.3237706262432711
condensed nuclear chromosome	0.02165152	0.45341999	-1.321012272521346
regulation of production of molecular mediator of immune response	0.04816583	1	-1.3172609514929585
platelet alpha granule lumen	0.04852302	1	-1.3140521771269928
chemokine activity	0.01286316	0.26352023	-1.3114662891803406
endodermal cell differentiation	0.009841	0.19611364	-1.2994685687488121
chromosome condensation	0.01004077	0.19288933	-1.28354118559629
dendritic cell migration	0.03501567	0.67129236	-1.2826492638132712
morphogenesis of a branching epithelium	0.00917	0.17233349	-1.274000347517245
protein trimerization	0.01383511	0.25320438	-1.2624885974841764
viral entry into host cell	0.03158798	0.57755992	-1.2620751932026302
alpha-beta T cell differentiation	0.04757269	0.82803548	-1.2406912366934433
mononuclear cell migration	0.02640123	0.45923853	-1.2404141575458165
regulation of T-helper 1 type immune response	0.04921695	0.84154658	-1.2329634626358283
regulation of chemokine production	0.04746192	0.80752602	-1.2308112220484084
regulation of interleukin-17 production	0.04384207	0.71167127	-1.2103883826744757
positive regulation of receptor-mediated endocytosis	0.0489064	0.78315233	-1.2044805487800236
muscle fiber development	0.03983128	0.63546463	-1.20286711978079
morphogenesis of a branching structure	0.01227309	0.19375362	-1.19829590644282
meiosis I cell cycle process	0.006089	0.09509433	-1.1936086488437463
positive regulation of myotube differentiation	0.03294279	0.49885254	-1.1802118100693644
positive regulation of interleukin-12 production	0.009113	0.13439366	-1.1687174111529381
meiosis I	0.006567	0.09422205	-1.1567855327125043
lymph vessel development	0.01743585	0.25007728	-1.1566311128953446
positive regulation of T-helper cell differentiation	0.02793536	0.37429907	-1.1270644756096737
meiotic nuclear division	0.01070761	0.14090205	-1.1192247671272453
chromatin assembly or disassembly	0.03794947	0.49892778	-1.1188319709256571
negative regulation of wound healing	0.03456859	0.45274306	-1.1171701361364503
regulation of tissue remodeling	0.04230912	0.54888225	-1.113045194194423
regulation of myeloid leukocyte differentiation	0.03321224	0.42263791	-1.1046702824571981
synaptonemal complex	0.02724293	0.33631224	-1.0914888591525425
synaptonemal structure	0.02724293	0.33631224	-1.0914888591525425
negative regulation of cell cycle phase transition	0.03327042	0.4028343	-1.0830681588242754
detection of chemical stimulus involved in sensory perception of taste	0.01073443	0.12734671	-1.0742087411782668
endoderm formation	0.02796217	0.32947617	-1.0712531371396916
negative regulation of mitotic cell cycle phase transition	0.03677358	0.42805612	-1.0659647990408114
gene silencing by miRNA	0.00786	0.09092008	-1.0632372631466454
micro-ribonucleoprotein complex	0.008142	0.09379175	-1.0614335411134044
detection of chemical stimulus involved in sensory perception of bitter taste	0.007879	0.09029222	-1.0591792306024221
cellular response to vascular endothelial growth factor stimulus	0.009986	0.11333294	-1.0549645933435667
syncytium formation	0.04219668	0.47646325	-1.052751126403697
chondrocyte development	0.01868611	0.20682693	-1.0440881845341834
regulation of protein kinase B signaling	0.02459701	0.26762843	-1.0366499286804391
sensory perception of bitter taste	0.01603875	0.17202346	-1.030417160631003
positive regulation of cell-substrate adhesion	0.01065491	0.10670428	-1.0006320540344742
regulation of cell-substrate adhesion	0.03553758	0.34336493	-0.9850680855317635
solute:sodium symporter activity	0.02747676	0.26456375	-0.9835648174173746
regulation of megakaryocyte differentiation	0.007678	0.07371135	-0.9822862574569082
negative regulation of production of molecular mediator of immune response	0.01769793	0.16685273	-0.9744108438397552
centriole assembly	0.01959096	0.18084754	-0.9652568876977614
taste receptor activity	0.01950659	0.17171599	-0.9446293822267693
protein binding involved in protein folding	0.01073411	0.08979043	-0.9224640098744523
roof of mouth development	0.04835578	0.39867914	-0.9161751197201179
meiotic cell cycle process	0.02180852	0.17160832	-0.895912145819524
meiotic chromosome segregation	0.03849406	0.29897763	-0.8902449760050746
negative regulation of cell cycle G1/S phase transition	0.04407762	0.33565421	-0.8816739623060579
organic hydroxy compound transport	0.04440713	0.33461433	-0.8770918299200643
detection of stimulus involved in sensory perception	0.01590159	0.1124231	-0.849415004936298
response to prostaglandin	0.03558126	0.2491047	-0.8451605984819875
glycosaminoglycan catabolic process	0.04663006	0.32351176	-0.8412240980907881
protein heterooligomerization	0.01130906	0.07321246	-0.8111584915406163
striated muscle cell development	0.03428934	0.2218509	-0.8109020689821294
chondrocyte development involved in endochondral bone morphogenesis	0.01464408	0.09438897	-0.809259154218763
negative regulation of cytokine biosynthetic process	0.04416954	0.28113451	-0.8037912833106365
heart valve development	0.04241603	0.26874575	-0.8018115873997911
entry into host cell	0.02851151	0.17827734	-0.7960759269222824
entry into host	0.02851151	0.17827734	-0.7960759269222824
entry into cell of other organism involved in symbiotic interaction	0.02851151	0.17827734	-0.7960759269222824
entry into other organism involved in symbiotic interaction	0.02851151	0.17827734	-0.7960759269222824
growth plate cartilage development	0.01008889	0.06213437	-0.7894885123340247
protein tetramerization	0.04394741	0.26921084	-0.7871592577151866
endosome lumen	0.04726356	0.28936578	-0.7869207401630045
hyaluronan metabolic process	0.01423075	0.08512341	-0.7768212237015633
cranial skeletal system development	0.02724668	0.14538604	-0.7272091162912226
posttranscriptional gene silencing by RNA	0.03157358	0.15040699	-0.6779441925130881
reciprocal meiotic recombination	0.04653565	0.22097997	-0.6765671258555933
homologous recombination	0.04653565	0.22097997	-0.6765671258555933
microtubule organizing center part	0.04681814	0.22167614	-0.675304794592273
regulation of endothelial cell migration	0.04763725	0.22165282	-0.6677265784137602
epithelial cell development	0.03161784	0.1412075	-0.6499255667452303
posttranscriptional gene silencing	0.03845558	0.17049985	-0.646764635335163
positive regulation of endothelial cell migration	0.02633729	0.10768958	-0.6116025973840784
chondrocyte differentiation involved in endochondral bone morphogenesis	0.04155626	0.16690524	-0.6038335167914626
sprouting angiogenesis	0.01762567	0.06716567	-0.5810017166397534
odontogenesis	0.04311083	0.16278043	-0.5770158070999751
protein refolding	0.0342771	0.12529666	-0.5629354227763381
positive regulation of epithelial to mesenchymal transition	0.04734983	0.17102621	-0.557744247618935
semi-lunar valve development	0.02063041	0.07382937	-0.5537213034783259
growth plate cartilage chondrocyte differentiation	0.04886499	0.16676919	-0.5331180051598091
oxidoreductase activity, acting on single donors with incorporation of molecular oxygen	0.027365	0.09337288	-0.5330253019459625
regulation of gene silencing	0.0188278	0.06231503	-0.519793232110976
lung development	0.01749378	0.05528979	-0.4997612798373521
gene silencing by RNA	0.03986272	0.11591947	-0.4635894577094014
organic hydroxy compound transmembrane transporter activity	0.04599547	0.13156955	-0.45644032828936454
respiratory tube development	0.0218099	0.06220678	-0.45518404729486406
negative regulation of gene expression, epigenetic	0.03802222	0.10667164	-0.44801150172516124
heart valve morphogenesis	0.04396736	0.12327623	-0.44774895504895185
protein hydroxylation	0.03450761	0.09069301	-0.41965893482649186
steroid dehydrogenase activity	0.0275873	0.05496475	-0.29937505930727104
bone development	0.04403441	0.08103372	-0.2648735946665193
negative regulation of muscle cell apoptotic process	0.04499395	0.06860388	-0.1831945572370819
negative regulation of T cell apoptotic process	0.05742826	0.0449481	0.10641431952838176
heat shock protein binding	0.06702385	0.04784456	0.1463968060932226
regulation of muscle contraction	0.07671517	0.04887245	0.19581714079947954
outflow tract morphogenesis	0.05476381	0.03319459	0.21742634616161238
unfolded protein binding	0.0718386	0.03230453	0.3470944333012418
glomerulus development	0.09217064	0.04108266	0.3509340477635552
positive regulation of muscle cell differentiation	0.10299533	0.03558093	0.46160023812099615
regulation of skeletal muscle tissue development	0.11259695	0.03743828	0.47821073856168694
regulation of embryonic development	0.08304894	0.02429989	0.5337297860280199
germ cell development	0.10347399	0.0297046	0.5420074874114815
outflow tract septum morphogenesis	0.17717148	0.04689005	0.5773131172239603
prostate gland epithelium morphogenesis	0.1857449	0.04811625	0.5866251254631999
regulation of cyclin-dependent protein serine/threonine kinase activity	0.14880372	0.03532422	0.624541207538692
prostate gland morphogenesis	0.17055034	0.03445361	0.69461785614773075
endothelial cell proliferation	0.20612265	0.03403204	0.78223773428593
endochondral ossification	0.29702203	0.04797176	0.7918030096888857
replacement ossification	0.29702203	0.04797176	0.7918030096888857
glandular epithelial cell differentiation	0.25934504	0.02871743	0.955732375354582
positive regulation of cardiocyte differentiation	0.31584911	0.03259909	0.9862741805219919
regulation of muscle tissue development	0.33821598	0.03420033	0.9951638266587093
CENP-A containing nucleosome assembly	0.38898033	0.03723161	1.0190158236851727
CENP-A containing chromatin organization	0.38898033	0.03723161	1.0190158236851727
regulation of striated muscle tissue development	0.28962913	0.02711781	1.0285876261757574
regulation of muscle organ development	0.30479423	0.02828004	1.0325267217990857
prostate gland development	0.41957855	0.03886369	1.033269244487709
regulation of cardiac muscle tissue development	0.59270998	0.04798088	1.0917740309707842
Wnt-protein binding	0.1573293	0.01035146	1.1818080021061683
non-recombinational repair	0.63650506	0.04161374	1.1845651110981308
digestive tract development	0.29589116	0.01625057	1.260263391675664
digestive system development	0.25509658	0.01315024	1.287770957158071
regulation of morphogenesis of a branching structure	0.26747221	0.01134207	1.3725863427941707
negative regulation of MAP kinase activity	0.81699912	0.02864895	1.4551128792885892
regulation of cardiac muscle cell differentiation	0.60171808	0.02094064	1.4584031103558384
positive regulation of muscle tissue development	0.33556074	0.009249	1.5596763640133713
lung alveolus development	0.25255704	0.005583	1.6554918510780792
positive regulation of striated muscle tissue development	0.2930666	0.00639	1.661465467744257
positive regulation of muscle organ development	0.2930666	0.00639	1.661465467744257
hormone-mediated signaling pathway	0.38909711	0.005452	1.8535021579517879
negative regulation of protein serine/threonine kinase activity	0.50987525	0.005861	1.9394922098851237
regulation of smooth muscle cell differentiation	0.54617313	0.005941	1.9634707780301488
positive regulation of cardiac muscle tissue development	0.36491463	0.003185	2.0590818385894236
